﻿<?xml version="1.0" encoding="utf-8"?>
<svg version="1.1" xmlns:xlink="http://www.w3.org/1999/xlink" width="12px" height="12px" viewBox="38 525  12 12" xmlns="http://www.w3.org/2000/svg">
  <path d="M 38.5 525.5  L 49.5 525.5  L 49.5 536.5  L 38.5 536.5  L 38.5 525.5  Z " fill-rule="nonzero" fill="#ffffff" stroke="none" />
  <path d="M 38.5 525.5  L 49.5 525.5  L 49.5 536.5  L 38.5 536.5  L 38.5 525.5  Z " stroke-width="1" stroke="#797979" fill="none" />
  <path d="M 40.5714285714286 531  L 43.1428571428571 533.571428571429  L 47.4285714285714 527.571428571429  " stroke-width="2.57142857142857" stroke="#797979" fill="none" />
</svg>