﻿<?xml version="1.0" encoding="utf-8"?>
<svg version="1.1" xmlns:xlink="http://www.w3.org/1999/xlink" width="57px" height="10px" preserveAspectRatio="xMinYMid meet" viewBox="5 740  57 8" xmlns="http://www.w3.org/2000/svg">
  <path d="M 724 317.5  L 15 317.5  A 5 5 0 0 0 10.5 322.5 L 10.5 739  A 5 5 0 0 0 15.5 744.5 L 57 744.5  " stroke-width="1" stroke="#797979" fill="none" />
  <path d="M 56 750.8  L 62 744.5  L 56 738.2  L 56 750.8  Z " fill-rule="nonzero" fill="#797979" stroke="none" />
</svg>