﻿<?xml version="1.0" encoding="utf-8"?>
<svg version="1.1" xmlns:xlink="http://www.w3.org/1999/xlink" width="40px" height="40px" xmlns="http://www.w3.org/2000/svg">
  <defs>
    <filter x="454px" y="321px" width="40px" height="40px" filterUnits="userSpaceOnUse" id="filter7">
      <feOffset dx="1" dy="1" in="SourceAlpha" result="shadowOffsetInner" />
      <feGaussianBlur stdDeviation="2.5" in="shadowOffsetInner" result="shadowGaussian" />
      <feComposite in2="shadowGaussian" operator="atop" in="SourceAlpha" result="shadowComposite" />
      <feColorMatrix type="matrix" values="0 0 0 0 0  0 0 0 0 0  0 0 0 0 0  0 0 0 0.698039215686274 0  " in="shadowComposite" />
    </filter>
    <g id="widget8">
      <path d="M 473 325  C 481.4 325  488 331.6  488 340  C 488 348.4  481.4 355  473 355  C 464.6 355  458 348.4  458 340  C 458 331.6  464.6 325  473 325  Z " fill-rule="nonzero" fill="#8c8c8c" stroke="none" />
      <path d="M 473 325.5  C 481.12 325.5  487.5 331.88  487.5 340  C 487.5 348.12  481.12 354.5  473 354.5  C 464.88 354.5  458.5 348.12  458.5 340  C 458.5 331.88  464.88 325.5  473 325.5  Z " stroke-width="1" stroke="#ffffff" fill="none" />
    </g>
  </defs>
  <g transform="matrix(1 0 0 1 -454 -321 )">
    <use xlink:href="#widget8" filter="url(#filter7)" />
    <use xlink:href="#widget8" />
  </g>
</svg>