﻿<?xml version="1.0" encoding="utf-8"?>
<svg version="1.1" xmlns:xlink="http://www.w3.org/1999/xlink" width="68px" height="24px" xmlns="http://www.w3.org/2000/svg">
  <defs>
    <mask fill="white" id="clip36">
      <path d="M 0 19  L 0 5  C 0 2.19999999999999  1.51111111111114 0  3.43434343434343 0  L 64.5656565656566 0  C 66.4888888888889 0  68 2.19999999999999  68 5  L 68 19  C 68 21.8  66.4888888888889 24  64.5656565656566 24  L 32.969696969697 24  L 3.43434343434343 24  C 1.51111111111114 24  0 21.8  0 19  Z " fill-rule="evenodd" />
    </mask>
  </defs>
  <g transform="matrix(1 0 0 1 -627 -313 )">
    <path d="M 0 19  L 0 5  C 0 2.19999999999999  1.51111111111114 0  3.43434343434343 0  L 64.5656565656566 0  C 66.4888888888889 0  68 2.19999999999999  68 5  L 68 19  C 68 21.8  66.4888888888889 24  64.5656565656566 24  L 32.969696969697 24  L 3.43434343434343 24  C 1.51111111111114 24  0 21.8  0 19  Z " fill-rule="nonzero" fill="#ffffff" stroke="none" transform="matrix(1 0 0 1 627 313 )" />
    <path d="M 0 19  L 0 5  C 0 2.19999999999999  1.51111111111114 0  3.43434343434343 0  L 64.5656565656566 0  C 66.4888888888889 0  68 2.19999999999999  68 5  L 68 19  C 68 21.8  66.4888888888889 24  64.5656565656566 24  L 32.969696969697 24  L 3.43434343434343 24  C 1.51111111111114 24  0 21.8  0 19  Z " stroke-width="2" stroke="#797979" fill="none" transform="matrix(1 0 0 1 627 313 )" mask="url(#clip36)" />
  </g>
</svg>