﻿<?xml version="1.0" encoding="utf-8"?>
<svg version="1.1" xmlns:xlink="http://www.w3.org/1999/xlink" width="48px" height="47px" xmlns="http://www.w3.org/2000/svg">
  <g transform="matrix(1 0 0 1 -654 -271 )">
    <path d="M 47 12.9722098214286  C 47.6390977443609 12.5263392857143  47.409022556391 12.0962053571429  47.003007518797 11.7814732142857  L 32.4406015037594 0.493080357142855  C 32.0345864661654 0.178348214285714  31.4864661654135 0  30.9112781954887 0  L 2.16541353383459 0  C 0.967669172932332 0  0 0.750111607142858  0 1.67857142857143  L 0 45.3214285714286  C 0 46.2498883928571  0.967669172932332 47  2.16541353383459 47  L 45.4736842105263 47  C 46.6714285714286 47  47.6390977443609 46.2498883928571  47 45.3214285714286  L 47 12.9722098214286  Z M 30 3.87120535714286  L 42.6451127819549 14  L 30 14  L 30 3.87120535714286  Z M 42 18  L 42 43  L 5 43  L 5 4  L 25 4  L 25 15.1071428571429  C 25.3082706766917 16.3241071428571  26.5804511278196 17.3102678571429  28.1503759398496 18  L 42 18  Z M 23.8195488721805 29.4799107142857  C 23.8195488721805 29.2491071428571  23.5759398496241 29.0602678571429  23.2781954887218 29  L 10.8270676691729 29  C 10.5293233082707 29.0602678571429  10.2857142857143 29.2491071428571  10.2857142857143 29.4799107142857  L 10.2857142857143 31.9977678571429  C 10.2857142857143 32.2285714285714  10.5293233082707 32.4174107142857  10.8270676691729 32  L 23.2781954887218 32  C 23.5759398496241 32.4174107142857  23.8195488721805 32.2285714285714  23.8195488721805 31.9977678571429  L 23.8195488721805 29.4799107142857  Z M 10.8270676691729 22  C 10.5293233082707 21.9263392857143  10.2857142857143 22.1151785714286  10.2857142857143 22.3459821428571  L 10.2857142857143 24.8638392857143  C 10.2857142857143 25.0946428571429  10.5293233082707 25.2834821428571  10.8270676691729 25  L 36.812030075188 25  C 37.1097744360902 25.2834821428571  37.3533834586466 25.0946428571429  37.3533834586466 24.8638392857143  L 37.3533834586466 22.3459821428571  C 37.3533834586466 22.1151785714286  37.1097744360902 21.9263392857143  36.812030075188 22  L 10.8270676691729 22  Z " fill-rule="nonzero" fill="#333333" stroke="none" transform="matrix(1 0 0 1 654 271 )" />
  </g>
</svg>