﻿<?xml version="1.0" encoding="utf-8"?>
<svg version="1.1" xmlns:xlink="http://www.w3.org/1999/xlink" width="19px" height="18px" preserveAspectRatio="xMinYMid meet" viewBox="19 724  19 16" xmlns="http://www.w3.org/2000/svg">
  <path d="M 66 315.5  L 15 315.5  A 5 5 0 0 0 10.5 320.5 L 10.5 727  A 5 5 0 0 0 15.5 732.5 L 27 732.5  " stroke-width="1" stroke="#797979" fill="none" />
  <path d="M 26 738.8  L 32 732.5  L 26 726.2  L 26 738.8  Z " fill-rule="nonzero" fill="#797979" stroke="none" />
</svg>