﻿<?xml version="1.0" encoding="utf-8"?>
<svg version="1.1" xmlns:xlink="http://www.w3.org/1999/xlink" width="12px" height="12px" viewBox="196 3884  12 12" xmlns="http://www.w3.org/2000/svg">
  <path d="M 196.5 3884.5  L 207.5 3884.5  L 207.5 3895.5  L 196.5 3895.5  L 196.5 3884.5  Z " fill-rule="nonzero" fill="#ffffff" stroke="none" />
  <path d="M 196.5 3884.5  L 207.5 3884.5  L 207.5 3895.5  L 196.5 3895.5  L 196.5 3884.5  Z " stroke-width="1" stroke="#797979" fill="none" />
  <path d="M 198.571428571429 3890  L 201.142857142857 3892.57142857143  L 205.428571428571 3886.57142857143  " stroke-width="2.57142857142857" stroke="#797979" fill="none" />
</svg>