﻿<?xml version="1.0" encoding="utf-8"?>
<svg version="1.1" xmlns:xlink="http://www.w3.org/1999/xlink" width="12px" height="12px" viewBox="673 4307  12 12" xmlns="http://www.w3.org/2000/svg">
  <path d="M 679 4307  C 682.36 4307  685 4309.64  685 4313  C 685 4316.36  682.36 4319  679 4319  C 675.64 4319  673 4316.36  673 4313  C 673 4309.64  675.64 4307  679 4307  Z " fill-rule="nonzero" fill="#ffffff" stroke="none" />
  <path d="M 679 4307.5  C 682.08 4307.5  684.5 4309.92  684.5 4313  C 684.5 4316.08  682.08 4318.5  679 4318.5  C 675.92 4318.5  673.5 4316.08  673.5 4313  C 673.5 4309.92  675.92 4307.5  679 4307.5  Z " stroke-width="1" stroke="#797979" fill="none" />
</svg>