﻿<?xml version="1.0" encoding="utf-8"?>
<svg version="1.1" xmlns:xlink="http://www.w3.org/1999/xlink" width="12px" height="12px" viewBox="657 3394  12 12" xmlns="http://www.w3.org/2000/svg">
  <path d="M 663 3394  C 666.36 3394  669 3396.64  669 3400  C 669 3403.36  666.36 3406  663 3406  C 659.64 3406  657 3403.36  657 3400  C 657 3396.64  659.64 3394  663 3394  Z " fill-rule="nonzero" fill="#f0f0f0" stroke="none" />
  <path d="M 663 3394.5  C 666.08 3394.5  668.5 3396.92  668.5 3400  C 668.5 3403.08  666.08 3405.5  663 3405.5  C 659.92 3405.5  657.5 3403.08  657.5 3400  C 657.5 3396.92  659.92 3394.5  663 3394.5  Z " stroke-width="1" stroke="#797979" fill="none" />
</svg>