﻿<?xml version="1.0" encoding="utf-8"?>
<svg version="1.1" xmlns:xlink="http://www.w3.org/1999/xlink" width="12px" height="12px" viewBox="664 2684  12 12" xmlns="http://www.w3.org/2000/svg">
  <path d="M 670 2684  C 673.36 2684  676 2686.64  676 2690  C 676 2693.36  673.36 2696  670 2696  C 666.64 2696  664 2693.36  664 2690  C 664 2686.64  666.64 2684  670 2684  Z " fill-rule="nonzero" fill="#ffffff" stroke="none" />
  <path d="M 670 2684.5  C 673.08 2684.5  675.5 2686.92  675.5 2690  C 675.5 2693.08  673.08 2695.5  670 2695.5  C 666.92 2695.5  664.5 2693.08  664.5 2690  C 664.5 2686.92  666.92 2684.5  670 2684.5  Z " stroke-width="1" stroke="#797979" fill="none" />
</svg>