﻿<?xml version="1.0" encoding="utf-8"?>
<svg version="1.1" xmlns:xlink="http://www.w3.org/1999/xlink" width="12px" height="12px" viewBox="657 3424  12 12" xmlns="http://www.w3.org/2000/svg">
  <path d="M 663 3424  C 666.36 3424  669 3426.64  669 3430  C 669 3433.36  666.36 3436  663 3436  C 659.64 3436  657 3433.36  657 3430  C 657 3426.64  659.64 3424  663 3424  Z " fill-rule="nonzero" fill="#f0f0f0" stroke="none" />
  <path d="M 663 3424.5  C 666.08 3424.5  668.5 3426.92  668.5 3430  C 668.5 3433.08  666.08 3435.5  663 3435.5  C 659.92 3435.5  657.5 3433.08  657.5 3430  C 657.5 3426.92  659.92 3424.5  663 3424.5  Z " stroke-width="1" stroke="#797979" fill="none" />
</svg>