﻿<?xml version="1.0" encoding="utf-8"?>
<svg version="1.1" xmlns:xlink="http://www.w3.org/1999/xlink" width="12px" height="12px" viewBox="657 1899  12 12" xmlns="http://www.w3.org/2000/svg">
  <path d="M 663 1899  C 666.36 1899  669 1901.64  669 1905  C 669 1908.36  666.36 1911  663 1911  C 659.64 1911  657 1908.36  657 1905  C 657 1901.64  659.64 1899  663 1899  Z " fill-rule="nonzero" fill="#f0f0f0" stroke="none" />
  <path d="M 663 1899.5  C 666.08 1899.5  668.5 1901.92  668.5 1905  C 668.5 1908.08  666.08 1910.5  663 1910.5  C 659.92 1910.5  657.5 1908.08  657.5 1905  C 657.5 1901.92  659.92 1899.5  663 1899.5  Z " stroke-width="1" stroke="#797979" fill="none" />
</svg>