﻿<?xml version="1.0" encoding="utf-8"?>
<svg version="1.1" xmlns:xlink="http://www.w3.org/1999/xlink" width="12px" height="12px" viewBox="664 2714  12 12" xmlns="http://www.w3.org/2000/svg">
  <path d="M 670 2714  C 673.36 2714  676 2716.64  676 2720  C 676 2723.36  673.36 2726  670 2726  C 666.64 2726  664 2723.36  664 2720  C 664 2716.64  666.64 2714  670 2714  Z " fill-rule="nonzero" fill="#ffffff" stroke="none" />
  <path d="M 670 2714.5  C 673.08 2714.5  675.5 2716.92  675.5 2720  C 675.5 2723.08  673.08 2725.5  670 2725.5  C 666.92 2725.5  664.5 2723.08  664.5 2720  C 664.5 2716.92  666.92 2714.5  670 2714.5  Z " stroke-width="1" stroke="#797979" fill="none" />
  <path d="M 670 2723  C 668.32 2723  667 2721.68  667 2720  C 667 2718.32  668.32 2717  670 2717  C 671.68 2717  673 2718.32  673 2720  C 673 2721.68  671.68 2723  670 2723  " fill-rule="nonzero" fill="#797979" stroke="none" />
</svg>