﻿<?xml version="1.0" encoding="utf-8"?>
<svg version="1.1" xmlns:xlink="http://www.w3.org/1999/xlink" width="12px" height="12px" viewBox="673 4324  12 12" xmlns="http://www.w3.org/2000/svg">
  <path d="M 679 4324  C 682.36 4324  685 4326.64  685 4330  C 685 4333.36  682.36 4336  679 4336  C 675.64 4336  673 4333.36  673 4330  C 673 4326.64  675.64 4324  679 4324  Z " fill-rule="nonzero" fill="#ffffff" stroke="none" />
  <path d="M 679 4324.5  C 682.08 4324.5  684.5 4326.92  684.5 4330  C 684.5 4333.08  682.08 4335.5  679 4335.5  C 675.92 4335.5  673.5 4333.08  673.5 4330  C 673.5 4326.92  675.92 4324.5  679 4324.5  Z " stroke-width="1" stroke="#797979" fill="none" />
  <path d="M 679 4333  C 677.32 4333  676 4331.68  676 4330  C 676 4328.32  677.32 4327  679 4327  C 680.68 4327  682 4328.32  682 4330  C 682 4331.68  680.68 4333  679 4333  " fill-rule="nonzero" fill="#797979" stroke="none" />
</svg>