﻿<?xml version="1.0" encoding="utf-8"?>
<svg version="1.1" xmlns:xlink="http://www.w3.org/1999/xlink" width="36px" height="21px" xmlns="http://www.w3.org/2000/svg">
  <g transform="matrix(1 0 0 1 -735 -59 )">
    <path d="M 736.067447993571 79.5  L 753 59.7453559924999  L 769.932552006429 79.5  L 736.067447993571 79.5  Z " fill-rule="nonzero" fill="#d7d7d7" stroke="none" />
    <path d="M 735 80  L 753 59  L 771 80  L 735 80  Z M 753 60.4907119849999  L 737.134895987143 79  L 768.865104012857 79  L 753 60.4907119849999  Z " fill-rule="nonzero" fill="#797979" stroke="none" />
  </g>
</svg>