﻿<?xml version="1.0" encoding="utf-8"?>
<svg version="1.1" xmlns:xlink="http://www.w3.org/1999/xlink" width="12px" height="12px" viewBox="51 502  12 12" xmlns="http://www.w3.org/2000/svg">
  <path d="M 51.5 502.5  L 62.5 502.5  L 62.5 513.5  L 51.5 513.5  L 51.5 502.5  Z " fill-rule="nonzero" fill="#ffffff" stroke="none" />
  <path d="M 51.5 502.5  L 62.5 502.5  L 62.5 513.5  L 51.5 513.5  L 51.5 502.5  Z " stroke-width="1" stroke="#797979" fill="none" />
  <path d="M 53.5714285714286 508  L 56.1428571428571 510.571428571429  L 60.4285714285714 504.571428571429  " stroke-width="2.57142857142857" stroke="#797979" fill="none" />
</svg>