﻿<?xml version="1.0" encoding="utf-8"?>
<svg version="1.1" xmlns:xlink="http://www.w3.org/1999/xlink" width="12px" height="12px" viewBox="51 502  12 12" xmlns="http://www.w3.org/2000/svg">
  <path d="M 51.5 502.5  L 62.5 502.5  L 62.5 513.5  L 51.5 513.5  L 51.5 502.5  Z " fill-rule="nonzero" fill="#f0f0f0" stroke="none" />
  <path d="M 51.5 502.5  L 62.5 502.5  L 62.5 513.5  L 51.5 513.5  L 51.5 502.5  Z " stroke-width="1" stroke="#797979" fill="none" />
</svg>