﻿<?xml version="1.0" encoding="utf-8"?>
<svg version="1.1" xmlns:xlink="http://www.w3.org/1999/xlink" width="57px" height="10px" preserveAspectRatio="xMinYMid meet" viewBox="334 931  57 8" xmlns="http://www.w3.org/2000/svg">
  <path d="M 334 935.5  L 381.5 935.5  " stroke-width="1" stroke="#797979" fill="none" />
  <path d="M 380.5 941.8  L 386.5 935.5  L 380.5 929.2  L 380.5 941.8  Z " fill-rule="nonzero" fill="#797979" stroke="none" />
</svg>