﻿<?xml version="1.0" encoding="utf-8"?>
<svg version="1.1" xmlns:xlink="http://www.w3.org/1999/xlink" width="18px" height="19px" preserveAspectRatio="xMidYMin meet" viewBox="269 892  16 19" xmlns="http://www.w3.org/2000/svg">
  <path d="M 277.5 863  L 277.5 901  " stroke-width="1" stroke="#797979" fill="none" />
  <path d="M 271.2 900  L 277.5 906  L 283.8 900  L 271.2 900  Z " fill-rule="nonzero" fill="#797979" stroke="none" />
</svg>