﻿<?xml version="1.0" encoding="utf-8"?>
<svg version="1.1" xmlns:xlink="http://www.w3.org/1999/xlink" width="20px" height="10px" preserveAspectRatio="xMinYMid meet" viewBox="329 713  20 8" xmlns="http://www.w3.org/2000/svg">
  <path d="M 329 717.5  L 337 717.5  A 3 3 0 0 1 340 714.5 A 3 3 0 0 1 343 717.5 L 344.5 717.5  L 344.5 604.5  L 329.5 604.5  " stroke-width="1" stroke-dasharray="3,1" stroke="#797979" fill="none" />
  <path d="M 330.5 598.2  L 324.5 604.5  L 330.5 610.8  L 330.5 598.2  Z " fill-rule="nonzero" fill="#797979" stroke="none" />
</svg>