﻿<?xml version="1.0" encoding="utf-8"?>
<svg version="1.1" xmlns:xlink="http://www.w3.org/1999/xlink" width="10px" height="50px" preserveAspectRatio="xMidYMin meet" viewBox="273 758  8 50" xmlns="http://www.w3.org/2000/svg">
  <path d="M 277.5 758  L 277.5 799  " stroke-width="1" stroke="#797979" fill="none" />
  <path d="M 271.2 798  L 277.5 804  L 283.8 798  L 271.2 798  Z " fill-rule="nonzero" fill="#797979" stroke="none" />
</svg>