﻿<?xml version="1.0" encoding="utf-8"?>
<svg version="1.1" xmlns:xlink="http://www.w3.org/1999/xlink" width="18px" height="10px" preserveAspectRatio="xMinYMid meet" viewBox="327 711  18 8" xmlns="http://www.w3.org/2000/svg">
  <path d="M 327 621.5  L 340.5 621.5  L 340.5 715.5  L 327.5 715.5  " stroke-width="1" stroke-dasharray="3,1" stroke="#797979" fill="none" />
</svg>