﻿<?xml version="1.0" encoding="utf-8"?>
<svg version="1.1" xmlns:xlink="http://www.w3.org/1999/xlink" width="19px" height="18px" preserveAspectRatio="xMinYMid meet" viewBox="372 1000  19 16" xmlns="http://www.w3.org/2000/svg">
  <path d="M 333 1008.5  L 380.5 1008.5  " stroke-width="1" stroke="#797979" fill="none" />
  <path d="M 379.5 1014.8  L 385.5 1008.5  L 379.5 1002.2  L 379.5 1014.8  Z " fill-rule="nonzero" fill="#797979" stroke="none" />
</svg>