﻿<?xml version="1.0" encoding="utf-8"?>
<svg version="1.1" xmlns:xlink="http://www.w3.org/1999/xlink" width="42px" height="10px" preserveAspectRatio="xMinYMid meet" viewBox="333 1007  42 8" xmlns="http://www.w3.org/2000/svg">
  <path d="M 333 1011.5  L 370.5 1011.5  L 370.5 1103.5  L 378.5 1103.5  " stroke-width="1" stroke="#797979" fill="none" />
  <path d="M 377.5 1109.8  L 383.5 1103.5  L 377.5 1097.2  L 377.5 1109.8  Z " fill-rule="nonzero" fill="#797979" stroke="none" />
</svg>