﻿<?xml version="1.0" encoding="utf-8"?>
<svg version="1.1" xmlns:xlink="http://www.w3.org/1999/xlink" width="195.5px" height="10px" preserveAspectRatio="xMinYMid meet" viewBox="331.5 907  195.5 8" xmlns="http://www.w3.org/2000/svg">
  <path d="M 326 911.5  L 337 911.5  L 522.5 911.5  L 522.5 621.5  L 332.5 621.5  " stroke-width="1" stroke-dasharray="3,1" stroke="#797979" fill="none" />
  <path d="M 333.5 615.2  L 327.5 621.5  L 333.5 627.8  L 333.5 615.2  Z " fill-rule="nonzero" fill="#797979" stroke="none" />
</svg>