﻿<?xml version="1.0" encoding="utf-8"?>
<svg version="1.1" xmlns:xlink="http://www.w3.org/1999/xlink" width="200px" height="10px" preserveAspectRatio="xMinYMid meet" viewBox="326 804  200 8" xmlns="http://www.w3.org/2000/svg">
  <path d="M 326 808.5  L 521.5 808.5  L 521.5 622.5  L 345.5 622.5  " stroke-width="1" stroke-dasharray="3,1" stroke="#797979" fill="none" />
  <path d="M 346.5 616.2  L 340.5 622.5  L 346.5 628.8  L 346.5 616.2  Z " fill-rule="nonzero" fill="#797979" stroke="none" />
</svg>