﻿<?xml version="1.0" encoding="utf-8"?>
<svg version="1.1" xmlns:xlink="http://www.w3.org/1999/xlink" width="10px" height="99px" preserveAspectRatio="xMidYMin meet" viewBox="351 817  8 99" xmlns="http://www.w3.org/2000/svg">
  <path d="M 326 911.5  L 355.5 911.5  L 355.5 822.5  L 336.5 822.5  " stroke-width="1" stroke="#797979" fill="none" />
  <path d="M 336.5 815  L 325.5 822.5  L 336.5 830  L 336.5 815  Z " fill-rule="nonzero" fill="#797979" stroke="none" />
</svg>