﻿<?xml version="1.0" encoding="utf-8"?>
<svg version="1.1" xmlns:xlink="http://www.w3.org/1999/xlink" width="18px" height="19px" preserveAspectRatio="xMidYMin meet" viewBox="269 765  16 19" xmlns="http://www.w3.org/2000/svg">
  <path d="M 277.5 745  L 277.5 774  " stroke-width="1" stroke="#797979" fill="none" />
  <path d="M 271.2 773  L 277.5 779  L 283.8 773  L 271.2 773  Z " fill-rule="nonzero" fill="#797979" stroke="none" />
</svg>