﻿<?xml version="1.0" encoding="utf-8"?>
<svg version="1.1" xmlns:xlink="http://www.w3.org/1999/xlink" width="10px" height="87px" preserveAspectRatio="xMidYMin meet" viewBox="356 726  8 87" xmlns="http://www.w3.org/2000/svg">
  <path d="M 326 808.5  L 360.5 808.5  L 360.5 731.5  L 338.5 731.5  " stroke-width="1" stroke="#797979" fill="none" />
  <path d="M 338.5 724  L 327.5 731.5  L 338.5 739  L 338.5 724  Z " fill-rule="nonzero" fill="#797979" stroke="none" />
</svg>