﻿<?xml version="1.0" encoding="utf-8"?>
<svg version="1.1" xmlns:xlink="http://www.w3.org/1999/xlink" width="376px" height="2px" xmlns="http://www.w3.org/2000/svg">
  <g transform="matrix(1 0 0 1 -34 -202 )">
    <path d="M 34 202.5  L 409 202.5  " stroke-width="1" stroke="#c9c9c9" fill="none" />
  </g>
</svg>