﻿<?xml version="1.0" encoding="utf-8"?>
<svg version="1.1" xmlns:xlink="http://www.w3.org/1999/xlink" width="12px" height="12px" viewBox="91 426  12 12" xmlns="http://www.w3.org/2000/svg">
  <path d="M 97 426  C 100.36 426  103 428.64  103 432  C 103 435.36  100.36 438  97 438  C 93.64 438  91 435.36  91 432  C 91 428.64  93.64 426  97 426  Z " fill-rule="nonzero" fill="#ffffff" stroke="none" />
  <path d="M 97 426.5  C 100.08 426.5  102.5 428.92  102.5 432  C 102.5 435.08  100.08 437.5  97 437.5  C 93.92 437.5  91.5 435.08  91.5 432  C 91.5 428.92  93.92 426.5  97 426.5  Z " stroke-width="1" stroke="#797979" fill="none" />
  <path d="M 97 435  C 95.32 435  94 433.68  94 432  C 94 430.32  95.32 429  97 429  C 98.68 429  100 430.32  100 432  C 100 433.68  98.68 435  97 435  " fill-rule="nonzero" fill="#797979" stroke="none" />
</svg>