﻿<?xml version="1.0" encoding="utf-8"?>
<svg version="1.1" xmlns:xlink="http://www.w3.org/1999/xlink" width="12px" height="12px" viewBox="51 306  12 12" xmlns="http://www.w3.org/2000/svg">
  <path d="M 57 306  C 60.36 306  63 308.64  63 312  C 63 315.36  60.36 318  57 318  C 53.64 318  51 315.36  51 312  C 51 308.64  53.64 306  57 306  Z " fill-rule="nonzero" fill="#ffffff" stroke="none" />
  <path d="M 57 306.5  C 60.08 306.5  62.5 308.92  62.5 312  C 62.5 315.08  60.08 317.5  57 317.5  C 53.92 317.5  51.5 315.08  51.5 312  C 51.5 308.92  53.92 306.5  57 306.5  Z " stroke-width="1" stroke="#797979" fill="none" />
  <path d="M 57 315  C 55.32 315  54 313.68  54 312  C 54 310.32  55.32 309  57 309  C 58.68 309  60 310.32  60 312  C 60 313.68  58.68 315  57 315  " fill-rule="nonzero" fill="#797979" stroke="none" />
</svg>