﻿<?xml version="1.0" encoding="utf-8"?>
<svg version="1.1" xmlns:xlink="http://www.w3.org/1999/xlink" width="12px" height="12px" viewBox="91 518  12 12" xmlns="http://www.w3.org/2000/svg">
  <path d="M 97 518  C 100.36 518  103 520.64  103 524  C 103 527.36  100.36 530  97 530  C 93.64 530  91 527.36  91 524  C 91 520.64  93.64 518  97 518  Z " fill-rule="nonzero" fill="#ffffff" stroke="none" />
  <path d="M 97 518.5  C 100.08 518.5  102.5 520.92  102.5 524  C 102.5 527.08  100.08 529.5  97 529.5  C 93.92 529.5  91.5 527.08  91.5 524  C 91.5 520.92  93.92 518.5  97 518.5  Z " stroke-width="1" stroke="#797979" fill="none" />
</svg>