﻿<?xml version="1.0" encoding="utf-8"?>
<svg version="1.1" xmlns:xlink="http://www.w3.org/1999/xlink" width="12px" height="12px" viewBox="91 306  12 12" xmlns="http://www.w3.org/2000/svg">
  <path d="M 97 306  C 100.36 306  103 308.64  103 312  C 103 315.36  100.36 318  97 318  C 93.64 318  91 315.36  91 312  C 91 308.64  93.64 306  97 306  Z " fill-rule="nonzero" fill="#ffffff" stroke="none" />
  <path d="M 97 306.5  C 100.08 306.5  102.5 308.92  102.5 312  C 102.5 315.08  100.08 317.5  97 317.5  C 93.92 317.5  91.5 315.08  91.5 312  C 91.5 308.92  93.92 306.5  97 306.5  Z " stroke-width="1" stroke="#797979" fill="none" />
</svg>