﻿<?xml version="1.0" encoding="utf-8"?>
<svg version="1.1" xmlns:xlink="http://www.w3.org/1999/xlink" width="12px" height="12px" viewBox="51 426  12 12" xmlns="http://www.w3.org/2000/svg">
  <path d="M 57 426  C 60.36 426  63 428.64  63 432  C 63 435.36  60.36 438  57 438  C 53.64 438  51 435.36  51 432  C 51 428.64  53.64 426  57 426  Z " fill-rule="nonzero" fill="#ffffff" stroke="none" />
  <path d="M 57 426.5  C 60.08 426.5  62.5 428.92  62.5 432  C 62.5 435.08  60.08 437.5  57 437.5  C 53.92 437.5  51.5 435.08  51.5 432  C 51.5 428.92  53.92 426.5  57 426.5  Z " stroke-width="1" stroke="#797979" fill="none" />
</svg>