﻿<?xml version="1.0" encoding="utf-8"?>
<svg version="1.1" xmlns:xlink="http://www.w3.org/1999/xlink" width="12px" height="12px" viewBox="51 518  12 12" xmlns="http://www.w3.org/2000/svg">
  <path d="M 57 518  C 60.36 518  63 520.64  63 524  C 63 527.36  60.36 530  57 530  C 53.64 530  51 527.36  51 524  C 51 520.64  53.64 518  57 518  Z " fill-rule="nonzero" fill="#f0f0f0" stroke="none" />
  <path d="M 57 518.5  C 60.08 518.5  62.5 520.92  62.5 524  C 62.5 527.08  60.08 529.5  57 529.5  C 53.92 529.5  51.5 527.08  51.5 524  C 51.5 520.92  53.92 518.5  57 518.5  Z " stroke-width="1" stroke="#797979" fill="none" />
</svg>