﻿<?xml version="1.0" encoding="utf-8"?>
<svg version="1.1" xmlns:xlink="http://www.w3.org/1999/xlink" width="12px" height="12px" viewBox="657 1415  12 12" xmlns="http://www.w3.org/2000/svg">
  <path d="M 663 1415  C 666.36 1415  669 1417.64  669 1421  C 669 1424.36  666.36 1427  663 1427  C 659.64 1427  657 1424.36  657 1421  C 657 1417.64  659.64 1415  663 1415  Z " fill-rule="nonzero" fill="#ffffff" stroke="none" />
  <path d="M 663 1415.5  C 666.08 1415.5  668.5 1417.92  668.5 1421  C 668.5 1424.08  666.08 1426.5  663 1426.5  C 659.92 1426.5  657.5 1424.08  657.5 1421  C 657.5 1417.92  659.92 1415.5  663 1415.5  Z " stroke-width="1" stroke="#797979" fill="none" />
</svg>