﻿<?xml version="1.0" encoding="utf-8"?>
<svg version="1.1" xmlns:xlink="http://www.w3.org/1999/xlink" width="12px" height="12px" viewBox="640 296  12 12" xmlns="http://www.w3.org/2000/svg">
  <path d="M 646 296  C 649.36 296  652 298.64  652 302  C 652 305.36  649.36 308  646 308  C 642.64 308  640 305.36  640 302  C 640 298.64  642.64 296  646 296  Z " fill-rule="nonzero" fill="#ffffff" stroke="none" />
  <path d="M 646 296.5  C 649.08 296.5  651.5 298.92  651.5 302  C 651.5 305.08  649.08 307.5  646 307.5  C 642.92 307.5  640.5 305.08  640.5 302  C 640.5 298.92  642.92 296.5  646 296.5  Z " stroke-width="1" stroke="#797979" fill="none" />
</svg>