﻿<?xml version="1.0" encoding="utf-8"?>
<svg version="1.1" xmlns:xlink="http://www.w3.org/1999/xlink" width="64px" height="19px" xmlns="http://www.w3.org/2000/svg">
  <defs>
    <mask fill="white" id="clip8">
      <path d="M 0 19  L 0 0  L 64 0  L 64 19  L 38.9166666666667 19  L 26.4166666666667 19  L 0 19  Z " fill-rule="evenodd" />
    </mask>
  </defs>
  <g transform="matrix(1 0 0 1 -456 -721 )">
    <path d="M 0 19  L 0 0  L 64 0  L 64 19  L 38.9166666666667 19  L 26.4166666666667 19  L 0 19  Z " fill-rule="nonzero" fill="#f7f7f7" stroke="none" transform="matrix(1 0 0 1 456 721 )" />
    <path d="M 0 19  L 0 0  L 64 0  L 64 19  L 38.9166666666667 19  L 26.4166666666667 19  L 0 19  Z " stroke-width="2" stroke="#7f7f7f" fill="none" transform="matrix(1 0 0 1 456 721 )" mask="url(#clip8)" />
  </g>
</svg>