﻿<?xml version="1.0" encoding="utf-8"?>
<svg version="1.1" xmlns:xlink="http://www.w3.org/1999/xlink" width="12px" height="12px" viewBox="657 823  12 12" xmlns="http://www.w3.org/2000/svg">
  <path d="M 663 823  C 666.36 823  669 825.64  669 829  C 669 832.36  666.36 835  663 835  C 659.64 835  657 832.36  657 829  C 657 825.64  659.64 823  663 823  Z " fill-rule="nonzero" fill="#ffffff" stroke="none" />
  <path d="M 663 823.5  C 666.08 823.5  668.5 825.92  668.5 829  C 668.5 832.08  666.08 834.5  663 834.5  C 659.92 834.5  657.5 832.08  657.5 829  C 657.5 825.92  659.92 823.5  663 823.5  Z " stroke-width="1" stroke="#797979" fill="none" />
  <path d="M 663 832  C 661.32 832  660 830.68  660 829  C 660 827.32  661.32 826  663 826  C 664.68 826  666 827.32  666 829  C 666 830.68  664.68 832  663 832  " fill-rule="nonzero" fill="#797979" stroke="none" />
</svg>