﻿<?xml version="1.0" encoding="utf-8"?>
<svg version="1.1" xmlns:xlink="http://www.w3.org/1999/xlink" width="64px" height="18px" xmlns="http://www.w3.org/2000/svg">
  <defs>
    <mask fill="white" id="clip47">
      <path d="M 0 18  L 0 0  L 64 0  L 64 18  L 38.9166666666667 18  L 26.4166666666667 18  L 0 18  Z " fill-rule="evenodd" />
    </mask>
  </defs>
  <g transform="matrix(1 0 0 1 -456 -743 )">
    <path d="M 0 18  L 0 0  L 64 0  L 64 18  L 38.9166666666667 18  L 26.4166666666667 18  L 0 18  Z " fill-rule="nonzero" fill="#f7f7f7" stroke="none" transform="matrix(1 0 0 1 456 743 )" />
    <path d="M 0 18  L 0 0  L 64 0  L 64 18  L 38.9166666666667 18  L 26.4166666666667 18  L 0 18  Z " stroke-width="2" stroke="#7f7f7f" fill="none" transform="matrix(1 0 0 1 456 743 )" mask="url(#clip47)" />
  </g>
</svg>