﻿<?xml version="1.0" encoding="utf-8"?>
<svg version="1.1" xmlns:xlink="http://www.w3.org/1999/xlink" width="12px" height="12px" viewBox="664 2754  12 12" xmlns="http://www.w3.org/2000/svg">
  <path d="M 670 2754  C 673.36 2754  676 2756.64  676 2760  C 676 2763.36  673.36 2766  670 2766  C 666.64 2766  664 2763.36  664 2760  C 664 2756.64  666.64 2754  670 2754  Z " fill-rule="nonzero" fill="#f0f0f0" stroke="none" />
  <path d="M 670 2754.5  C 673.08 2754.5  675.5 2756.92  675.5 2760  C 675.5 2763.08  673.08 2765.5  670 2765.5  C 666.92 2765.5  664.5 2763.08  664.5 2760  C 664.5 2756.92  666.92 2754.5  670 2754.5  Z " stroke-width="1" stroke="#797979" fill="none" />
</svg>