﻿<?xml version="1.0" encoding="utf-8"?>
<svg version="1.1" xmlns:xlink="http://www.w3.org/1999/xlink" width="12px" height="12px" viewBox="664 2724  12 12" xmlns="http://www.w3.org/2000/svg">
  <path d="M 670 2724  C 673.36 2724  676 2726.64  676 2730  C 676 2733.36  673.36 2736  670 2736  C 666.64 2736  664 2733.36  664 2730  C 664 2726.64  666.64 2724  670 2724  Z " fill-rule="nonzero" fill="#ffffff" stroke="none" />
  <path d="M 670 2724.5  C 673.08 2724.5  675.5 2726.92  675.5 2730  C 675.5 2733.08  673.08 2735.5  670 2735.5  C 666.92 2735.5  664.5 2733.08  664.5 2730  C 664.5 2726.92  666.92 2724.5  670 2724.5  Z " stroke-width="1" stroke="#797979" fill="none" />
  <path d="M 670 2733  C 668.32 2733  667 2731.68  667 2730  C 667 2728.32  668.32 2727  670 2727  C 671.68 2727  673 2728.32  673 2730  C 673 2731.68  671.68 2733  670 2733  " fill-rule="nonzero" fill="#797979" stroke="none" />
</svg>