﻿<?xml version="1.0" encoding="utf-8"?>
<svg version="1.1" xmlns:xlink="http://www.w3.org/1999/xlink" width="12px" height="12px" viewBox="664 3075  12 12" xmlns="http://www.w3.org/2000/svg">
  <path d="M 670 3075  C 673.36 3075  676 3077.64  676 3081  C 676 3084.36  673.36 3087  670 3087  C 666.64 3087  664 3084.36  664 3081  C 664 3077.64  666.64 3075  670 3075  Z " fill-rule="nonzero" fill="#ffffff" stroke="none" />
  <path d="M 670 3075.5  C 673.08 3075.5  675.5 3077.92  675.5 3081  C 675.5 3084.08  673.08 3086.5  670 3086.5  C 666.92 3086.5  664.5 3084.08  664.5 3081  C 664.5 3077.92  666.92 3075.5  670 3075.5  Z " stroke-width="1" stroke="#797979" fill="none" />
</svg>