﻿<?xml version="1.0" encoding="utf-8"?>
<svg version="1.1" xmlns:xlink="http://www.w3.org/1999/xlink" width="12px" height="12px" viewBox="657 853  12 12" xmlns="http://www.w3.org/2000/svg">
  <path d="M 663 853  C 666.36 853  669 855.64  669 859  C 669 862.36  666.36 865  663 865  C 659.64 865  657 862.36  657 859  C 657 855.64  659.64 853  663 853  Z " fill-rule="nonzero" fill="#ffffff" stroke="none" />
  <path d="M 663 853.5  C 666.08 853.5  668.5 855.92  668.5 859  C 668.5 862.08  666.08 864.5  663 864.5  C 659.92 864.5  657.5 862.08  657.5 859  C 657.5 855.92  659.92 853.5  663 853.5  Z " stroke-width="1" stroke="#797979" fill="none" />
</svg>