﻿<?xml version="1.0" encoding="utf-8"?>
<svg version="1.1" xmlns:xlink="http://www.w3.org/1999/xlink" width="155px" height="19px" xmlns="http://www.w3.org/2000/svg">
  <defs>
    <mask fill="white" id="clip42">
      <path d="M 0 19  L 0 0  L 101.71875 0  L 155 0  L 155 19  L 94.2513020833335 19  L 63.9778645833334 19  L 0 19  Z " fill-rule="evenodd" />
    </mask>
  </defs>
  <g transform="matrix(1 0 0 1 -365 -969 )">
    <path d="M 0 19  L 0 0  L 101.71875 0  L 155 0  L 155 19  L 94.2513020833335 19  L 63.9778645833334 19  L 0 19  Z " fill-rule="nonzero" fill="#f7f7f7" stroke="none" transform="matrix(1 0 0 1 365 969 )" />
    <path d="M 0 19  L 0 0  L 101.71875 0  L 155 0  L 155 19  L 94.2513020833335 19  L 63.9778645833334 19  L 0 19  Z " stroke-width="2" stroke="#7f7f7f" fill="none" transform="matrix(1 0 0 1 365 969 )" mask="url(#clip42)" />
  </g>
</svg>