﻿<?xml version="1.0" encoding="utf-8"?>
<svg version="1.1" xmlns:xlink="http://www.w3.org/1999/xlink" width="12px" height="12px" viewBox="657 1929  12 12" xmlns="http://www.w3.org/2000/svg">
  <path d="M 663 1929  C 666.36 1929  669 1931.64  669 1935  C 669 1938.36  666.36 1941  663 1941  C 659.64 1941  657 1938.36  657 1935  C 657 1931.64  659.64 1929  663 1929  Z " fill-rule="nonzero" fill="#ffffff" stroke="none" />
  <path d="M 663 1929.5  C 666.08 1929.5  668.5 1931.92  668.5 1935  C 668.5 1938.08  666.08 1940.5  663 1940.5  C 659.92 1940.5  657.5 1938.08  657.5 1935  C 657.5 1931.92  659.92 1929.5  663 1929.5  Z " stroke-width="1" stroke="#797979" fill="none" />
</svg>