﻿<?xml version="1.0" encoding="utf-8"?>
<svg version="1.1" xmlns:xlink="http://www.w3.org/1999/xlink" width="12px" height="12px" viewBox="664 3105  12 12" xmlns="http://www.w3.org/2000/svg">
  <path d="M 670 3105  C 673.36 3105  676 3107.64  676 3111  C 676 3114.36  673.36 3117  670 3117  C 666.64 3117  664 3114.36  664 3111  C 664 3107.64  666.64 3105  670 3105  Z " fill-rule="nonzero" fill="#f0f0f0" stroke="none" />
  <path d="M 670 3105.5  C 673.08 3105.5  675.5 3107.92  675.5 3111  C 675.5 3114.08  673.08 3116.5  670 3116.5  C 666.92 3116.5  664.5 3114.08  664.5 3111  C 664.5 3107.92  666.92 3105.5  670 3105.5  Z " stroke-width="1" stroke="#797979" fill="none" />
</svg>