﻿<?xml version="1.0" encoding="utf-8"?>
<svg version="1.1" xmlns:xlink="http://www.w3.org/1999/xlink" width="12px" height="12px" viewBox="640 266  12 12" xmlns="http://www.w3.org/2000/svg">
  <path d="M 646 266  C 649.36 266  652 268.64  652 272  C 652 275.36  649.36 278  646 278  C 642.64 278  640 275.36  640 272  C 640 268.64  642.64 266  646 266  Z " fill-rule="nonzero" fill="#ffffff" stroke="none" />
  <path d="M 646 266.5  C 649.08 266.5  651.5 268.92  651.5 272  C 651.5 275.08  649.08 277.5  646 277.5  C 642.92 277.5  640.5 275.08  640.5 272  C 640.5 268.92  642.92 266.5  646 266.5  Z " stroke-width="1" stroke="#797979" fill="none" />
</svg>