﻿<?xml version="1.0" encoding="utf-8"?>
<svg version="1.1" xmlns:xlink="http://www.w3.org/1999/xlink" width="12px" height="12px" viewBox="664 3449  12 12" xmlns="http://www.w3.org/2000/svg">
  <path d="M 670 3449  C 673.36 3449  676 3451.64  676 3455  C 676 3458.36  673.36 3461  670 3461  C 666.64 3461  664 3458.36  664 3455  C 664 3451.64  666.64 3449  670 3449  Z " fill-rule="nonzero" fill="#ffffff" stroke="none" />
  <path d="M 670 3449.5  C 673.08 3449.5  675.5 3451.92  675.5 3455  C 675.5 3458.08  673.08 3460.5  670 3460.5  C 666.92 3460.5  664.5 3458.08  664.5 3455  C 664.5 3451.92  666.92 3449.5  670 3449.5  Z " stroke-width="1" stroke="#797979" fill="none" />
</svg>