﻿<?xml version="1.0" encoding="utf-8"?>
<svg version="1.1" xmlns:xlink="http://www.w3.org/1999/xlink" width="12px" height="12px" viewBox="664 3419  12 12" xmlns="http://www.w3.org/2000/svg">
  <path d="M 670 3419  C 673.36 3419  676 3421.64  676 3425  C 676 3428.36  673.36 3431  670 3431  C 666.64 3431  664 3428.36  664 3425  C 664 3421.64  666.64 3419  670 3419  Z " fill-rule="nonzero" fill="#ffffff" stroke="none" />
  <path d="M 670 3419.5  C 673.08 3419.5  675.5 3421.92  675.5 3425  C 675.5 3428.08  673.08 3430.5  670 3430.5  C 666.92 3430.5  664.5 3428.08  664.5 3425  C 664.5 3421.92  666.92 3419.5  670 3419.5  Z " stroke-width="1" stroke="#797979" fill="none" />
</svg>