﻿<?xml version="1.0" encoding="utf-8"?>
<svg version="1.1" xmlns:xlink="http://www.w3.org/1999/xlink" width="12px" height="12px" viewBox="657 1915  12 12" xmlns="http://www.w3.org/2000/svg">
  <path d="M 663 1915  C 666.36 1915  669 1917.64  669 1921  C 669 1924.36  666.36 1927  663 1927  C 659.64 1927  657 1924.36  657 1921  C 657 1917.64  659.64 1915  663 1915  Z " fill-rule="nonzero" fill="#ffffff" stroke="none" />
  <path d="M 663 1915.5  C 666.08 1915.5  668.5 1917.92  668.5 1921  C 668.5 1924.08  666.08 1926.5  663 1926.5  C 659.92 1926.5  657.5 1924.08  657.5 1921  C 657.5 1917.92  659.92 1915.5  663 1915.5  Z " stroke-width="1" stroke="#797979" fill="none" />
  <path d="M 663 1924  C 661.32 1924  660 1922.68  660 1921  C 660 1919.32  661.32 1918  663 1918  C 664.68 1918  666 1919.32  666 1921  C 666 1922.68  664.68 1924  663 1924  " fill-rule="nonzero" fill="#797979" stroke="none" />
</svg>