﻿<?xml version="1.0" encoding="utf-8"?>
<svg version="1.1" xmlns:xlink="http://www.w3.org/1999/xlink" width="121px" height="19px" xmlns="http://www.w3.org/2000/svg">
  <defs>
    <mask fill="white" id="clip13">
      <path d="M 0 19  L 0 0  L 79.40625 0  L 121 0  L 121 19  L 73.5768229166668 19  L 49.9440104166667 19  L 0 19  Z " fill-rule="evenodd" />
    </mask>
  </defs>
  <g transform="matrix(1 0 0 1 -399 -1024 )">
    <path d="M 0 19  L 0 0  L 79.40625 0  L 121 0  L 121 19  L 73.5768229166668 19  L 49.9440104166667 19  L 0 19  Z " fill-rule="nonzero" fill="#f7f7f7" stroke="none" transform="matrix(1 0 0 1 399 1024 )" />
    <path d="M 0 19  L 0 0  L 79.40625 0  L 121 0  L 121 19  L 73.5768229166668 19  L 49.9440104166667 19  L 0 19  Z " stroke-width="2" stroke="#7f7f7f" fill="none" transform="matrix(1 0 0 1 399 1024 )" mask="url(#clip13)" />
  </g>
</svg>