﻿<?xml version="1.0" encoding="utf-8"?>
<svg version="1.1" xmlns:xlink="http://www.w3.org/1999/xlink" width="12px" height="12px" viewBox="657 889  12 12" xmlns="http://www.w3.org/2000/svg">
  <path d="M 663 889  C 666.36 889  669 891.64  669 895  C 669 898.36  666.36 901  663 901  C 659.64 901  657 898.36  657 895  C 657 891.64  659.64 889  663 889  Z " fill-rule="nonzero" fill="#ffffff" stroke="none" />
  <path d="M 663 889.5  C 666.08 889.5  668.5 891.92  668.5 895  C 668.5 898.08  666.08 900.5  663 900.5  C 659.92 900.5  657.5 898.08  657.5 895  C 657.5 891.92  659.92 889.5  663 889.5  Z " stroke-width="1" stroke="#797979" fill="none" />
  <path d="M 663 898  C 661.32 898  660 896.68  660 895  C 660 893.32  661.32 892  663 892  C 664.68 892  666 893.32  666 895  C 666 896.68  664.68 898  663 898  " fill-rule="nonzero" fill="#797979" stroke="none" />
</svg>