﻿<?xml version="1.0" encoding="utf-8"?>
<svg version="1.1" xmlns:xlink="http://www.w3.org/1999/xlink" width="12px" height="12px" viewBox="664 2671  12 12" xmlns="http://www.w3.org/2000/svg">
  <path d="M 670 2671  C 673.36 2671  676 2673.64  676 2677  C 676 2680.36  673.36 2683  670 2683  C 666.64 2683  664 2680.36  664 2677  C 664 2673.64  666.64 2671  670 2671  Z " fill-rule="nonzero" fill="#ffffff" stroke="none" />
  <path d="M 670 2671.5  C 673.08 2671.5  675.5 2673.92  675.5 2677  C 675.5 2680.08  673.08 2682.5  670 2682.5  C 666.92 2682.5  664.5 2680.08  664.5 2677  C 664.5 2673.92  666.92 2671.5  670 2671.5  Z " stroke-width="1" stroke="#797979" fill="none" />
  <path d="M 670 2680  C 668.32 2680  667 2678.68  667 2677  C 667 2675.32  668.32 2674  670 2674  C 671.68 2674  673 2675.32  673 2677  C 673 2678.68  671.68 2680  670 2680  " fill-rule="nonzero" fill="#797979" stroke="none" />
</svg>