﻿<?xml version="1.0" encoding="utf-8"?>
<svg version="1.1" xmlns:xlink="http://www.w3.org/1999/xlink" width="12px" height="12px" viewBox="664 2701  12 12" xmlns="http://www.w3.org/2000/svg">
  <path d="M 670 2701  C 673.36 2701  676 2703.64  676 2707  C 676 2710.36  673.36 2713  670 2713  C 666.64 2713  664 2710.36  664 2707  C 664 2703.64  666.64 2701  670 2701  Z " fill-rule="nonzero" fill="#ffffff" stroke="none" />
  <path d="M 670 2701.5  C 673.08 2701.5  675.5 2703.92  675.5 2707  C 675.5 2710.08  673.08 2712.5  670 2712.5  C 666.92 2712.5  664.5 2710.08  664.5 2707  C 664.5 2703.92  666.92 2701.5  670 2701.5  Z " stroke-width="1" stroke="#797979" fill="none" />
</svg>