﻿<?xml version="1.0" encoding="utf-8"?>
<svg version="1.1" xmlns:xlink="http://www.w3.org/1999/xlink" width="40px" height="40px" xmlns="http://www.w3.org/2000/svg">
  <defs>
    <mask fill="white" id="clip90">
      <path d="M 0 15  C 0 6.59999999999991  6.60000000000002 0  15 0  C 23.4 0  30 6.59999999999991  30 15  C 30 21.4338302225788  26.1280962188553 26.8116866866631  20.5411000475654 28.976758001254  C 18.8337216060254 29.6384008543359  16.9661697774214 30  15 30  C 6.60000000000002 30  0 23.4000000000001  0 15  Z " fill-rule="evenodd" />
    </mask>
    <filter x="346px" y="2906px" width="40px" height="40px" filterUnits="userSpaceOnUse" id="filter91">
      <feOffset dx="1" dy="1" in="SourceAlpha" result="shadowOffsetInner" />
      <feGaussianBlur stdDeviation="2.5" in="shadowOffsetInner" result="shadowGaussian" />
      <feComposite in2="shadowGaussian" operator="atop" in="SourceAlpha" result="shadowComposite" />
      <feColorMatrix type="matrix" values="0 0 0 0 0  0 0 0 0 0  0 0 0 0 0  0 0 0 0.698039215686274 0  " in="shadowComposite" />
    </filter>
    <g id="widget92">
      <path d="M 0 15  C 0 6.59999999999991  6.60000000000002 0  15 0  C 23.4 0  30 6.59999999999991  30 15  C 30 21.4338302225788  26.1280962188553 26.8116866866631  20.5411000475654 28.976758001254  C 18.8337216060254 29.6384008543359  16.9661697774214 30  15 30  C 6.60000000000002 30  0 23.4000000000001  0 15  Z " fill-rule="nonzero" fill="#009dd9" stroke="none" transform="matrix(1 0 0 1 350 2910 )" />
      <path d="M 0 15  C 0 6.59999999999991  6.60000000000002 0  15 0  C 23.4 0  30 6.59999999999991  30 15  C 30 21.4338302225788  26.1280962188553 26.8116866866631  20.5411000475654 28.976758001254  C 18.8337216060254 29.6384008543359  16.9661697774214 30  15 30  C 6.60000000000002 30  0 23.4000000000001  0 15  Z " stroke-width="2" stroke="#ffffff" fill="none" transform="matrix(1 0 0 1 350 2910 )" mask="url(#clip90)" />
    </g>
  </defs>
  <g transform="matrix(1 0 0 1 -346 -2906 )">
    <use xlink:href="#widget92" filter="url(#filter91)" />
    <use xlink:href="#widget92" />
  </g>
</svg>