﻿<?xml version="1.0" encoding="utf-8"?>
<svg version="1.1" xmlns:xlink="http://www.w3.org/1999/xlink" width="12px" height="12px" viewBox="664 3029  12 12" xmlns="http://www.w3.org/2000/svg">
  <path d="M 670 3029  C 673.36 3029  676 3031.64  676 3035  C 676 3038.36  673.36 3041  670 3041  C 666.64 3041  664 3038.36  664 3035  C 664 3031.64  666.64 3029  670 3029  Z " fill-rule="nonzero" fill="#ffffff" stroke="none" />
  <path d="M 670 3029.5  C 673.08 3029.5  675.5 3031.92  675.5 3035  C 675.5 3038.08  673.08 3040.5  670 3040.5  C 666.92 3040.5  664.5 3038.08  664.5 3035  C 664.5 3031.92  666.92 3029.5  670 3029.5  Z " stroke-width="1" stroke="#797979" fill="none" />
  <path d="M 670 3038  C 668.32 3038  667 3036.68  667 3035  C 667 3033.32  668.32 3032  670 3032  C 671.68 3032  673 3033.32  673 3035  C 673 3036.68  671.68 3038  670 3038  " fill-rule="nonzero" fill="#797979" stroke="none" />
</svg>