﻿<?xml version="1.0" encoding="utf-8"?>
<svg version="1.1" xmlns:xlink="http://www.w3.org/1999/xlink" width="12px" height="12px" viewBox="664 3059  12 12" xmlns="http://www.w3.org/2000/svg">
  <path d="M 670 3059  C 673.36 3059  676 3061.64  676 3065  C 676 3068.36  673.36 3071  670 3071  C 666.64 3071  664 3068.36  664 3065  C 664 3061.64  666.64 3059  670 3059  Z " fill-rule="nonzero" fill="#ffffff" stroke="none" />
  <path d="M 670 3059.5  C 673.08 3059.5  675.5 3061.92  675.5 3065  C 675.5 3068.08  673.08 3070.5  670 3070.5  C 666.92 3070.5  664.5 3068.08  664.5 3065  C 664.5 3061.92  666.92 3059.5  670 3059.5  Z " stroke-width="1" stroke="#797979" fill="none" />
</svg>