﻿<?xml version="1.0" encoding="utf-8"?>
<svg version="1.1" xmlns:xlink="http://www.w3.org/1999/xlink" width="12px" height="12px" viewBox="657 1885  12 12" xmlns="http://www.w3.org/2000/svg">
  <path d="M 663 1885  C 666.36 1885  669 1887.64  669 1891  C 669 1894.36  666.36 1897  663 1897  C 659.64 1897  657 1894.36  657 1891  C 657 1887.64  659.64 1885  663 1885  Z " fill-rule="nonzero" fill="#ffffff" stroke="none" />
  <path d="M 663 1885.5  C 666.08 1885.5  668.5 1887.92  668.5 1891  C 668.5 1894.08  666.08 1896.5  663 1896.5  C 659.92 1896.5  657.5 1894.08  657.5 1891  C 657.5 1887.92  659.92 1885.5  663 1885.5  Z " stroke-width="1" stroke="#797979" fill="none" />
  <path d="M 663 1894  C 661.32 1894  660 1892.68  660 1891  C 660 1889.32  661.32 1888  663 1888  C 664.68 1888  666 1889.32  666 1891  C 666 1892.68  664.68 1894  663 1894  " fill-rule="nonzero" fill="#797979" stroke="none" />
</svg>