﻿<?xml version="1.0" encoding="utf-8"?>
<svg version="1.1" xmlns:xlink="http://www.w3.org/1999/xlink" width="12px" height="12px" viewBox="657 859  12 12" xmlns="http://www.w3.org/2000/svg">
  <path d="M 663 859  C 666.36 859  669 861.64  669 865  C 669 868.36  666.36 871  663 871  C 659.64 871  657 868.36  657 865  C 657 861.64  659.64 859  663 859  Z " fill-rule="nonzero" fill="#ffffff" stroke="none" />
  <path d="M 663 859.5  C 666.08 859.5  668.5 861.92  668.5 865  C 668.5 868.08  666.08 870.5  663 870.5  C 659.92 870.5  657.5 868.08  657.5 865  C 657.5 861.92  659.92 859.5  663 859.5  Z " stroke-width="1" stroke="#797979" fill="none" />
  <path d="M 663 868  C 661.32 868  660 866.68  660 865  C 660 863.32  661.32 862  663 862  C 664.68 862  666 863.32  666 865  C 666 866.68  664.68 868  663 868  " fill-rule="nonzero" fill="#797979" stroke="none" />
</svg>