﻿<?xml version="1.0" encoding="utf-8"?>
<svg version="1.1" xmlns:xlink="http://www.w3.org/1999/xlink" width="12px" height="12px" viewBox="27 1919.5  12 12" xmlns="http://www.w3.org/2000/svg">
  <path d="M 27.5 1920  L 38.5 1920  L 38.5 1931  L 27.5 1931  L 27.5 1920  Z " fill-rule="nonzero" fill="#ffffff" stroke="none" />
  <path d="M 27.5 1920  L 38.5 1920  L 38.5 1931  L 27.5 1931  L 27.5 1920  Z " stroke-width="1" stroke="#797979" fill="none" />
  <path d="M 29.5714285714286 1925.5  L 32.1428571428571 1928.07142857143  L 36.4285714285714 1922.07142857143  " stroke-width="2.57142857142857" stroke="#797979" fill="none" />
</svg>