﻿<?xml version="1.0" encoding="utf-8"?>
<svg version="1.1" xmlns:xlink="http://www.w3.org/1999/xlink" width="12px" height="12px" viewBox="555 506  12 12" xmlns="http://www.w3.org/2000/svg">
  <path d="M 561 506  C 564.36 506  567 508.64  567 512  C 567 515.36  564.36 518  561 518  C 557.64 518  555 515.36  555 512  C 555 508.64  557.64 506  561 506  Z " fill-rule="nonzero" fill="#ffffff" stroke="none" />
  <path d="M 561 506.5  C 564.08 506.5  566.5 508.92  566.5 512  C 566.5 515.08  564.08 517.5  561 517.5  C 557.92 517.5  555.5 515.08  555.5 512  C 555.5 508.92  557.92 506.5  561 506.5  Z " stroke-width="1" stroke="#797979" fill="none" />
  <path d="M 561 515  C 559.32 515  558 513.68  558 512  C 558 510.32  559.32 509  561 509  C 562.68 509  564 510.32  564 512  C 564 513.68  562.68 515  561 515  " fill-rule="nonzero" fill="#797979" stroke="none" />
</svg>