﻿<?xml version="1.0" encoding="utf-8"?>
<svg version="1.1" xmlns:xlink="http://www.w3.org/1999/xlink" width="12px" height="12px" viewBox="116 548  12 12" xmlns="http://www.w3.org/2000/svg">
  <path d="M 122 548  C 125.36 548  128 550.64  128 554  C 128 557.36  125.36 560  122 560  C 118.64 560  116 557.36  116 554  C 116 550.64  118.64 548  122 548  Z " fill-rule="nonzero" fill="#ffffff" stroke="none" />
  <path d="M 122 548.5  C 125.08 548.5  127.5 550.92  127.5 554  C 127.5 557.08  125.08 559.5  122 559.5  C 118.92 559.5  116.5 557.08  116.5 554  C 116.5 550.92  118.92 548.5  122 548.5  Z " stroke-width="1" stroke="#797979" fill="none" />
  <path d="M 122 557  C 120.32 557  119 555.68  119 554  C 119 552.32  120.32 551  122 551  C 123.68 551  125 552.32  125 554  C 125 555.68  123.68 557  122 557  " fill-rule="nonzero" fill="#797979" stroke="none" />
</svg>