﻿<?xml version="1.0" encoding="utf-8"?>
<svg version="1.1" xmlns:xlink="http://www.w3.org/1999/xlink" width="12px" height="12px" viewBox="333 663  12 12" xmlns="http://www.w3.org/2000/svg">
  <path d="M 339 663  C 342.36 663  345 665.64  345 669  C 345 672.36  342.36 675  339 675  C 335.64 675  333 672.36  333 669  C 333 665.64  335.64 663  339 663  Z " fill-rule="nonzero" fill="#ffffff" stroke="none" />
  <path d="M 339 663.5  C 342.08 663.5  344.5 665.92  344.5 669  C 344.5 672.08  342.08 674.5  339 674.5  C 335.92 674.5  333.5 672.08  333.5 669  C 333.5 665.92  335.92 663.5  339 663.5  Z " stroke-width="1" stroke="#797979" fill="none" />
</svg>