﻿<?xml version="1.0" encoding="utf-8"?>
<svg version="1.1" xmlns:xlink="http://www.w3.org/1999/xlink" width="12px" height="12px" viewBox="289 728  12 12" xmlns="http://www.w3.org/2000/svg">
  <path d="M 295 728  C 298.36 728  301 730.64  301 734  C 301 737.36  298.36 740  295 740  C 291.64 740  289 737.36  289 734  C 289 730.64  291.64 728  295 728  Z " fill-rule="nonzero" fill="#f0f0f0" stroke="none" />
  <path d="M 295 728.5  C 298.08 728.5  300.5 730.92  300.5 734  C 300.5 737.08  298.08 739.5  295 739.5  C 291.92 739.5  289.5 737.08  289.5 734  C 289.5 730.92  291.92 728.5  295 728.5  Z " stroke-width="1" stroke="#797979" fill="none" />
</svg>