﻿<?xml version="1.0" encoding="utf-8"?>
<svg version="1.1" xmlns:xlink="http://www.w3.org/1999/xlink" width="12px" height="12px" viewBox="456 710  12 12" xmlns="http://www.w3.org/2000/svg">
  <path d="M 462 710  C 465.36 710  468 712.64  468 716  C 468 719.36  465.36 722  462 722  C 458.64 722  456 719.36  456 716  C 456 712.64  458.64 710  462 710  Z " fill-rule="nonzero" fill="#f0f0f0" stroke="none" />
  <path d="M 462 710.5  C 465.08 710.5  467.5 712.92  467.5 716  C 467.5 719.08  465.08 721.5  462 721.5  C 458.92 721.5  456.5 719.08  456.5 716  C 456.5 712.92  458.92 710.5  462 710.5  Z " stroke-width="1" stroke="#797979" fill="none" />
</svg>