﻿<?xml version="1.0" encoding="utf-8"?>
<svg version="1.1" xmlns:xlink="http://www.w3.org/1999/xlink" width="12px" height="12px" viewBox="656 870  12 12" xmlns="http://www.w3.org/2000/svg">
  <path d="M 662 870  C 665.36 870  668 872.64  668 876  C 668 879.36  665.36 882  662 882  C 658.64 882  656 879.36  656 876  C 656 872.64  658.64 870  662 870  Z " fill-rule="nonzero" fill="#ffffff" stroke="none" />
  <path d="M 662 870.5  C 665.08 870.5  667.5 872.92  667.5 876  C 667.5 879.08  665.08 881.5  662 881.5  C 658.92 881.5  656.5 879.08  656.5 876  C 656.5 872.92  658.92 870.5  662 870.5  Z " stroke-width="1" stroke="#797979" fill="none" />
</svg>