﻿<?xml version="1.0" encoding="utf-8"?>
<svg version="1.1" xmlns:xlink="http://www.w3.org/1999/xlink" width="12px" height="12px" viewBox="347 968  12 12" xmlns="http://www.w3.org/2000/svg">
  <path d="M 353 968  C 356.36 968  359 970.64  359 974  C 359 977.36  356.36 980  353 980  C 349.64 980  347 977.36  347 974  C 347 970.64  349.64 968  353 968  Z " fill-rule="nonzero" fill="#f0f0f0" stroke="none" />
  <path d="M 353 968.5  C 356.08 968.5  358.5 970.92  358.5 974  C 358.5 977.08  356.08 979.5  353 979.5  C 349.92 979.5  347.5 977.08  347.5 974  C 347.5 970.92  349.92 968.5  353 968.5  Z " stroke-width="1" stroke="#797979" fill="none" />
</svg>