﻿<?xml version="1.0" encoding="utf-8"?>
<svg version="1.1" xmlns:xlink="http://www.w3.org/1999/xlink" width="12px" height="12px" viewBox="312 986  12 12" xmlns="http://www.w3.org/2000/svg">
  <path d="M 318 986  C 321.36 986  324 988.64  324 992  C 324 995.36  321.36 998  318 998  C 314.64 998  312 995.36  312 992  C 312 988.64  314.64 986  318 986  Z " fill-rule="nonzero" fill="#ffffff" stroke="none" />
  <path d="M 318 986.5  C 321.08 986.5  323.5 988.92  323.5 992  C 323.5 995.08  321.08 997.5  318 997.5  C 314.92 997.5  312.5 995.08  312.5 992  C 312.5 988.92  314.92 986.5  318 986.5  Z " stroke-width="1" stroke="#797979" fill="none" />
  <path d="M 318 995  C 316.32 995  315 993.68  315 992  C 315 990.32  316.32 989  318 989  C 319.68 989  321 990.32  321 992  C 321 993.68  319.68 995  318 995  " fill-rule="nonzero" fill="#797979" stroke="none" />
</svg>