﻿<?xml version="1.0" encoding="utf-8"?>
<svg version="1.1" xmlns:xlink="http://www.w3.org/1999/xlink" width="12px" height="12px" viewBox="393 1147  12 12" xmlns="http://www.w3.org/2000/svg">
  <path d="M 399 1147  C 402.36 1147  405 1149.64  405 1153  C 405 1156.36  402.36 1159  399 1159  C 395.64 1159  393 1156.36  393 1153  C 393 1149.64  395.64 1147  399 1147  Z " fill-rule="nonzero" fill="#f0f0f0" stroke="none" />
  <path d="M 399 1147.5  C 402.08 1147.5  404.5 1149.92  404.5 1153  C 404.5 1156.08  402.08 1158.5  399 1158.5  C 395.92 1158.5  393.5 1156.08  393.5 1153  C 393.5 1149.92  395.92 1147.5  399 1147.5  Z " stroke-width="1" stroke="#797979" fill="none" />
</svg>