﻿<?xml version="1.0" encoding="utf-8"?>
<svg version="1.1" xmlns:xlink="http://www.w3.org/1999/xlink" width="12px" height="12px" viewBox="21 1095  12 12" xmlns="http://www.w3.org/2000/svg">
  <path d="M 21.5 1095.5  L 32.5 1095.5  L 32.5 1106.5  L 21.5 1106.5  L 21.5 1095.5  Z " fill-rule="nonzero" fill="#ffffff" stroke="none" />
  <path d="M 21.5 1095.5  L 32.5 1095.5  L 32.5 1106.5  L 21.5 1106.5  L 21.5 1095.5  Z " stroke-width="1" stroke="#797979" fill="none" />
  <path d="M 23.5714285714286 1101  L 26.1428571428571 1103.57142857143  L 30.4285714285714 1097.57142857143  " stroke-width="2.57142857142857" stroke="#797979" fill="none" />
</svg>