﻿<?xml version="1.0" encoding="utf-8"?>
<svg version="1.1" xmlns:xlink="http://www.w3.org/1999/xlink" width="12px" height="12px" viewBox="429 1147  12 12" xmlns="http://www.w3.org/2000/svg">
  <path d="M 435 1147  C 438.36 1147  441 1149.64  441 1153  C 441 1156.36  438.36 1159  435 1159  C 431.64 1159  429 1156.36  429 1153  C 429 1149.64  431.64 1147  435 1147  Z " fill-rule="nonzero" fill="#ffffff" stroke="none" />
  <path d="M 435 1147.5  C 438.08 1147.5  440.5 1149.92  440.5 1153  C 440.5 1156.08  438.08 1158.5  435 1158.5  C 431.92 1158.5  429.5 1156.08  429.5 1153  C 429.5 1149.92  431.92 1147.5  435 1147.5  Z " stroke-width="1" stroke="#797979" fill="none" />
</svg>