﻿<?xml version="1.0" encoding="utf-8"?>
<svg version="1.1" xmlns:xlink="http://www.w3.org/1999/xlink" width="12px" height="12px" viewBox="444 1282  12 12" xmlns="http://www.w3.org/2000/svg">
  <path d="M 450 1282  C 453.36 1282  456 1284.64  456 1288  C 456 1291.36  453.36 1294  450 1294  C 446.64 1294  444 1291.36  444 1288  C 444 1284.64  446.64 1282  450 1282  Z " fill-rule="nonzero" fill="#ffffff" stroke="none" />
  <path d="M 450 1282.5  C 453.08 1282.5  455.5 1284.92  455.5 1288  C 455.5 1291.08  453.08 1293.5  450 1293.5  C 446.92 1293.5  444.5 1291.08  444.5 1288  C 444.5 1284.92  446.92 1282.5  450 1282.5  Z " stroke-width="1" stroke="#797979" fill="none" />
  <path d="M 450 1291  C 448.32 1291  447 1289.68  447 1288  C 447 1286.32  448.32 1285  450 1285  C 451.68 1285  453 1286.32  453 1288  C 453 1289.68  451.68 1291  450 1291  " fill-rule="nonzero" fill="#797979" stroke="none" />
</svg>