﻿<?xml version="1.0" encoding="utf-8"?>
<svg version="1.1" xmlns:xlink="http://www.w3.org/1999/xlink" width="38px" height="38px" xmlns="http://www.w3.org/2000/svg">
  <g transform="matrix(1 0 0 1 -275 -531 )">
    <path d="M 13.5714285714286 3.16666666666667  L 13.5714285714286 7  L 24.4285714285714 7  L 24.4285714285714 3.16666666666667  L 13.5714285714286 3.16666666666667  Z M 23.75 22  L 38 22  L 38 34.0416666666667  C 38 35.1302083333333  37.6677827380952 36.0620659722222  37.0033482142857 36.8372395833333  C 36.3389136904762 37.6124131944444  35.5401785714286 38  34.6071428571429 38  L 3.39285714285714 38  C 2.45982142857143 38  1.66108630952381 37.6124131944444  0.996651785714286 36.8372395833333  C 0.332217261904762 36.0620659722222  0 35.1302083333333  0 34.0416666666667  L 0 22  L 14.25 22  L 14.25 26.125  C 14.25 26.5538194444444  14.3843005952381 26.9249131944444  14.6529017857143 27.23828125  C 14.9215029761905 27.5516493055556  15.2395833333333 27.7083333333333  15.6071428571429 27.7083333333333  L 22.3928571428571 27.7083333333333  C 22.7604166666667 27.7083333333333  23.0784970238095 27.5516493055556  23.3470982142857 27.23828125  C 23.6156994047619 26.9249131944444  23.75 26.5538194444444  23.75 26.125  L 23.75 22  Z M 16.2857142857143 22.1666666666667  L 21.7142857142857 22.1666666666667  L 21.7142857142857 25.3333333333333  L 16.2857142857143 25.3333333333333  L 16.2857142857143 22.1666666666667  Z M 37.0033482142857 7.49609375  C 37.6677827380952 8.27126736111111  38 9.203125  38 10.2916666666667  L 38 19.7916666666667  L 0 19.7916666666667  L 0 10.2916666666667  C 0 9.203125  0.332217261904762 8.27126736111111  0.996651785714286 7.49609375  C 1.66108630952381 6.72092013888888  2.45982142857143 6.33333333333333  3.39285714285714 6.33333333333333  L 10.8571428571429 6.33333333333333  L 10.8571428571429 2.375  C 10.8571428571429 1.71527777777778  11.0550595238095 1.15451388888888  11.4508928571429 0.692708333333332  C 11.8467261904762 0.23090277777778  12.327380952381 0  12.8928571428571 0  L 25.1071428571429 0  C 25.6726190476191 0  26.1532738095238 0.23090277777778  26.5491071428571 0.692708333333332  C 26.9449404761905 1.15451388888888  27.1428571428571 1.71527777777778  27.1428571428571 2.375  L 27.1428571428571 6.33333333333333  L 34.6071428571429 6.33333333333333  C 35.5401785714286 6.33333333333333  36.3389136904762 6.72092013888888  37.0033482142857 7.49609375  Z " fill-rule="nonzero" fill="#000000" stroke="none" transform="matrix(1 0 0 1 275 531 )" />
  </g>
</svg>