﻿<?xml version="1.0" encoding="utf-8"?>
<svg version="1.1" xmlns:xlink="http://www.w3.org/1999/xlink" width="12px" height="12px" viewBox="597 199  12 12" xmlns="http://www.w3.org/2000/svg">
  <path d="M 603 199  C 606.36 199  609 201.64  609 205  C 609 208.36  606.36 211  603 211  C 599.64 211  597 208.36  597 205  C 597 201.64  599.64 199  603 199  Z " fill-rule="nonzero" fill="#f0f0f0" stroke="none" />
  <path d="M 603 199.5  C 606.08 199.5  608.5 201.92  608.5 205  C 608.5 208.08  606.08 210.5  603 210.5  C 599.92 210.5  597.5 208.08  597.5 205  C 597.5 201.92  599.92 199.5  603 199.5  Z " stroke-width="1" stroke="#797979" fill="none" />
</svg>