﻿<?xml version="1.0" encoding="utf-8"?>
<svg version="1.1" xmlns:xlink="http://www.w3.org/1999/xlink" width="12px" height="12px" viewBox="561 199  12 12" xmlns="http://www.w3.org/2000/svg">
  <path d="M 567 199  C 570.36 199  573 201.64  573 205  C 573 208.36  570.36 211  567 211  C 563.64 211  561 208.36  561 205  C 561 201.64  563.64 199  567 199  Z " fill-rule="nonzero" fill="#ffffff" stroke="none" />
  <path d="M 567 199.5  C 570.08 199.5  572.5 201.92  572.5 205  C 572.5 208.08  570.08 210.5  567 210.5  C 563.92 210.5  561.5 208.08  561.5 205  C 561.5 201.92  563.92 199.5  567 199.5  Z " stroke-width="1" stroke="#797979" fill="none" />
  <path d="M 567 208  C 565.32 208  564 206.68  564 205  C 564 203.32  565.32 202  567 202  C 568.68 202  570 203.32  570 205  C 570 206.68  568.68 208  567 208  " fill-rule="nonzero" fill="#797979" stroke="none" />
</svg>