﻿<?xml version="1.0" encoding="utf-8"?>
<svg version="1.1" xmlns:xlink="http://www.w3.org/1999/xlink" width="12px" height="12px" viewBox="705 219  12 12" xmlns="http://www.w3.org/2000/svg">
  <path d="M 711 219  C 714.36 219  717 221.64  717 225  C 717 228.36  714.36 231  711 231  C 707.64 231  705 228.36  705 225  C 705 221.64  707.64 219  711 219  Z " fill-rule="nonzero" fill="#ffffff" stroke="none" />
  <path d="M 711 219.5  C 714.08 219.5  716.5 221.92  716.5 225  C 716.5 228.08  714.08 230.5  711 230.5  C 707.92 230.5  705.5 228.08  705.5 225  C 705.5 221.92  707.92 219.5  711 219.5  Z " stroke-width="1" stroke="#797979" fill="none" />
  <path d="M 711 228  C 709.32 228  708 226.68  708 225  C 708 223.32  709.32 222  711 222  C 712.68 222  714 223.32  714 225  C 714 226.68  712.68 228  711 228  " fill-rule="nonzero" fill="#797979" stroke="none" />
</svg>