﻿<?xml version="1.0" encoding="utf-8"?>
<svg version="1.1" xmlns:xlink="http://www.w3.org/1999/xlink" width="12px" height="12px" viewBox="563 384  12 12" xmlns="http://www.w3.org/2000/svg">
  <path d="M 569 384  C 572.36 384  575 386.64  575 390  C 575 393.36  572.36 396  569 396  C 565.64 396  563 393.36  563 390  C 563 386.64  565.64 384  569 384  Z " fill-rule="nonzero" fill="#f0f0f0" stroke="none" />
  <path d="M 569 384.5  C 572.08 384.5  574.5 386.92  574.5 390  C 574.5 393.08  572.08 395.5  569 395.5  C 565.92 395.5  563.5 393.08  563.5 390  C 563.5 386.92  565.92 384.5  569 384.5  Z " stroke-width="1" stroke="#797979" fill="none" />
</svg>