﻿<?xml version="1.0" encoding="utf-8"?>
<svg version="1.1" xmlns:xlink="http://www.w3.org/1999/xlink" width="12px" height="12px" viewBox="482 404  12 12" xmlns="http://www.w3.org/2000/svg">
  <path d="M 488 404  C 491.36 404  494 406.64  494 410  C 494 413.36  491.36 416  488 416  C 484.64 416  482 413.36  482 410  C 482 406.64  484.64 404  488 404  Z " fill-rule="nonzero" fill="#ffffff" stroke="none" />
  <path d="M 488 404.5  C 491.08 404.5  493.5 406.92  493.5 410  C 493.5 413.08  491.08 415.5  488 415.5  C 484.92 415.5  482.5 413.08  482.5 410  C 482.5 406.92  484.92 404.5  488 404.5  Z " stroke-width="1" stroke="#797979" fill="none" />
  <path d="M 488 413  C 486.32 413  485 411.68  485 410  C 485 408.32  486.32 407  488 407  C 489.68 407  491 408.32  491 410  C 491 411.68  489.68 413  488 413  " fill-rule="nonzero" fill="#797979" stroke="none" />
</svg>