﻿<?xml version="1.0" encoding="utf-8"?>
<svg version="1.1" xmlns:xlink="http://www.w3.org/1999/xlink" width="12px" height="12px" viewBox="508 570  12 12" xmlns="http://www.w3.org/2000/svg">
  <path d="M 514 570  C 517.36 570  520 572.64  520 576  C 520 579.36  517.36 582  514 582  C 510.64 582  508 579.36  508 576  C 508 572.64  510.64 570  514 570  Z " fill-rule="nonzero" fill="#ffffff" stroke="none" />
  <path d="M 514 570.5  C 517.08 570.5  519.5 572.92  519.5 576  C 519.5 579.08  517.08 581.5  514 581.5  C 510.92 581.5  508.5 579.08  508.5 576  C 508.5 572.92  510.92 570.5  514 570.5  Z " stroke-width="1" stroke="#797979" fill="none" />
  <path d="M 514 579  C 512.32 579  511 577.68  511 576  C 511 574.32  512.32 573  514 573  C 515.68 573  517 574.32  517 576  C 517 577.68  515.68 579  514 579  " fill-rule="nonzero" fill="#797979" stroke="none" />
</svg>