﻿<?xml version="1.0" encoding="utf-8"?>
<svg version="1.1" xmlns:xlink="http://www.w3.org/1999/xlink" width="12px" height="12px" viewBox="305 588  12 12" xmlns="http://www.w3.org/2000/svg">
  <path d="M 311 588  C 314.36 588  317 590.64  317 594  C 317 597.36  314.36 600  311 600  C 307.64 600  305 597.36  305 594  C 305 590.64  307.64 588  311 588  Z " fill-rule="nonzero" fill="#ffffff" stroke="none" />
  <path d="M 311 588.5  C 314.08 588.5  316.5 590.92  316.5 594  C 316.5 597.08  314.08 599.5  311 599.5  C 307.92 599.5  305.5 597.08  305.5 594  C 305.5 590.92  307.92 588.5  311 588.5  Z " stroke-width="1" stroke="#797979" fill="none" />
</svg>