﻿<?xml version="1.0" encoding="utf-8"?>
<svg version="1.1" xmlns:xlink="http://www.w3.org/1999/xlink" width="12px" height="12px" viewBox="472 570  12 12" xmlns="http://www.w3.org/2000/svg">
  <path d="M 478 570  C 481.36 570  484 572.64  484 576  C 484 579.36  481.36 582  478 582  C 474.64 582  472 579.36  472 576  C 472 572.64  474.64 570  478 570  Z " fill-rule="nonzero" fill="#f0f0f0" stroke="none" />
  <path d="M 478 570.5  C 481.08 570.5  483.5 572.92  483.5 576  C 483.5 579.08  481.08 581.5  478 581.5  C 474.92 581.5  472.5 579.08  472.5 576  C 472.5 572.92  474.92 570.5  478 570.5  Z " stroke-width="1" stroke="#797979" fill="none" />
</svg>