﻿<?xml version="1.0" encoding="utf-8"?>
<svg version="1.1" xmlns:xlink="http://www.w3.org/1999/xlink" width="12px" height="12px" viewBox="212 610  12 12" xmlns="http://www.w3.org/2000/svg">
  <path d="M 218 610  C 221.36 610  224 612.64  224 616  C 224 619.36  221.36 622  218 622  C 214.64 622  212 619.36  212 616  C 212 612.64  214.64 610  218 610  Z " fill-rule="nonzero" fill="#f0f0f0" stroke="none" />
  <path d="M 218 610.5  C 221.08 610.5  223.5 612.92  223.5 616  C 223.5 619.08  221.08 621.5  218 621.5  C 214.92 621.5  212.5 619.08  212.5 616  C 212.5 612.92  214.92 610.5  218 610.5  Z " stroke-width="1" stroke="#797979" fill="none" />
</svg>