﻿<?xml version="1.0" encoding="utf-8"?>
<svg version="1.1" xmlns:xlink="http://www.w3.org/1999/xlink" width="12px" height="12px" viewBox="429 729  12 12" xmlns="http://www.w3.org/2000/svg">
  <path d="M 435 729  C 438.36 729  441 731.64  441 735  C 441 738.36  438.36 741  435 741  C 431.64 741  429 738.36  429 735  C 429 731.64  431.64 729  435 729  Z " fill-rule="nonzero" fill="#ffffff" stroke="none" />
  <path d="M 435 729.5  C 438.08 729.5  440.5 731.92  440.5 735  C 440.5 738.08  438.08 740.5  435 740.5  C 431.92 740.5  429.5 738.08  429.5 735  C 429.5 731.92  431.92 729.5  435 729.5  Z " stroke-width="1" stroke="#797979" fill="none" />
</svg>