﻿<?xml version="1.0" encoding="utf-8"?>
<svg version="1.1" xmlns:xlink="http://www.w3.org/1999/xlink" width="12px" height="12px" viewBox="406 772  12 12" xmlns="http://www.w3.org/2000/svg">
  <path d="M 412 772  C 415.36 772  418 774.64  418 778  C 418 781.36  415.36 784  412 784  C 408.64 784  406 781.36  406 778  C 406 774.64  408.64 772  412 772  Z " fill-rule="nonzero" fill="#ffffff" stroke="none" />
  <path d="M 412 772.5  C 415.08 772.5  417.5 774.92  417.5 778  C 417.5 781.08  415.08 783.5  412 783.5  C 408.92 783.5  406.5 781.08  406.5 778  C 406.5 774.92  408.92 772.5  412 772.5  Z " stroke-width="1" stroke="#797979" fill="none" />
  <path d="M 412 781  C 410.32 781  409 779.68  409 778  C 409 776.32  410.32 775  412 775  C 413.68 775  415 776.32  415 778  C 415 779.68  413.68 781  412 781  " fill-rule="nonzero" fill="#797979" stroke="none" />
</svg>