﻿<?xml version="1.0" encoding="utf-8"?>
<svg version="1.1" xmlns:xlink="http://www.w3.org/1999/xlink" width="12px" height="12px" viewBox="460 1118  12 12" xmlns="http://www.w3.org/2000/svg">
  <path d="M 466 1118  C 469.36 1118  472 1120.64  472 1124  C 472 1127.36  469.36 1130  466 1130  C 462.64 1130  460 1127.36  460 1124  C 460 1120.64  462.64 1118  466 1118  Z " fill-rule="nonzero" fill="#f0f0f0" stroke="none" />
  <path d="M 466 1118.5  C 469.08 1118.5  471.5 1120.92  471.5 1124  C 471.5 1127.08  469.08 1129.5  466 1129.5  C 462.92 1129.5  460.5 1127.08  460.5 1124  C 460.5 1120.92  462.92 1118.5  466 1118.5  Z " stroke-width="1" stroke="#797979" fill="none" />
</svg>