﻿<?xml version="1.0" encoding="utf-8"?>
<svg version="1.1" xmlns:xlink="http://www.w3.org/1999/xlink" width="12px" height="12px" viewBox="88 255  12 12" xmlns="http://www.w3.org/2000/svg">
  <path d="M 88.5 255.5  L 99.5 255.5  L 99.5 266.5  L 88.5 266.5  L 88.5 255.5  Z " fill-rule="nonzero" fill="#ffffff" stroke="none" />
  <path d="M 88.5 255.5  L 99.5 255.5  L 99.5 266.5  L 88.5 266.5  L 88.5 255.5  Z " stroke-width="1" stroke="#797979" fill="none" />
  <path d="M 90.5714285714286 261  L 93.1428571428571 263.571428571429  L 97.4285714285714 257.571428571429  " stroke-width="2.57142857142857" stroke="#797979" fill="none" />
</svg>