﻿<?xml version="1.0" encoding="utf-8"?>
<svg version="1.1" xmlns:xlink="http://www.w3.org/1999/xlink" width="12px" height="12px" viewBox="143 421  12 12" xmlns="http://www.w3.org/2000/svg">
  <path d="M 149 421  C 152.36 421  155 423.64  155 427  C 155 430.36  152.36 433  149 433  C 145.64 433  143 430.36  143 427  C 143 423.64  145.64 421  149 421  Z " fill-rule="nonzero" fill="#ffffff" stroke="none" />
  <path d="M 149 421.5  C 152.08 421.5  154.5 423.92  154.5 427  C 154.5 430.08  152.08 432.5  149 432.5  C 145.92 432.5  143.5 430.08  143.5 427  C 143.5 423.92  145.92 421.5  149 421.5  Z " stroke-width="1" stroke="#797979" fill="none" />
  <path d="M 149 430  C 147.32 430  146 428.68  146 427  C 146 425.32  147.32 424  149 424  C 150.68 424  152 425.32  152 427  C 152 428.68  150.68 430  149 430  " fill-rule="nonzero" fill="#797979" stroke="none" />
</svg>