﻿<?xml version="1.0" encoding="utf-8"?>
<svg version="1.1" xmlns:xlink="http://www.w3.org/1999/xlink" width="12px" height="12px" viewBox="445 901  12 12" xmlns="http://www.w3.org/2000/svg">
  <path d="M 451 901  C 454.36 901  457 903.64  457 907  C 457 910.36  454.36 913  451 913  C 447.64 913  445 910.36  445 907  C 445 903.64  447.64 901  451 901  Z " fill-rule="nonzero" fill="#ffffff" stroke="none" />
  <path d="M 451 901.5  C 454.08 901.5  456.5 903.92  456.5 907  C 456.5 910.08  454.08 912.5  451 912.5  C 447.92 912.5  445.5 910.08  445.5 907  C 445.5 903.92  447.92 901.5  451 901.5  Z " stroke-width="1" stroke="#797979" fill="none" />
</svg>