﻿<?xml version="1.0" encoding="utf-8"?>
<svg version="1.1" xmlns:xlink="http://www.w3.org/1999/xlink" width="12px" height="12px" viewBox="168 1078  12 12" xmlns="http://www.w3.org/2000/svg">
  <path d="M 174 1078  C 177.36 1078  180 1080.64  180 1084  C 180 1087.36  177.36 1090  174 1090  C 170.64 1090  168 1087.36  168 1084  C 168 1080.64  170.64 1078  174 1078  Z " fill-rule="nonzero" fill="#ffffff" stroke="none" />
  <path d="M 174 1078.5  C 177.08 1078.5  179.5 1080.92  179.5 1084  C 179.5 1087.08  177.08 1089.5  174 1089.5  C 170.92 1089.5  168.5 1087.08  168.5 1084  C 168.5 1080.92  170.92 1078.5  174 1078.5  Z " stroke-width="1" stroke="#797979" fill="none" />
  <path d="M 174 1087  C 172.32 1087  171 1085.68  171 1084  C 171 1082.32  172.32 1081  174 1081  C 175.68 1081  177 1082.32  177 1084  C 177 1085.68  175.68 1087  174 1087  " fill-rule="nonzero" fill="#797979" stroke="none" />
</svg>