﻿<?xml version="1.0" encoding="utf-8"?>
<svg version="1.1" xmlns:xlink="http://www.w3.org/1999/xlink" width="12px" height="12px" viewBox="581 752  12 12" xmlns="http://www.w3.org/2000/svg">
  <path d="M 587 752  C 590.36 752  593 754.64  593 758  C 593 761.36  590.36 764  587 764  C 583.64 764  581 761.36  581 758  C 581 754.64  583.64 752  587 752  Z " fill-rule="nonzero" fill="#f0f0f0" stroke="none" />
  <path d="M 587 752.5  C 590.08 752.5  592.5 754.92  592.5 758  C 592.5 761.08  590.08 763.5  587 763.5  C 583.92 763.5  581.5 761.08  581.5 758  C 581.5 754.92  583.92 752.5  587 752.5  Z " stroke-width="1" stroke="#797979" fill="none" />
</svg>