﻿<?xml version="1.0" encoding="utf-8"?>
<svg version="1.1" xmlns:xlink="http://www.w3.org/1999/xlink" width="12px" height="12px" viewBox="409 1008  12 12" xmlns="http://www.w3.org/2000/svg">
  <path d="M 415 1008  C 418.36 1008  421 1010.64  421 1014  C 421 1017.36  418.36 1020  415 1020  C 411.64 1020  409 1017.36  409 1014  C 409 1010.64  411.64 1008  415 1008  Z " fill-rule="nonzero" fill="#ffffff" stroke="none" />
  <path d="M 415 1008.5  C 418.08 1008.5  420.5 1010.92  420.5 1014  C 420.5 1017.08  418.08 1019.5  415 1019.5  C 411.92 1019.5  409.5 1017.08  409.5 1014  C 409.5 1010.92  411.92 1008.5  415 1008.5  Z " stroke-width="1" stroke="#797979" fill="none" />
</svg>