﻿<?xml version="1.0" encoding="utf-8"?>
<svg version="1.1" xmlns:xlink="http://www.w3.org/1999/xlink" width="12px" height="12px" viewBox="204 1078  12 12" xmlns="http://www.w3.org/2000/svg">
  <path d="M 210 1078  C 213.36 1078  216 1080.64  216 1084  C 216 1087.36  213.36 1090  210 1090  C 206.64 1090  204 1087.36  204 1084  C 204 1080.64  206.64 1078  210 1078  Z " fill-rule="nonzero" fill="#f0f0f0" stroke="none" />
  <path d="M 210 1078.5  C 213.08 1078.5  215.5 1080.92  215.5 1084  C 215.5 1087.08  213.08 1089.5  210 1089.5  C 206.92 1089.5  204.5 1087.08  204.5 1084  C 204.5 1080.92  206.92 1078.5  210 1078.5  Z " stroke-width="1" stroke="#797979" fill="none" />
</svg>