﻿<?xml version="1.0" encoding="utf-8"?>
<svg version="1.1" xmlns:xlink="http://www.w3.org/1999/xlink" width="12px" height="12px" viewBox="424 1098  12 12" xmlns="http://www.w3.org/2000/svg">
  <path d="M 430 1098  C 433.36 1098  436 1100.64  436 1104  C 436 1107.36  433.36 1110  430 1110  C 426.64 1110  424 1107.36  424 1104  C 424 1100.64  426.64 1098  430 1098  Z " fill-rule="nonzero" fill="#ffffff" stroke="none" />
  <path d="M 430 1098.5  C 433.08 1098.5  435.5 1100.92  435.5 1104  C 435.5 1107.08  433.08 1109.5  430 1109.5  C 426.92 1109.5  424.5 1107.08  424.5 1104  C 424.5 1100.92  426.92 1098.5  430 1098.5  Z " stroke-width="1" stroke="#797979" fill="none" />
</svg>