﻿<?xml version="1.0" encoding="utf-8"?>
<svg version="1.1" xmlns:xlink="http://www.w3.org/1999/xlink" width="12px" height="12px" viewBox="239 530  12 12" xmlns="http://www.w3.org/2000/svg">
  <path d="M 245 530  C 248.36 530  251 532.64  251 536  C 251 539.36  248.36 542  245 542  C 241.64 542  239 539.36  239 536  C 239 532.64  241.64 530  245 530  Z " fill-rule="nonzero" fill="#ffffff" stroke="none" />
  <path d="M 245 530.5  C 248.08 530.5  250.5 532.92  250.5 536  C 250.5 539.08  248.08 541.5  245 541.5  C 241.92 541.5  239.5 539.08  239.5 536  C 239.5 532.92  241.92 530.5  245 530.5  Z " stroke-width="1" stroke="#797979" fill="none" />
</svg>