﻿<?xml version="1.0" encoding="utf-8"?>
<svg version="1.1" xmlns:xlink="http://www.w3.org/1999/xlink" width="12px" height="12px" viewBox="581 377  12 12" xmlns="http://www.w3.org/2000/svg">
  <path d="M 587 377  C 590.36 377  593 379.64  593 383  C 593 386.36  590.36 389  587 389  C 583.64 389  581 386.36  581 383  C 581 379.64  583.64 377  587 377  Z " fill-rule="nonzero" fill="#ffffff" stroke="none" />
  <path d="M 587 377.5  C 590.08 377.5  592.5 379.92  592.5 383  C 592.5 386.08  590.08 388.5  587 388.5  C 583.92 388.5  581.5 386.08  581.5 383  C 581.5 379.92  583.92 377.5  587 377.5  Z " stroke-width="1" stroke="#797979" fill="none" />
  <path d="M 587 386  C 585.32 386  584 384.68  584 383  C 584 381.32  585.32 380  587 380  C 588.68 380  590 381.32  590 383  C 590 384.68  588.68 386  587 386  " fill-rule="nonzero" fill="#797979" stroke="none" />
</svg>