﻿<?xml version="1.0" encoding="utf-8"?>
<svg version="1.1" xmlns:xlink="http://www.w3.org/1999/xlink" width="12px" height="12px" viewBox="179 421  12 12" xmlns="http://www.w3.org/2000/svg">
  <path d="M 185 421  C 188.36 421  191 423.64  191 427  C 191 430.36  188.36 433  185 433  C 181.64 433  179 430.36  179 427  C 179 423.64  181.64 421  185 421  Z " fill-rule="nonzero" fill="#f0f0f0" stroke="none" />
  <path d="M 185 421.5  C 188.08 421.5  190.5 423.92  190.5 427  C 190.5 430.08  188.08 432.5  185 432.5  C 181.92 432.5  179.5 430.08  179.5 427  C 179.5 423.92  181.92 421.5  185 421.5  Z " stroke-width="1" stroke="#797979" fill="none" />
</svg>