﻿<?xml version="1.0" encoding="utf-8"?>
<svg version="1.1" xmlns:xlink="http://www.w3.org/1999/xlink" width="12px" height="12px" viewBox="626 549  12 12" xmlns="http://www.w3.org/2000/svg">
  <path d="M 632 549  C 635.36 549  638 551.64  638 555  C 638 558.36  635.36 561  632 561  C 628.64 561  626 558.36  626 555  C 626 551.64  628.64 549  632 549  Z " fill-rule="nonzero" fill="#ffffff" stroke="none" />
  <path d="M 632 549.5  C 635.08 549.5  637.5 551.92  637.5 555  C 637.5 558.08  635.08 560.5  632 560.5  C 628.92 560.5  626.5 558.08  626.5 555  C 626.5 551.92  628.92 549.5  632 549.5  Z " stroke-width="1" stroke="#797979" fill="none" />
</svg>