﻿<?xml version="1.0" encoding="utf-8"?>
<svg version="1.1" xmlns:xlink="http://www.w3.org/1999/xlink" width="12px" height="12px" viewBox="327 823  12 12" xmlns="http://www.w3.org/2000/svg">
  <path d="M 333 823  C 336.36 823  339 825.64  339 829  C 339 832.36  336.36 835  333 835  C 329.64 835  327 832.36  327 829  C 327 825.64  329.64 823  333 823  Z " fill-rule="nonzero" fill="#ffffff" stroke="none" />
  <path d="M 333 823.5  C 336.08 823.5  338.5 825.92  338.5 829  C 338.5 832.08  336.08 834.5  333 834.5  C 329.92 834.5  327.5 832.08  327.5 829  C 327.5 825.92  329.92 823.5  333 823.5  Z " stroke-width="1" stroke="#797979" fill="none" />
  <path d="M 333 832  C 331.32 832  330 830.68  330 829  C 330 827.32  331.32 826  333 826  C 334.68 826  336 827.32  336 829  C 336 830.68  334.68 832  333 832  " fill-rule="nonzero" fill="#797979" stroke="none" />
</svg>