﻿<?xml version="1.0" encoding="utf-8"?>
<svg version="1.1" xmlns:xlink="http://www.w3.org/1999/xlink" width="12px" height="12px" viewBox="617 752  12 12" xmlns="http://www.w3.org/2000/svg">
  <path d="M 623 752  C 626.36 752  629 754.64  629 758  C 629 761.36  626.36 764  623 764  C 619.64 764  617 761.36  617 758  C 617 754.64  619.64 752  623 752  Z " fill-rule="nonzero" fill="#ffffff" stroke="none" />
  <path d="M 623 752.5  C 626.08 752.5  628.5 754.92  628.5 758  C 628.5 761.08  626.08 763.5  623 763.5  C 619.92 763.5  617.5 761.08  617.5 758  C 617.5 754.92  619.92 752.5  623 752.5  Z " stroke-width="1" stroke="#797979" fill="none" />
</svg>