﻿<?xml version="1.0" encoding="utf-8"?>
<svg version="1.1" xmlns:xlink="http://www.w3.org/1999/xlink" width="12px" height="12px" viewBox="364 861  12 12" xmlns="http://www.w3.org/2000/svg">
  <path d="M 370 861  C 373.36 861  376 863.64  376 867  C 376 870.36  373.36 873  370 873  C 366.64 873  364 870.36  364 867  C 364 863.64  366.64 861  370 861  Z " fill-rule="nonzero" fill="#ffffff" stroke="none" />
  <path d="M 370 861.5  C 373.08 861.5  375.5 863.92  375.5 867  C 375.5 870.08  373.08 872.5  370 872.5  C 366.92 872.5  364.5 870.08  364.5 867  C 364.5 863.92  366.92 861.5  370 861.5  Z " stroke-width="1" stroke="#797979" fill="none" />
  <path d="M 370 870  C 368.32 870  367 868.68  367 867  C 367 865.32  368.32 864  370 864  C 371.68 864  373 865.32  373 867  C 373 868.68  371.68 870  370 870  " fill-rule="nonzero" fill="#797979" stroke="none" />
</svg>