﻿<?xml version="1.0" encoding="utf-8"?>
<svg version="1.1" xmlns:xlink="http://www.w3.org/1999/xlink" width="12px" height="12px" viewBox="409 921  12 12" xmlns="http://www.w3.org/2000/svg">
  <path d="M 415 921  C 418.36 921  421 923.64  421 927  C 421 930.36  418.36 933  415 933  C 411.64 933  409 930.36  409 927  C 409 923.64  411.64 921  415 921  Z " fill-rule="nonzero" fill="#ffffff" stroke="none" />
  <path d="M 415 921.5  C 418.08 921.5  420.5 923.92  420.5 927  C 420.5 930.08  418.08 932.5  415 932.5  C 411.92 932.5  409.5 930.08  409.5 927  C 409.5 923.92  411.92 921.5  415 921.5  Z " stroke-width="1" stroke="#797979" fill="none" />
  <path d="M 415 930  C 413.32 930  412 928.68  412 927  C 412 925.32  413.32 924  415 924  C 416.68 924  418 925.32  418 927  C 418 928.68  416.68 930  415 930  " fill-rule="nonzero" fill="#797979" stroke="none" />
</svg>