﻿<?xml version="1.0" encoding="utf-8"?>
<svg version="1.1" xmlns:xlink="http://www.w3.org/1999/xlink" width="12px" height="12px" viewBox="248 610  12 12" xmlns="http://www.w3.org/2000/svg">
  <path d="M 254 610  C 257.36 610  260 612.64  260 616  C 260 619.36  257.36 622  254 622  C 250.64 622  248 619.36  248 616  C 248 612.64  250.64 610  254 610  Z " fill-rule="nonzero" fill="#ffffff" stroke="none" />
  <path d="M 254 610.5  C 257.08 610.5  259.5 612.92  259.5 616  C 259.5 619.08  257.08 621.5  254 621.5  C 250.92 621.5  248.5 619.08  248.5 616  C 248.5 612.92  250.92 610.5  254 610.5  Z " stroke-width="1" stroke="#797979" fill="none" />
</svg>