﻿<?xml version="1.0" encoding="utf-8"?>
<svg version="1.1" xmlns:xlink="http://www.w3.org/1999/xlink" width="12px" height="12px" viewBox="445 988  12 12" xmlns="http://www.w3.org/2000/svg">
  <path d="M 451 988  C 454.36 988  457 990.64  457 994  C 457 997.36  454.36 1000  451 1000  C 447.64 1000  445 997.36  445 994  C 445 990.64  447.64 988  451 988  Z " fill-rule="nonzero" fill="#ffffff" stroke="none" />
  <path d="M 451 988.5  C 454.08 988.5  456.5 990.92  456.5 994  C 456.5 997.08  454.08 999.5  451 999.5  C 447.92 999.5  445.5 997.08  445.5 994  C 445.5 990.92  447.92 988.5  451 988.5  Z " stroke-width="1" stroke="#797979" fill="none" />
  <path d="M 451 997  C 449.32 997  448 995.68  448 994  C 448 992.32  449.32 991  451 991  C 452.68 991  454 992.32  454 994  C 454 995.68  452.68 997  451 997  " fill-rule="nonzero" fill="#797979" stroke="none" />
</svg>