﻿<?xml version="1.0" encoding="utf-8"?>
<svg version="1.1" xmlns:xlink="http://www.w3.org/1999/xlink" width="12px" height="12px" viewBox="409 988  12 12" xmlns="http://www.w3.org/2000/svg">
  <path d="M 415 988  C 418.36 988  421 990.64  421 994  C 421 997.36  418.36 1000  415 1000  C 411.64 1000  409 997.36  409 994  C 409 990.64  411.64 988  415 988  Z " fill-rule="nonzero" fill="#f0f0f0" stroke="none" />
  <path d="M 415 988.5  C 418.08 988.5  420.5 990.92  420.5 994  C 420.5 997.08  418.08 999.5  415 999.5  C 411.92 999.5  409.5 997.08  409.5 994  C 409.5 990.92  411.92 988.5  415 988.5  Z " stroke-width="1" stroke="#797979" fill="none" />
</svg>