﻿<?xml version="1.0" encoding="utf-8"?>
<svg version="1.1" xmlns:xlink="http://www.w3.org/1999/xlink" width="12px" height="12px" viewBox="617 377  12 12" xmlns="http://www.w3.org/2000/svg">
  <path d="M 623 377  C 626.36 377  629 379.64  629 383  C 629 386.36  626.36 389  623 389  C 619.64 389  617 386.36  617 383  C 617 379.64  619.64 377  623 377  Z " fill-rule="nonzero" fill="#ffffff" stroke="none" />
  <path d="M 623 377.5  C 626.08 377.5  628.5 379.92  628.5 383  C 628.5 386.08  626.08 388.5  623 388.5  C 619.92 388.5  617.5 386.08  617.5 383  C 617.5 379.92  619.92 377.5  623 377.5  Z " stroke-width="1" stroke="#797979" fill="none" />
  <path d="M 623 386  C 621.32 386  620 384.68  620 383  C 620 381.32  621.32 380  623 380  C 624.68 380  626 381.32  626 383  C 626 384.68  624.68 386  623 386  " fill-rule="nonzero" fill="#797979" stroke="none" />
</svg>