﻿<?xml version="1.0" encoding="utf-8"?>
<svg version="1.1" xmlns:xlink="http://www.w3.org/1999/xlink" width="12px" height="12px" viewBox="590 549  12 12" xmlns="http://www.w3.org/2000/svg">
  <path d="M 596 549  C 599.36 549  602 551.64  602 555  C 602 558.36  599.36 561  596 561  C 592.64 561  590 558.36  590 555  C 590 551.64  592.64 549  596 549  Z " fill-rule="nonzero" fill="#ffffff" stroke="none" />
  <path d="M 596 549.5  C 599.08 549.5  601.5 551.92  601.5 555  C 601.5 558.08  599.08 560.5  596 560.5  C 592.92 560.5  590.5 558.08  590.5 555  C 590.5 551.92  592.92 549.5  596 549.5  Z " stroke-width="1" stroke="#797979" fill="none" />
  <path d="M 596 558  C 594.32 558  593 556.68  593 555  C 593 553.32  594.32 552  596 552  C 597.68 552  599 553.32  599 555  C 599 556.68  597.68 558  596 558  " fill-rule="nonzero" fill="#797979" stroke="none" />
</svg>