﻿<?xml version="1.0" encoding="utf-8"?>
<svg version="1.1" xmlns:xlink="http://www.w3.org/1999/xlink" width="12px" height="12px" viewBox="203 530  12 12" xmlns="http://www.w3.org/2000/svg">
  <path d="M 209 530  C 212.36 530  215 532.64  215 536  C 215 539.36  212.36 542  209 542  C 205.64 542  203 539.36  203 536  C 203 532.64  205.64 530  209 530  Z " fill-rule="nonzero" fill="#ffffff" stroke="none" />
  <path d="M 209 530.5  C 212.08 530.5  214.5 532.92  214.5 536  C 214.5 539.08  212.08 541.5  209 541.5  C 205.92 541.5  203.5 539.08  203.5 536  C 203.5 532.92  205.92 530.5  209 530.5  Z " stroke-width="1" stroke="#797979" fill="none" />
</svg>