﻿<?xml version="1.0" encoding="utf-8"?>
<svg version="1.1" xmlns:xlink="http://www.w3.org/1999/xlink" width="12px" height="12px" viewBox="269 588  12 12" xmlns="http://www.w3.org/2000/svg">
  <path d="M 275 588  C 278.36 588  281 590.64  281 594  C 281 597.36  278.36 600  275 600  C 271.64 600  269 597.36  269 594  C 269 590.64  271.64 588  275 588  Z " fill-rule="nonzero" fill="#f0f0f0" stroke="none" />
  <path d="M 275 588.5  C 278.08 588.5  280.5 590.92  280.5 594  C 280.5 597.08  278.08 599.5  275 599.5  C 271.92 599.5  269.5 597.08  269.5 594  C 269.5 590.92  271.92 588.5  275 588.5  Z " stroke-width="1" stroke="#797979" fill="none" />
</svg>