﻿<?xml version="1.0" encoding="utf-8"?>
<svg version="1.1" xmlns:xlink="http://www.w3.org/1999/xlink" width="12px" height="12px" viewBox="328 861  12 12" xmlns="http://www.w3.org/2000/svg">
  <path d="M 334 861  C 337.36 861  340 863.64  340 867  C 340 870.36  337.36 873  334 873  C 330.64 873  328 870.36  328 867  C 328 863.64  330.64 861  334 861  Z " fill-rule="nonzero" fill="#f0f0f0" stroke="none" />
  <path d="M 334 861.5  C 337.08 861.5  339.5 863.92  339.5 867  C 339.5 870.08  337.08 872.5  334 872.5  C 330.92 872.5  328.5 870.08  328.5 867  C 328.5 863.92  330.92 861.5  334 861.5  Z " stroke-width="1" stroke="#797979" fill="none" />
</svg>