﻿<?xml version="1.0" encoding="utf-8"?>
<svg version="1.1" xmlns:xlink="http://www.w3.org/1999/xlink" width="12px" height="12px" viewBox="363 823  12 12" xmlns="http://www.w3.org/2000/svg">
  <path d="M 369 823  C 372.36 823  375 825.64  375 829  C 375 832.36  372.36 835  369 835  C 365.64 835  363 832.36  363 829  C 363 825.64  365.64 823  369 823  Z " fill-rule="nonzero" fill="#ffffff" stroke="none" />
  <path d="M 369 823.5  C 372.08 823.5  374.5 825.92  374.5 829  C 374.5 832.08  372.08 834.5  369 834.5  C 365.92 834.5  363.5 832.08  363.5 829  C 363.5 825.92  365.92 823.5  369 823.5  Z " stroke-width="1" stroke="#797979" fill="none" />
</svg>