﻿<?xml version="1.0" encoding="utf-8"?>
<svg version="1.1" xmlns:xlink="http://www.w3.org/1999/xlink" width="12px" height="12px" viewBox="328 841  12 12" xmlns="http://www.w3.org/2000/svg">
  <path d="M 334 841  C 337.36 841  340 843.64  340 847  C 340 850.36  337.36 853  334 853  C 330.64 853  328 850.36  328 847  C 328 843.64  330.64 841  334 841  Z " fill-rule="nonzero" fill="#f0f0f0" stroke="none" />
  <path d="M 334 841.5  C 337.08 841.5  339.5 843.92  339.5 847  C 339.5 850.08  337.08 852.5  334 852.5  C 330.92 852.5  328.5 850.08  328.5 847  C 328.5 843.92  330.92 841.5  334 841.5  Z " stroke-width="1" stroke="#797979" fill="none" />
</svg>