﻿<?xml version="1.0" encoding="utf-8"?>
<svg version="1.1" xmlns:xlink="http://www.w3.org/1999/xlink" width="12px" height="12px" viewBox="409 901  12 12" xmlns="http://www.w3.org/2000/svg">
  <path d="M 415 901  C 418.36 901  421 903.64  421 907  C 421 910.36  418.36 913  415 913  C 411.64 913  409 910.36  409 907  C 409 903.64  411.64 901  415 901  Z " fill-rule="nonzero" fill="#ffffff" stroke="none" />
  <path d="M 415 901.5  C 418.08 901.5  420.5 903.92  420.5 907  C 420.5 910.08  418.08 912.5  415 912.5  C 411.92 912.5  409.5 910.08  409.5 907  C 409.5 903.92  411.92 901.5  415 901.5  Z " stroke-width="1" stroke="#797979" fill="none" />
  <path d="M 415 910  C 413.32 910  412 908.68  412 907  C 412 905.32  413.32 904  415 904  C 416.68 904  418 905.32  418 907  C 418 908.68  416.68 910  415 910  " fill-rule="nonzero" fill="#797979" stroke="none" />
</svg>