﻿<?xml version="1.0" encoding="utf-8"?>
<svg version="1.1" xmlns:xlink="http://www.w3.org/1999/xlink" width="12px" height="12px" viewBox="424 1118  12 12" xmlns="http://www.w3.org/2000/svg">
  <path d="M 430 1118  C 433.36 1118  436 1120.64  436 1124  C 436 1127.36  433.36 1130  430 1130  C 426.64 1130  424 1127.36  424 1124  C 424 1120.64  426.64 1118  430 1118  Z " fill-rule="nonzero" fill="#ffffff" stroke="none" />
  <path d="M 430 1118.5  C 433.08 1118.5  435.5 1120.92  435.5 1124  C 435.5 1127.08  433.08 1129.5  430 1129.5  C 426.92 1129.5  424.5 1127.08  424.5 1124  C 424.5 1120.92  426.92 1118.5  430 1118.5  Z " stroke-width="1" stroke="#797979" fill="none" />
</svg>