﻿<?xml version="1.0" encoding="utf-8"?>
<svg version="1.1" xmlns:xlink="http://www.w3.org/1999/xlink" width="12px" height="12px" viewBox="140 941  12 12" xmlns="http://www.w3.org/2000/svg">
  <path d="M 140.5 941.5  L 151.5 941.5  L 151.5 952.5  L 140.5 952.5  L 140.5 941.5  Z " fill-rule="nonzero" fill="#ffffff" stroke="none" />
  <path d="M 140.5 941.5  L 151.5 941.5  L 151.5 952.5  L 140.5 952.5  L 140.5 941.5  Z " stroke-width="1" stroke="#797979" fill="none" />
  <path d="M 142.571428571429 947  L 145.142857142857 949.571428571429  L 149.428571428571 943.571428571429  " stroke-width="2.57142857142857" stroke="#797979" fill="none" />
</svg>