﻿<?xml version="1.0" encoding="utf-8"?>
<svg version="1.1" xmlns:xlink="http://www.w3.org/1999/xlink" width="12px" height="12px" viewBox="370 772  12 12" xmlns="http://www.w3.org/2000/svg">
  <path d="M 376 772  C 379.36 772  382 774.64  382 778  C 382 781.36  379.36 784  376 784  C 372.64 784  370 781.36  370 778  C 370 774.64  372.64 772  376 772  Z " fill-rule="nonzero" fill="#f0f0f0" stroke="none" />
  <path d="M 376 772.5  C 379.08 772.5  381.5 774.92  381.5 778  C 381.5 781.08  379.08 783.5  376 783.5  C 372.92 783.5  370.5 781.08  370.5 778  C 370.5 774.92  372.92 772.5  376 772.5  Z " stroke-width="1" stroke="#797979" fill="none" />
</svg>