﻿<?xml version="1.0" encoding="utf-8"?>
<svg version="1.1" xmlns:xlink="http://www.w3.org/1999/xlink" width="12px" height="12px" viewBox="445 921  12 12" xmlns="http://www.w3.org/2000/svg">
  <path d="M 451 921  C 454.36 921  457 923.64  457 927  C 457 930.36  454.36 933  451 933  C 447.64 933  445 930.36  445 927  C 445 923.64  447.64 921  451 921  Z " fill-rule="nonzero" fill="#ffffff" stroke="none" />
  <path d="M 451 921.5  C 454.08 921.5  456.5 923.92  456.5 927  C 456.5 930.08  454.08 932.5  451 932.5  C 447.92 932.5  445.5 930.08  445.5 927  C 445.5 923.92  447.92 921.5  451 921.5  Z " stroke-width="1" stroke="#797979" fill="none" />
</svg>