﻿<?xml version="1.0" encoding="utf-8"?>
<svg version="1.1" xmlns:xlink="http://www.w3.org/1999/xlink" width="12px" height="12px" viewBox="460 1098  12 12" xmlns="http://www.w3.org/2000/svg">
  <path d="M 466 1098  C 469.36 1098  472 1100.64  472 1104  C 472 1107.36  469.36 1110  466 1110  C 462.64 1110  460 1107.36  460 1104  C 460 1100.64  462.64 1098  466 1098  Z " fill-rule="nonzero" fill="#ffffff" stroke="none" />
  <path d="M 466 1098.5  C 469.08 1098.5  471.5 1100.92  471.5 1104  C 471.5 1107.08  469.08 1109.5  466 1109.5  C 462.92 1109.5  460.5 1107.08  460.5 1104  C 460.5 1100.92  462.92 1098.5  466 1098.5  Z " stroke-width="1" stroke="#797979" fill="none" />
</svg>