﻿<?xml version="1.0" encoding="utf-8"?>
<svg version="1.1" xmlns:xlink="http://www.w3.org/1999/xlink" width="12px" height="12px" viewBox="445 1008  12 12" xmlns="http://www.w3.org/2000/svg">
  <path d="M 451 1008  C 454.36 1008  457 1010.64  457 1014  C 457 1017.36  454.36 1020  451 1020  C 447.64 1020  445 1017.36  445 1014  C 445 1010.64  447.64 1008  451 1008  Z " fill-rule="nonzero" fill="#ffffff" stroke="none" />
  <path d="M 451 1008.5  C 454.08 1008.5  456.5 1010.92  456.5 1014  C 456.5 1017.08  454.08 1019.5  451 1019.5  C 447.92 1019.5  445.5 1017.08  445.5 1014  C 445.5 1010.92  447.92 1008.5  451 1008.5  Z " stroke-width="1" stroke="#797979" fill="none" />
  <path d="M 451 1017  C 449.32 1017  448 1015.68  448 1014  C 448 1012.32  449.32 1011  451 1011  C 452.68 1011  454 1012.32  454 1014  C 454 1015.68  452.68 1017  451 1017  " fill-rule="nonzero" fill="#797979" stroke="none" />
</svg>