﻿<?xml version="1.0" encoding="utf-8"?>
<svg version="1.1" xmlns:xlink="http://www.w3.org/1999/xlink" width="12px" height="12px" viewBox="698 398  12 12" xmlns="http://www.w3.org/2000/svg">
  <path d="M 704 398  C 707.36 398  710 400.64  710 404  C 710 407.36  707.36 410  704 410  C 700.64 410  698 407.36  698 404  C 698 400.64  700.64 398  704 398  Z " fill-rule="nonzero" fill="#f0f0f0" stroke="none" />
  <path d="M 704 398.5  C 707.08 398.5  709.5 400.92  709.5 404  C 709.5 407.08  707.08 409.5  704 409.5  C 700.92 409.5  698.5 407.08  698.5 404  C 698.5 400.92  700.92 398.5  704 398.5  Z " stroke-width="1" stroke="#797979" fill="none" />
</svg>