﻿<?xml version="1.0" encoding="utf-8"?>
<svg version="1.1" xmlns:xlink="http://www.w3.org/1999/xlink" width="12px" height="12px" viewBox="734 398  12 12" xmlns="http://www.w3.org/2000/svg">
  <path d="M 740 398  C 743.36 398  746 400.64  746 404  C 746 407.36  743.36 410  740 410  C 736.64 410  734 407.36  734 404  C 734 400.64  736.64 398  740 398  Z " fill-rule="nonzero" fill="#ffffff" stroke="none" />
  <path d="M 740 398.5  C 743.08 398.5  745.5 400.92  745.5 404  C 745.5 407.08  743.08 409.5  740 409.5  C 736.92 409.5  734.5 407.08  734.5 404  C 734.5 400.92  736.92 398.5  740 398.5  Z " stroke-width="1" stroke="#797979" fill="none" />
</svg>