﻿<?xml version="1.0" encoding="utf-8"?>
<svg version="1.1" xmlns:xlink="http://www.w3.org/1999/xlink" width="12px" height="12px" viewBox="216 710  12 12" xmlns="http://www.w3.org/2000/svg">
  <path d="M 222 710  C 225.36 710  228 712.64  228 716  C 228 719.36  225.36 722  222 722  C 218.64 722  216 719.36  216 716  C 216 712.64  218.64 710  222 710  Z " fill-rule="nonzero" fill="#ffffff" stroke="none" />
  <path d="M 222 710.5  C 225.08 710.5  227.5 712.92  227.5 716  C 227.5 719.08  225.08 721.5  222 721.5  C 218.92 721.5  216.5 719.08  216.5 716  C 216.5 712.92  218.92 710.5  222 710.5  Z " stroke-width="1" stroke="#797979" fill="none" />
  <path d="M 222 719  C 220.32 719  219 717.68  219 716  C 219 714.32  220.32 713  222 713  C 223.68 713  225 714.32  225 716  C 225 717.68  223.68 719  222 719  " fill-rule="nonzero" fill="#797979" stroke="none" />
</svg>