﻿<?xml version="1.0" encoding="utf-8"?>
<svg version="1.1" xmlns:xlink="http://www.w3.org/1999/xlink" width="12px" height="12px" viewBox="138 199  12 12" xmlns="http://www.w3.org/2000/svg">
  <path d="M 144 199  C 147.36 199  150 201.64  150 205  C 150 208.36  147.36 211  144 211  C 140.64 211  138 208.36  138 205  C 138 201.64  140.64 199  144 199  Z " fill-rule="nonzero" fill="#ffffff" stroke="none" />
  <path d="M 144 199.5  C 147.08 199.5  149.5 201.92  149.5 205  C 149.5 208.08  147.08 210.5  144 210.5  C 140.92 210.5  138.5 208.08  138.5 205  C 138.5 201.92  140.92 199.5  144 199.5  Z " stroke-width="1" stroke="#797979" fill="none" />
</svg>