﻿<?xml version="1.0" encoding="utf-8"?>
<svg version="1.1" xmlns:xlink="http://www.w3.org/1999/xlink" width="12px" height="12px" viewBox="528 531  12 12" xmlns="http://www.w3.org/2000/svg">
  <path d="M 534 531  C 537.36 531  540 533.64  540 537  C 540 540.36  537.36 543  534 543  C 530.64 543  528 540.36  528 537  C 528 533.64  530.64 531  534 531  Z " fill-rule="nonzero" fill="#ffffff" stroke="none" />
  <path d="M 534 531.5  C 537.08 531.5  539.5 533.92  539.5 537  C 539.5 540.08  537.08 542.5  534 542.5  C 530.92 542.5  528.5 540.08  528.5 537  C 528.5 533.92  530.92 531.5  534 531.5  Z " stroke-width="1" stroke="#797979" fill="none" />
  <path d="M 534 540  C 532.32 540  531 538.68  531 537  C 531 535.32  532.32 534  534 534  C 535.68 534  537 535.32  537 537  C 537 538.68  535.68 540  534 540  " fill-rule="nonzero" fill="#797979" stroke="none" />
</svg>