﻿<?xml version="1.0" encoding="utf-8"?>
<svg version="1.1" xmlns:xlink="http://www.w3.org/1999/xlink" width="12px" height="12px" viewBox="189 223  12 12" xmlns="http://www.w3.org/2000/svg">
  <path d="M 195 223  C 198.36 223  201 225.64  201 229  C 201 232.36  198.36 235  195 235  C 191.64 235  189 232.36  189 229  C 189 225.64  191.64 223  195 223  Z " fill-rule="nonzero" fill="#ffffff" stroke="none" />
  <path d="M 195 223.5  C 198.08 223.5  200.5 225.92  200.5 229  C 200.5 232.08  198.08 234.5  195 234.5  C 191.92 234.5  189.5 232.08  189.5 229  C 189.5 225.92  191.92 223.5  195 223.5  Z " stroke-width="1" stroke="#797979" fill="none" />
  <path d="M 195 232  C 193.32 232  192 230.68  192 229  C 192 227.32  193.32 226  195 226  C 196.68 226  198 227.32  198 229  C 198 230.68  196.68 232  195 232  " fill-rule="nonzero" fill="#797979" stroke="none" />
</svg>