﻿<?xml version="1.0" encoding="utf-8"?>
<svg version="1.1" xmlns:xlink="http://www.w3.org/1999/xlink" width="12px" height="12px" viewBox="581 531  12 12" xmlns="http://www.w3.org/2000/svg">
  <path d="M 587 531  C 590.36 531  593 533.64  593 537  C 593 540.36  590.36 543  587 543  C 583.64 543  581 540.36  581 537  C 581 533.64  583.64 531  587 531  Z " fill-rule="nonzero" fill="#ffffff" stroke="none" />
  <path d="M 587 531.5  C 590.08 531.5  592.5 533.92  592.5 537  C 592.5 540.08  590.08 542.5  587 542.5  C 583.92 542.5  581.5 540.08  581.5 537  C 581.5 533.92  583.92 531.5  587 531.5  Z " stroke-width="1" stroke="#797979" fill="none" />
  <path d="M 587 540  C 585.32 540  584 538.68  584 537  C 584 535.32  585.32 534  587 534  C 588.68 534  590 535.32  590 537  C 590 538.68  588.68 540  587 540  " fill-rule="nonzero" fill="#797979" stroke="none" />
</svg>