﻿<?xml version="1.0" encoding="utf-8"?>
<svg version="1.1" xmlns:xlink="http://www.w3.org/1999/xlink" width="85px" height="19px" xmlns="http://www.w3.org/2000/svg">
  <g transform="matrix(1 0 0 1 -142 -277 )">
    <path d="M 143 278  L 226 278  L 226 295  L 143 295  L 143 278  Z " fill-rule="nonzero" fill="#d7d7d7" stroke="none" />
  </g>
</svg>