﻿<?xml version="1.0" encoding="utf-8"?>
<svg version="1.1" xmlns:xlink="http://www.w3.org/1999/xlink" width="12px" height="12px" viewBox="159 812  12 12" xmlns="http://www.w3.org/2000/svg">
  <path d="M 165 812  C 168.36 812  171 814.64  171 818  C 171 821.36  168.36 824  165 824  C 161.64 824  159 821.36  159 818  C 159 814.64  161.64 812  165 812  Z " fill-rule="nonzero" fill="#ffffff" stroke="none" />
  <path d="M 165 812.5  C 168.08 812.5  170.5 814.92  170.5 818  C 170.5 821.08  168.08 823.5  165 823.5  C 161.92 823.5  159.5 821.08  159.5 818  C 159.5 814.92  161.92 812.5  165 812.5  Z " stroke-width="1" stroke="#797979" fill="none" />
  <path d="M 165 821  C 163.32 821  162 819.68  162 818  C 162 816.32  163.32 815  165 815  C 166.68 815  168 816.32  168 818  C 168 819.68  166.68 821  165 821  " fill-rule="nonzero" fill="#797979" stroke="none" />
</svg>