﻿<?xml version="1.0" encoding="utf-8"?>
<svg version="1.1" xmlns:xlink="http://www.w3.org/1999/xlink" width="12px" height="12px" viewBox="212 812  12 12" xmlns="http://www.w3.org/2000/svg">
  <path d="M 218 812  C 221.36 812  224 814.64  224 818  C 224 821.36  221.36 824  218 824  C 214.64 824  212 821.36  212 818  C 212 814.64  214.64 812  218 812  Z " fill-rule="nonzero" fill="#f0f0f0" stroke="none" />
  <path d="M 218 812.5  C 221.08 812.5  223.5 814.92  223.5 818  C 223.5 821.08  221.08 823.5  218 823.5  C 214.92 823.5  212.5 821.08  212.5 818  C 212.5 814.92  214.92 812.5  218 812.5  Z " stroke-width="1" stroke="#797979" fill="none" />
</svg>