﻿<?xml version="1.0" encoding="utf-8"?>
<svg version="1.1" xmlns:xlink="http://www.w3.org/1999/xlink" width="12px" height="12px" viewBox="193 202  12 12" xmlns="http://www.w3.org/2000/svg">
  <path d="M 199 202  C 202.36 202  205 204.64  205 208  C 205 211.36  202.36 214  199 214  C 195.64 214  193 211.36  193 208  C 193 204.64  195.64 202  199 202  Z " fill-rule="nonzero" fill="#f0f0f0" stroke="none" />
  <path d="M 199 202.5  C 202.08 202.5  204.5 204.92  204.5 208  C 204.5 211.08  202.08 213.5  199 213.5  C 195.92 213.5  193.5 211.08  193.5 208  C 193.5 204.92  195.92 202.5  199 202.5  Z " stroke-width="1" stroke="#797979" fill="none" />
</svg>