﻿<?xml version="1.0" encoding="utf-8"?>
<svg version="1.1" xmlns:xlink="http://www.w3.org/1999/xlink" width="12px" height="12px" viewBox="548 643  12 12" xmlns="http://www.w3.org/2000/svg">
  <path d="M 554 643  C 557.36 643  560 645.64  560 649  C 560 652.36  557.36 655  554 655  C 550.64 655  548 652.36  548 649  C 548 645.64  550.64 643  554 643  Z " fill-rule="nonzero" fill="#f0f0f0" stroke="none" />
  <path d="M 554 643.5  C 557.08 643.5  559.5 645.92  559.5 649  C 559.5 652.08  557.08 654.5  554 654.5  C 550.92 654.5  548.5 652.08  548.5 649  C 548.5 645.92  550.92 643.5  554 643.5  Z " stroke-width="1" stroke="#797979" fill="none" />
</svg>