﻿<?xml version="1.0" encoding="utf-8"?>
<svg version="1.1" xmlns:xlink="http://www.w3.org/1999/xlink" width="12px" height="12px" viewBox="601 643  12 12" xmlns="http://www.w3.org/2000/svg">
  <path d="M 607 643  C 610.36 643  613 645.64  613 649  C 613 652.36  610.36 655  607 655  C 603.64 655  601 652.36  601 649  C 601 645.64  603.64 643  607 643  Z " fill-rule="nonzero" fill="#ffffff" stroke="none" />
  <path d="M 607 643.5  C 610.08 643.5  612.5 645.92  612.5 649  C 612.5 652.08  610.08 654.5  607 654.5  C 603.92 654.5  601.5 652.08  601.5 649  C 601.5 645.92  603.92 643.5  607 643.5  Z " stroke-width="1" stroke="#797979" fill="none" />
</svg>