﻿<?xml version="1.0" encoding="utf-8"?>
<svg version="1.1" xmlns:xlink="http://www.w3.org/1999/xlink" width="12px" height="12px" viewBox="159 836  12 12" xmlns="http://www.w3.org/2000/svg">
  <path d="M 165 836  C 168.36 836  171 838.64  171 842  C 171 845.36  168.36 848  165 848  C 161.64 848  159 845.36  159 842  C 159 838.64  161.64 836  165 836  Z " fill-rule="nonzero" fill="#f0f0f0" stroke="none" />
  <path d="M 165 836.5  C 168.08 836.5  170.5 838.92  170.5 842  C 170.5 845.08  168.08 847.5  165 847.5  C 161.92 847.5  159.5 845.08  159.5 842  C 159.5 838.92  161.92 836.5  165 836.5  Z " stroke-width="1" stroke="#797979" fill="none" />
</svg>