﻿<?xml version="1.0" encoding="utf-8"?>
<svg version="1.1" xmlns:xlink="http://www.w3.org/1999/xlink" width="12px" height="12px" viewBox="212 836  12 12" xmlns="http://www.w3.org/2000/svg">
  <path d="M 218 836  C 221.36 836  224 838.64  224 842  C 224 845.36  221.36 848  218 848  C 214.64 848  212 845.36  212 842  C 212 838.64  214.64 836  218 836  Z " fill-rule="nonzero" fill="#ffffff" stroke="none" />
  <path d="M 218 836.5  C 221.08 836.5  223.5 838.92  223.5 842  C 223.5 845.08  221.08 847.5  218 847.5  C 214.92 847.5  212.5 845.08  212.5 842  C 212.5 838.92  214.92 836.5  218 836.5  Z " stroke-width="1" stroke="#797979" fill="none" />
  <path d="M 218 845  C 216.32 845  215 843.68  215 842  C 215 840.32  216.32 839  218 839  C 219.68 839  221 840.32  221 842  C 221 843.68  219.68 845  218 845  " fill-rule="nonzero" fill="#797979" stroke="none" />
</svg>