﻿<?xml version="1.0" encoding="utf-8"?>
<svg version="1.1" xmlns:xlink="http://www.w3.org/1999/xlink" width="12px" height="12px" viewBox="140 202  12 12" xmlns="http://www.w3.org/2000/svg">
  <path d="M 146 202  C 149.36 202  152 204.64  152 208  C 152 211.36  149.36 214  146 214  C 142.64 214  140 211.36  140 208  C 140 204.64  142.64 202  146 202  Z " fill-rule="nonzero" fill="#f0f0f0" stroke="none" />
  <path d="M 146 202.5  C 149.08 202.5  151.5 204.92  151.5 208  C 151.5 211.08  149.08 213.5  146 213.5  C 142.92 213.5  140.5 211.08  140.5 208  C 140.5 204.92  142.92 202.5  146 202.5  Z " stroke-width="1" stroke="#797979" fill="none" />
</svg>