﻿<?xml version="1.0" encoding="utf-8"?>
<svg version="1.1" xmlns:xlink="http://www.w3.org/1999/xlink" width="17px" height="17px" xmlns="http://www.w3.org/2000/svg">
  <g transform="matrix(1 0 0 1 -348 -483 )">
    <path d="M 16.4376524390244 16.6086890243902  L 9.63506097560976 8.5  L 16.4376524390244 0.391310975609758  C 16.5516768292683 0.256554878048781  16.4557926829268 0.0518292682926836  16.2795731707317 0.0518292682926836  L 14.2115853658537 0.0518292682926836  C 14.0897865853659 0.0518292682926836  13.9731707317073 0.106250000000002  13.8928353658537 0.199542682926831  L 8.28231707317073 6.88810975609756  L 2.67179878048781 0.199542682926829  C 2.59405487804878 0.106250000000002  2.47743902439024 0.0518292682926836  2.3530487804878 0.0518292682926836  L 0.285060975609756 0.0518292682926836  C 0.108841463414633 0.0518292682926836  0.0129573170731715 0.256554878048781  0.126981707317073 0.391310975609755  L 6.92957317073171 8.5  L 0.126981707317073 16.6086890243902  C 0.0129573170731715 16.7434451219512  0.108841463414636 16.9481707317073  0.285060975609756 16.9481707317073  L 2.3530487804878 16.9481707317073  C 2.47484756097561 16.9481707317073  2.59146341463414 16.89375  2.67179878048781 16.8004573170732  L 8.28231707317073 10.1118902439024  L 13.8928353658537 16.8004573170732  C 13.9705792682927 16.89375  14.0871951219512 16.9481707317073  14.2115853658537 16.9481707317073  L 16.2795731707317 16.9481707317073  C 16.4557926829268 16.9481707317073  16.5516768292683 16.7434451219512  16.4376524390244 16.6086890243902  Z " fill-rule="nonzero" fill="#666666" stroke="none" transform="matrix(1 0 0 1 348 483 )" />
  </g>
</svg>