﻿<?xml version="1.0" encoding="utf-8"?>
<svg version="1.1" xmlns:xlink="http://www.w3.org/1999/xlink" width="18px" height="13px" xmlns="http://www.w3.org/2000/svg">
  <g transform="matrix(1 0 0 1 -657 -193 )">
    <path d="M 11.90625 7.60795454545454  C 11.96875 7.53409090909091  12 7.46022727272727  12 7.38636363636364  C 12 7.30018939393939  11.971875 7.22940340909091  11.915625 7.17400568181818  C 11.859375 7.11860795454546  11.7875 7.09090909090909  11.7 7.09090909090909  L 9.6 7.09090909090909  L 9.6 3.84090909090909  C 9.6 3.76089015151515  9.5703125 3.69164299242424  9.5109375 3.63316761363636  C 9.4515625 3.57469223484848  9.38125 3.54545454545454  9.3 3.54545454545454  L 7.5 3.54545454545454  C 7.41875 3.54545454545454  7.3484375 3.57469223484848  7.2890625 3.63316761363636  C 7.2296875 3.69164299242424  7.2 3.76089015151515  7.2 3.84090909090909  L 7.2 7.09090909090909  L 5.1 7.09090909090909  C 5.01875 7.09090909090909  4.9484375 7.12014678030303  4.8890625 7.17862215909091  C 4.8296875 7.23709753787879  4.8 7.3063446969697  4.8 7.38636363636364  C 4.8 7.47253787878788  4.828125 7.54332386363636  4.884375 7.59872159090909  L 8.184375 10.8487215909091  C 8.240625 10.9041193181818  8.3125 10.9318181818182  8.4 10.9318181818182  C 8.4875 10.9318181818182  8.559375 10.9041193181818  8.615625 10.8487215909091  L 11.90625 7.60795454545454  Z M 17.2171875 7.25248579545454  C 17.7390625 7.89571496212121  18 8.62973484848485  18 9.45454545454546  C 18 10.4332386363636  17.6484375 11.2688210227273  16.9453125 11.9612926136364  C 16.2421875 12.6537642045455  15.39375 13  14.4 13  L 4.2 13  C 3.04375 13  2.0546875 12.5952888257576  1.2328125 11.7858664772727  C 0.4109375 10.9764441287879  0 10.0023674242424  0 8.86363636363637  C 0 8.06344696969697  0.21875 7.32481060606061  0.65625 6.64772727272727  C 1.09375 5.97064393939394  1.68125 5.46283143939394  2.41875 5.12428977272727  C 2.40625 4.93963068181818  2.4 4.80729166666667  2.4 4.72727272727273  C 2.4 3.42234848484848  2.86875 2.30823863636364  3.80625 1.38494318181818  C 4.74375 0.461647727272727  5.875 0  7.2 0  C 8.175 0  9.0671875 0.267755681818182  9.8765625 0.803267045454545  C 10.6859375 1.33877840909091  11.275 2.04971590909091  11.64375 2.93607954545454  C 12.0875 2.55445075757576  12.60625 2.36363636363636  13.2 2.36363636363636  C 13.8625 2.36363636363636  14.428125 2.59446022727273  14.896875 3.05610795454546  C 15.365625 3.51775568181818  15.6 4.0748106060606  15.6 4.72727272727273  C 15.6 5.19507575757576  15.471875 5.61979166666667  15.215625 6.00142045454546  C 16.028125 6.19223484848485  16.6953125 6.60925662878788  17.2171875 7.25248579545454  Z " fill-rule="nonzero" fill="#605d5d" stroke="none" transform="matrix(1 0 0 1 657 193 )" />
  </g>
</svg>