﻿<?xml version="1.0" encoding="utf-8"?>
<svg version="1.1" xmlns:xlink="http://www.w3.org/1999/xlink" width="12px" height="12px" viewBox="408 177  12 12" xmlns="http://www.w3.org/2000/svg">
  <path d="M 414 177  C 417.36 177  420 179.64  420 183  C 420 186.36  417.36 189  414 189  C 410.64 189  408 186.36  408 183  C 408 179.64  410.64 177  414 177  Z " fill-rule="nonzero" fill="#f0f0f0" stroke="none" />
  <path d="M 414 177.5  C 417.08 177.5  419.5 179.92  419.5 183  C 419.5 186.08  417.08 188.5  414 188.5  C 410.92 188.5  408.5 186.08  408.5 183  C 408.5 179.92  410.92 177.5  414 177.5  Z " stroke-width="1" stroke="#797979" fill="none" />
</svg>