﻿<?xml version="1.0" encoding="utf-8"?>
<svg version="1.1" xmlns:xlink="http://www.w3.org/1999/xlink" width="12px" height="12px" viewBox="408 204  12 12" xmlns="http://www.w3.org/2000/svg">
  <path d="M 414 204  C 417.36 204  420 206.64  420 210  C 420 213.36  417.36 216  414 216  C 410.64 216  408 213.36  408 210  C 408 206.64  410.64 204  414 204  Z " fill-rule="nonzero" fill="#ffffff" stroke="none" />
  <path d="M 414 204.5  C 417.08 204.5  419.5 206.92  419.5 210  C 419.5 213.08  417.08 215.5  414 215.5  C 410.92 215.5  408.5 213.08  408.5 210  C 408.5 206.92  410.92 204.5  414 204.5  Z " stroke-width="1" stroke="#797979" fill="none" />
</svg>