﻿<?xml version="1.0" encoding="utf-8"?>
<svg version="1.1" xmlns:xlink="http://www.w3.org/1999/xlink" width="12px" height="12px" viewBox="358 205  12 12" xmlns="http://www.w3.org/2000/svg">
  <path d="M 364 205  C 367.36 205  370 207.64  370 211  C 370 214.36  367.36 217  364 217  C 360.64 217  358 214.36  358 211  C 358 207.64  360.64 205  364 205  Z " fill-rule="nonzero" fill="#ffffff" stroke="none" />
  <path d="M 364 205.5  C 367.08 205.5  369.5 207.92  369.5 211  C 369.5 214.08  367.08 216.5  364 216.5  C 360.92 216.5  358.5 214.08  358.5 211  C 358.5 207.92  360.92 205.5  364 205.5  Z " stroke-width="1" stroke="#797979" fill="none" />
  <path d="M 364 214  C 362.32 214  361 212.68  361 211  C 361 209.32  362.32 208  364 208  C 365.68 208  367 209.32  367 211  C 367 212.68  365.68 214  364 214  " fill-rule="nonzero" fill="#797979" stroke="none" />
</svg>