﻿<?xml version="1.0" encoding="utf-8"?>
<svg version="1.1" xmlns:xlink="http://www.w3.org/1999/xlink" width="12px" height="12px" viewBox="358 144  12 12" xmlns="http://www.w3.org/2000/svg">
  <path d="M 364 144  C 367.36 144  370 146.64  370 150  C 370 153.36  367.36 156  364 156  C 360.64 156  358 153.36  358 150  C 358 146.64  360.64 144  364 144  Z " fill-rule="nonzero" fill="#ffffff" stroke="none" />
  <path d="M 364 144.5  C 367.08 144.5  369.5 146.92  369.5 150  C 369.5 153.08  367.08 155.5  364 155.5  C 360.92 155.5  358.5 153.08  358.5 150  C 358.5 146.92  360.92 144.5  364 144.5  Z " stroke-width="1" stroke="#797979" fill="none" />
  <path d="M 364 153  C 362.32 153  361 151.68  361 150  C 361 148.32  362.32 147  364 147  C 365.68 147  367 148.32  367 150  C 367 151.68  365.68 153  364 153  " fill-rule="nonzero" fill="#797979" stroke="none" />
</svg>