﻿<?xml version="1.0" encoding="utf-8"?>
<svg version="1.1" xmlns:xlink="http://www.w3.org/1999/xlink" width="12px" height="12px" viewBox="365 204  12 12" xmlns="http://www.w3.org/2000/svg">
  <path d="M 371 204  C 374.36 204  377 206.64  377 210  C 377 213.36  374.36 216  371 216  C 367.64 216  365 213.36  365 210  C 365 206.64  367.64 204  371 204  Z " fill-rule="nonzero" fill="#f0f0f0" stroke="none" />
  <path d="M 371 204.5  C 374.08 204.5  376.5 206.92  376.5 210  C 376.5 213.08  374.08 215.5  371 215.5  C 367.92 215.5  365.5 213.08  365.5 210  C 365.5 206.92  367.92 204.5  371 204.5  Z " stroke-width="1" stroke="#797979" fill="none" />
</svg>