﻿<?xml version="1.0" encoding="utf-8"?>
<svg version="1.1" xmlns:xlink="http://www.w3.org/1999/xlink" width="12px" height="12px" viewBox="408 116  12 12" xmlns="http://www.w3.org/2000/svg">
  <path d="M 414 116  C 417.36 116  420 118.64  420 122  C 420 125.36  417.36 128  414 128  C 410.64 128  408 125.36  408 122  C 408 118.64  410.64 116  414 116  Z " fill-rule="nonzero" fill="#ffffff" stroke="none" />
  <path d="M 414 116.5  C 417.08 116.5  419.5 118.92  419.5 122  C 419.5 125.08  417.08 127.5  414 127.5  C 410.92 127.5  408.5 125.08  408.5 122  C 408.5 118.92  410.92 116.5  414 116.5  Z " stroke-width="1" stroke="#797979" fill="none" />
  <path d="M 414 125  C 412.32 125  411 123.68  411 122  C 411 120.32  412.32 119  414 119  C 415.68 119  417 120.32  417 122  C 417 123.68  415.68 125  414 125  " fill-rule="nonzero" fill="#797979" stroke="none" />
</svg>