﻿<?xml version="1.0" encoding="utf-8"?>
<svg version="1.1" xmlns:xlink="http://www.w3.org/1999/xlink" width="465px" height="2px" xmlns="http://www.w3.org/2000/svg">
  <g transform="matrix(1 0 0 1 -19 -71 )">
    <path d="M 19 71.5  L 483 71.5  " stroke-width="1" stroke="#797979" fill="none" />
  </g>
</svg>