﻿<?xml version="1.0" encoding="utf-8"?>
<svg version="1.1" xmlns:xlink="http://www.w3.org/1999/xlink" width="12px" height="12px" viewBox="401 205  12 12" xmlns="http://www.w3.org/2000/svg">
  <path d="M 407 205  C 410.36 205  413 207.64  413 211  C 413 214.36  410.36 217  407 217  C 403.64 217  401 214.36  401 211  C 401 207.64  403.64 205  407 205  Z " fill-rule="nonzero" fill="#f0f0f0" stroke="none" />
  <path d="M 407 205.5  C 410.08 205.5  412.5 207.92  412.5 211  C 412.5 214.08  410.08 216.5  407 216.5  C 403.92 216.5  401.5 214.08  401.5 211  C 401.5 207.92  403.92 205.5  407 205.5  Z " stroke-width="1" stroke="#797979" fill="none" />
</svg>