﻿<?xml version="1.0" encoding="utf-8"?>
<svg version="1.1" xmlns:xlink="http://www.w3.org/1999/xlink" width="12px" height="12px" viewBox="401 232  12 12" xmlns="http://www.w3.org/2000/svg">
  <path d="M 407 232  C 410.36 232  413 234.64  413 238  C 413 241.36  410.36 244  407 244  C 403.64 244  401 241.36  401 238  C 401 234.64  403.64 232  407 232  Z " fill-rule="nonzero" fill="#f0f0f0" stroke="none" />
  <path d="M 407 232.5  C 410.08 232.5  412.5 234.92  412.5 238  C 412.5 241.08  410.08 243.5  407 243.5  C 403.92 243.5  401.5 241.08  401.5 238  C 401.5 234.92  403.92 232.5  407 232.5  Z " stroke-width="1" stroke="#797979" fill="none" />
</svg>