﻿<?xml version="1.0" encoding="utf-8"?>
<svg version="1.1" xmlns:xlink="http://www.w3.org/1999/xlink" width="12px" height="12px" viewBox="401 144  12 12" xmlns="http://www.w3.org/2000/svg">
  <path d="M 407 144  C 410.36 144  413 146.64  413 150  C 413 153.36  410.36 156  407 156  C 403.64 156  401 153.36  401 150  C 401 146.64  403.64 144  407 144  Z " fill-rule="nonzero" fill="#ffffff" stroke="none" />
  <path d="M 407 144.5  C 410.08 144.5  412.5 146.92  412.5 150  C 412.5 153.08  410.08 155.5  407 155.5  C 403.92 155.5  401.5 153.08  401.5 150  C 401.5 146.92  403.92 144.5  407 144.5  Z " stroke-width="1" stroke="#797979" fill="none" />
  <path d="M 407 153  C 405.32 153  404 151.68  404 150  C 404 148.32  405.32 147  407 147  C 408.68 147  410 148.32  410 150  C 410 151.68  408.68 153  407 153  " fill-rule="nonzero" fill="#797979" stroke="none" />
</svg>