﻿<?xml version="1.0" encoding="utf-8"?>
<svg version="1.1" xmlns:xlink="http://www.w3.org/1999/xlink" width="12px" height="12px" viewBox="358 232  12 12" xmlns="http://www.w3.org/2000/svg">
  <path d="M 364 232  C 367.36 232  370 234.64  370 238  C 370 241.36  367.36 244  364 244  C 360.64 244  358 241.36  358 238  C 358 234.64  360.64 232  364 232  Z " fill-rule="nonzero" fill="#ffffff" stroke="none" />
  <path d="M 364 232.5  C 367.08 232.5  369.5 234.92  369.5 238  C 369.5 241.08  367.08 243.5  364 243.5  C 360.92 243.5  358.5 241.08  358.5 238  C 358.5 234.92  360.92 232.5  364 232.5  Z " stroke-width="1" stroke="#797979" fill="none" />
</svg>