﻿<?xml version="1.0" encoding="utf-8"?>
<svg version="1.1" xmlns:xlink="http://www.w3.org/1999/xlink" width="120px" height="120px" xmlns="http://www.w3.org/2000/svg">
  <g transform="matrix(1 0 0 1 -161 -259 )">
    <path d="M 77.8125 70.78125  C 83.0729166666667 74.6354166666667  86.6666666666667 79.7135416666667  88.59375 86.015625  C 89.0104166666667 87.3177083333333  88.90625 88.5807291666667  88.28125 89.8046875  C 87.65625 91.0286458333333  86.6927083333333 91.8489583333333  85.390625 92.265625  C 84.0885416666667 92.6822916666667  82.8125 92.578125  81.5625 91.953125  C 80.3125 91.328125  79.4791666666667 90.3385416666667  79.0625 88.984375  C 77.7604166666667 84.8177083333333  75.3515625 81.4453125  71.8359375 78.8671875  C 68.3203125 76.2890625  64.375 75  60 75  C 55.625 75  51.6796875 76.2890625  48.1640625 78.8671875  C 44.6484375 81.4453125  42.2395833333333 84.8177083333333  40.9375 88.984375  C 40.5208333333333 90.3385416666667  39.7005208333333 91.328125  38.4765625 91.953125  C 37.2526041666667 92.578125  35.9895833333333 92.6822916666667  34.6875 92.265625  C 33.3333333333333 91.8489583333333  32.34375 91.0286458333333  31.71875 89.8046875  C 31.09375 88.5807291666667  30.9895833333333 87.3177083333333  31.40625 86.015625  C 33.3333333333333 79.7135416666667  36.9270833333333 74.6354166666667  42.1875 70.78125  C 47.4479166666667 66.9270833333333  53.3854166666667 65  60 65  C 66.6145833333333 65  72.5520833333333 66.9270833333333  77.8125 70.78125  Z M 47.0703125 32.9296875  C 49.0234375 34.8828125  50 37.2395833333333  50 40  C 50 42.7604166666667  49.0234375 45.1171875  47.0703125 47.0703125  C 45.1171875 49.0234375  42.7604166666667 50  40 50  C 37.2395833333333 50  34.8828125 49.0234375  32.9296875 47.0703125  C 30.9765625 45.1171875  30 42.7604166666667  30 40  C 30 37.2395833333333  30.9765625 34.8828125  32.9296875 32.9296875  C 34.8828125 30.9765625  37.2395833333333 30  40 30  C 42.7604166666667 30  45.1171875 30.9765625  47.0703125 32.9296875  Z M 87.0703125 32.9296875  C 89.0234375 34.8828125  90 37.2395833333333  90 40  C 90 42.7604166666667  89.0234375 45.1171875  87.0703125 47.0703125  C 85.1171875 49.0234375  82.7604166666667 50  80 50  C 77.2395833333333 50  74.8828125 49.0234375  72.9296875 47.0703125  C 70.9765625 45.1171875  70 42.7604166666667  70 40  C 70 37.2395833333333  70.9765625 34.8828125  72.9296875 32.9296875  C 74.8828125 30.9765625  77.2395833333333 30  80 30  C 82.7604166666667 30  85.1171875 30.9765625  87.0703125 32.9296875  Z M 106.015625 79.4140625  C 108.671875 73.2421875  110 66.7708333333333  110 60  C 110 53.2291666666667  108.671875 46.7578125  106.015625 40.5859375  C 103.359375 34.4140625  99.8046875 29.1015625  95.3515625 24.6484375  C 90.8984375 20.1953125  85.5859375 16.640625  79.4140625 13.984375  C 73.2421875 11.328125  66.7708333333333 10  60 10  C 53.2291666666667 10  46.7578125 11.328125  40.5859375 13.984375  C 34.4140625 16.640625  29.1015625 20.1953125  24.6484375 24.6484375  C 20.1953125 29.1015625  16.640625 34.4140625  13.984375 40.5859375  C 11.328125 46.7578125  10 53.2291666666667  10 60  C 10 66.7708333333333  11.328125 73.2421875  13.984375 79.4140625  C 16.640625 85.5859375  20.1953125 90.8984375  24.6484375 95.3515625  C 29.1015625 99.8046875  34.4140625 103.359375  40.5859375 106.015625  C 46.7578125 108.671875  53.2291666666667 110  60 110  C 66.7708333333333 110  73.2421875 108.671875  79.4140625 106.015625  C 85.5859375 103.359375  90.8984375 99.8046875  95.3515625 95.3515625  C 99.8046875 90.8984375  103.359375 85.5859375  106.015625 79.4140625  Z M 111.953125 29.8828125  C 117.317708333333 39.0755208333333  120 49.1145833333333  120 60  C 120 70.8854166666667  117.317708333333 80.9244791666667  111.953125 90.1171875  C 106.588541666667 99.3098958333333  99.3098958333333 106.588541666667  90.1171875 111.953125  C 80.9244791666667 117.317708333333  70.8854166666667 120  60 120  C 49.1145833333333 120  39.0755208333333 117.317708333333  29.8828125 111.953125  C 20.6901041666667 106.588541666667  13.4114583333333 99.3098958333333  8.046875 90.1171875  C 2.68229166666667 80.9244791666667  0 70.8854166666667  0 60  C 0 49.1145833333333  2.68229166666667 39.0755208333333  8.046875 29.8828125  C 13.4114583333333 20.6901041666667  20.6901041666667 13.4114583333333  29.8828125 8.046875  C 39.0755208333333 2.68229166666666  49.1145833333333 0  60 0  C 70.8854166666667 0  80.9244791666667 2.68229166666666  90.1171875 8.046875  C 99.3098958333333 13.4114583333333  106.588541666667 20.6901041666667  111.953125 29.8828125  Z " fill-rule="nonzero" fill="#888888" stroke="none" transform="matrix(1 0 0 1 161 259 )" />
  </g>
</svg>