﻿<?xml version="1.0" encoding="utf-8"?>
<svg version="1.1" xmlns:xlink="http://www.w3.org/1999/xlink" width="127px" height="10px" preserveAspectRatio="xMinYMid meet" viewBox="371 533  127 8" xmlns="http://www.w3.org/2000/svg">
  <path d="M 371 537.5  L 488 537.5  A 5 5 0 0 0 493.5 532.5 L 493.5 522  " stroke-width="1" stroke="#797979" fill="none" />
  <path d="M 499.8 523  L 493.5 517  L 487.2 523  L 499.8 523  Z " fill-rule="nonzero" fill="#797979" stroke="none" />
</svg>