﻿<?xml version="1.0" encoding="utf-8"?>
<svg version="1.1" xmlns:xlink="http://www.w3.org/1999/xlink" width="144px" height="52px" xmlns="http://www.w3.org/2000/svg">
  <defs>
    <linearGradient gradientUnits="userSpaceOnUse" x1="72" y1="0" x2="72" y2="52" id="LinearGradient48">
      <stop id="Stop49" stop-color="#ffffff" offset="0" />
      <stop id="Stop50" stop-color="#f2f2f2" offset="0" />
      <stop id="Stop51" stop-color="#e4e4e4" offset="1" />
      <stop id="Stop52" stop-color="#ffffff" offset="1" />
    </linearGradient>
    <mask fill="white" id="clip53">
      <path d="M 0 52  L 0 0  L 144 0  L 144 52  L 71.6153846153846 52  L 0 52  Z " fill-rule="evenodd" />
    </mask>
  </defs>
  <g transform="matrix(1 0 0 1 -78 -615 )">
    <path d="M 0 52  L 0 0  L 144 0  L 144 52  L 71.6153846153846 52  L 0 52  Z " fill-rule="nonzero" fill="url(#LinearGradient48)" stroke="none" transform="matrix(1 0 0 1 78 615 )" />
    <path d="M 0 52  L 0 0  L 144 0  L 144 52  L 71.6153846153846 52  L 0 52  Z " stroke-width="2" stroke="#797979" fill="none" transform="matrix(1 0 0 1 78 615 )" mask="url(#clip53)" />
  </g>
</svg>