﻿<?xml version="1.0" encoding="utf-8"?>
<svg version="1.1" xmlns:xlink="http://www.w3.org/1999/xlink" width="144px" height="87px" xmlns="http://www.w3.org/2000/svg">
  <defs>
    <linearGradient gradientUnits="userSpaceOnUse" x1="150" y1="734" x2="150" y2="821" id="LinearGradient54">
      <stop id="Stop55" stop-color="#ffffff" offset="0" />
      <stop id="Stop56" stop-color="#f2f2f2" offset="0" />
      <stop id="Stop57" stop-color="#e4e4e4" offset="1" />
      <stop id="Stop58" stop-color="#ffffff" offset="1" />
    </linearGradient>
  </defs>
  <g transform="matrix(1 0 0 1 -78 -734 )">
    <path d="M 150 820.432841435923  L 78.9387452095063 777.5  L 150 734.567158564077  L 221.061254790494 777.5  L 150 820.432841435923  Z " fill-rule="nonzero" fill="url(#LinearGradient54)" stroke="none" />
    <path d="M 150 821  L 78 777.5  L 150 734  L 222 777.5  L 150 821  Z M 79.8774904190126 777.5  L 150 819.865682871847  L 220.122509580987 777.5  L 150 735.134317128153  L 79.8774904190126 777.5  Z " fill-rule="nonzero" fill="#797979" stroke="none" />
  </g>
</svg>