﻿<?xml version="1.0" encoding="utf-8"?>
<svg version="1.1" xmlns:xlink="http://www.w3.org/1999/xlink" width="19px" height="18px" preserveAspectRatio="xMinYMid meet" viewBox="259 770  19 16" xmlns="http://www.w3.org/2000/svg">
  <path d="M 222 778.5  L 267.5 778.5  " stroke-width="1" stroke="#797979" fill="none" />
  <path d="M 266.5 784.8  L 272.5 778.5  L 266.5 772.2  L 266.5 784.8  Z " fill-rule="nonzero" fill="#797979" stroke="none" />
</svg>