﻿<?xml version="1.0" encoding="utf-8"?>
<svg version="1.1" xmlns:xlink="http://www.w3.org/1999/xlink" width="10px" height="72px" preserveAspectRatio="xMidYMin meet" viewBox="146 667  8 72" xmlns="http://www.w3.org/2000/svg">
  <path d="M 150.5 667  L 150.5 730  " stroke-width="1" stroke="#797979" fill="none" />
  <path d="M 144.2 729  L 150.5 735  L 156.8 729  L 144.2 729  Z " fill-rule="nonzero" fill="#797979" stroke="none" />
</svg>