﻿<?xml version="1.0" encoding="utf-8"?>
<svg version="1.1" xmlns:xlink="http://www.w3.org/1999/xlink" width="100px" height="52px" xmlns="http://www.w3.org/2000/svg">
  <defs>
    <linearGradient gradientUnits="userSpaceOnUse" x1="50" y1="0" x2="50" y2="52" id="LinearGradient12">
      <stop id="Stop13" stop-color="#ffffff" offset="0" />
      <stop id="Stop14" stop-color="#f2f2f2" offset="0" />
      <stop id="Stop15" stop-color="#e4e4e4" offset="1" />
      <stop id="Stop16" stop-color="#ffffff" offset="1" />
    </linearGradient>
    <mask fill="white" id="clip17">
      <path d="M 0 52  L 0 0  L 100 0  L 100 52  L 49.732905982906 52  L 0 52  Z " fill-rule="evenodd" />
    </mask>
  </defs>
  <g transform="matrix(1 0 0 1 -272 -752 )">
    <path d="M 0 52  L 0 0  L 100 0  L 100 52  L 49.732905982906 52  L 0 52  Z " fill-rule="nonzero" fill="url(#LinearGradient12)" stroke="none" transform="matrix(1 0 0 1 272 752 )" />
    <path d="M 0 52  L 0 0  L 100 0  L 100 52  L 49.732905982906 52  L 0 52  Z " stroke-width="2" stroke="#797979" fill="none" transform="matrix(1 0 0 1 272 752 )" mask="url(#clip17)" />
  </g>
</svg>