﻿<?xml version="1.0" encoding="utf-8"?>
<svg version="1.1" xmlns:xlink="http://www.w3.org/1999/xlink" width="18px" height="19px" preserveAspectRatio="xMidYMin meet" viewBox="598 721  16 19" xmlns="http://www.w3.org/2000/svg">
  <path d="M 606.5 667  L 606.5 730  " stroke-width="1" stroke="#797979" fill="none" />
  <path d="M 600.2 729  L 606.5 735  L 612.8 729  L 600.2 729  Z " fill-rule="nonzero" fill="#797979" stroke="none" />
</svg>