﻿<?xml version="1.0" encoding="utf-8"?>
<svg version="1.1" xmlns:xlink="http://www.w3.org/1999/xlink" width="139px" height="98px" xmlns="http://www.w3.org/2000/svg">
  <g transform="matrix(1 0 0 1 -71 -278 )">
    <path d="M 73 280  L 208 280  L 208 374  L 73 374  L 73 280  Z " fill-rule="nonzero" fill="#ffffff" stroke="none" fill-opacity="0" />
    <path d="M 72 279  L 209 279  L 209 375  L 72 375  L 72 279  Z " stroke-width="2" stroke-dasharray="6,2" stroke="#cccccc" fill="none" />
  </g>
</svg>