﻿<?xml version="1.0" encoding="utf-8"?>
<svg version="1.1" xmlns:xlink="http://www.w3.org/1999/xlink" width="42px" height="58px" xmlns="http://www.w3.org/2000/svg">
  <g transform="matrix(1 0 0 1 -125 -234 )">
    <path d="M 33.3046875 36.8973214285714  C 33.5015625 38.0625  33.6 39.3355654761905  33.6 40.7165178571429  C 33.6 42.0974702380952  33.1953125 43.2518601190476  32.3859375 44.1796875  C 31.5765625 45.1075148809524  30.58125 45.5714285714286  29.4 45  L 12.6 45  C 11.41875 45.5714285714286  10.4234375 45.1075148809524  9.6140625 44.1796875  C 8.8046875 43.2518601190476  8.4 42.0974702380952  8.4 40.7165178571429  C 8.4 39.3355654761905  8.4984375 38.0625  8.6953125 36.8973214285714  C 8.8921875 35.7321428571429  9.21484375 34.610119047619  9.66328125 33.53125  C 10.11171875 32.452380952381  10.77890625 31.60546875  11.66484375 30.9905133928571  C 12.55078125 30.3755580357143  13.60625 30.0680803571429  14.83125 30.0680803571429  C 16.58125 31.6863839285714  18.6375 32.4955357142857  21 32.4955357142857  C 23.3625 32.4955357142857  25.41875 31.6863839285714  27.16875 30.0680803571429  C 28.39375 30.0680803571429  29.44921875 30.3755580357143  30.33515625 30.9905133928571  C 31.22109375 31.60546875  31.88828125 32.452380952381  32.33671875 33.53125  C 32.78515625 34.610119047619  33.1078125 35.7321428571429  33.3046875 36.8973214285714  Z M 26.33203125 18.7237723214286  C 27.80859375 20.1586681547619  28.546875 21.8902529761905  28.546875 23.9185267857143  C 28.546875 25.9468005952381  27.80859375 27.6783854166667  26.33203125 29.11328125  C 24.85546875 30.5481770833333  23.078125 31.265625  21 31.265625  C 18.921875 31.265625  17.14453125 30.5481770833333  15.66796875 29.11328125  C 14.19140625 27.6783854166667  13.453125 25.9468005952381  13.453125 23.9185267857143  C 13.453125 21.8902529761905  14.19140625 20.1586681547619  15.66796875 18.7237723214286  C 17.14453125 17.2888764880952  18.921875 16.5714285714286  21 16.5714285714286  C 23.078125 16.5714285714286  24.85546875 17.2888764880952  26.33203125 18.7237723214286  Z M 37.48828125 53.5496651785714  C 37.69609375 53.3446800595238  37.8 53.1019345238095  37 52.8214285714286  L 37 9  L 5 9  L 5 52.8214285714286  C 4.2 53.1019345238095  4.30390625 53.3446800595238  4.51171875 53.5496651785714  C 4.71953125 53.754650297619  4.965625 53.8571428571429  5.25 53  L 36.75 53  C 37.034375 53.8571428571429  37.28046875 53.754650297619  37.48828125 53.5496651785714  Z M 40.4578125 1.52120535714286  C 41.4859375 2.53534226190476  42 3.75446428571429  42 5.17857142857143  L 42 52.8214285714286  C 42 54.2455357142857  41.4859375 55.4646577380952  40.4578125 56.4787946428571  C 39.4296875 57.492931547619  38.19375 58  36.75 58  L 5.25 58  C 3.80625 58  2.5703125 57.492931547619  1.5421875 56.4787946428571  C 0.5140625 55.4646577380952  0 54.2455357142857  0 52.8214285714286  L 0 5.17857142857143  C 0 3.75446428571429  0.5140625 2.53534226190476  1.5421875 1.52120535714286  C 2.5703125 0.507068452380953  3.80625 0  5.25 0  L 16.8 0  L 16.8 3.10714285714286  C 16.8 3.40922619047619  16.8984375 3.65736607142857  17.0953125 3.8515625  C 17.2921875 4.04575892857143  17.54375 4.14285714285714  17.85 4.14285714285714  L 24.15 4.14285714285714  C 24.45625 4.14285714285714  24.7078125 4.04575892857143  24.9046875 3.8515625  C 25.1015625 3.65736607142857  25.2 3.40922619047619  25.2 3.10714285714286  L 25.2 0  L 36.75 0  C 38.19375 0  39.4296875 0.507068452380953  40.4578125 1.52120535714286  Z " fill-rule="nonzero" fill="#333333" stroke="none" transform="matrix(1 0 0 1 125 234 )" />
  </g>
</svg>