﻿<?xml version="1.0" encoding="utf-8"?>
<svg version="1.1" xmlns:xlink="http://www.w3.org/1999/xlink" width="99px" height="24px" xmlns="http://www.w3.org/2000/svg">
  <defs>
    <mask fill="white" id="clip46">
      <path d="M 0 19  L 0 5  C 0 2.19999999999999  2.20000000000005 0  5 0  L 94 0  C 96.8 0  99 2.19999999999999  99 5  L 99 19  C 99 21.8  96.8 24  94 24  L 48 24  L 5 24  C 2.20000000000005 24  0 21.8  0 19  Z " fill-rule="evenodd" />
    </mask>
  </defs>
  <g transform="matrix(1 0 0 1 -637 -149 )">
    <path d="M 0 19  L 0 5  C 0 2.19999999999999  2.20000000000005 0  5 0  L 94 0  C 96.8 0  99 2.19999999999999  99 5  L 99 19  C 99 21.8  96.8 24  94 24  L 48 24  L 5 24  C 2.20000000000005 24  0 21.8  0 19  Z " fill-rule="nonzero" fill="#ffffff" stroke="none" transform="matrix(1 0 0 1 637 149 )" />
    <path d="M 0 19  L 0 5  C 0 2.19999999999999  2.20000000000005 0  5 0  L 94 0  C 96.8 0  99 2.19999999999999  99 5  L 99 19  C 99 21.8  96.8 24  94 24  L 48 24  L 5 24  C 2.20000000000005 24  0 21.8  0 19  Z " stroke-width="2" stroke="#797979" fill="none" transform="matrix(1 0 0 1 637 149 )" mask="url(#clip46)" />
  </g>
</svg>