﻿<?xml version="1.0" encoding="utf-8"?>
<svg version="1.1" xmlns:xlink="http://www.w3.org/1999/xlink" width="12px" height="12px" viewBox="657 1619  12 12" xmlns="http://www.w3.org/2000/svg">
  <path d="M 663 1619  C 666.36 1619  669 1621.64  669 1625  C 669 1628.36  666.36 1631  663 1631  C 659.64 1631  657 1628.36  657 1625  C 657 1621.64  659.64 1619  663 1619  Z " fill-rule="nonzero" fill="#ffffff" stroke="none" />
  <path d="M 663 1619.5  C 666.08 1619.5  668.5 1621.92  668.5 1625  C 668.5 1628.08  666.08 1630.5  663 1630.5  C 659.92 1630.5  657.5 1628.08  657.5 1625  C 657.5 1621.92  659.92 1619.5  663 1619.5  Z " stroke-width="1" stroke="#797979" fill="none" />
</svg>