﻿<?xml version="1.0" encoding="utf-8"?>
<svg version="1.1" xmlns:xlink="http://www.w3.org/1999/xlink" width="12px" height="12px" viewBox="673 3957  12 12" xmlns="http://www.w3.org/2000/svg">
  <path d="M 679 3957  C 682.36 3957  685 3959.64  685 3963  C 685 3966.36  682.36 3969  679 3969  C 675.64 3969  673 3966.36  673 3963  C 673 3959.64  675.64 3957  679 3957  Z " fill-rule="nonzero" fill="#f0f0f0" stroke="none" />
  <path d="M 679 3957.5  C 682.08 3957.5  684.5 3959.92  684.5 3963  C 684.5 3966.08  682.08 3968.5  679 3968.5  C 675.92 3968.5  673.5 3966.08  673.5 3963  C 673.5 3959.92  675.92 3957.5  679 3957.5  Z " stroke-width="1" stroke="#797979" fill="none" />
</svg>