﻿<?xml version="1.0" encoding="utf-8"?>
<svg version="1.1" xmlns:xlink="http://www.w3.org/1999/xlink" width="12px" height="12px" viewBox="293 3170  12 12" xmlns="http://www.w3.org/2000/svg">
  <path d="M 293.5 3170.5  L 304.5 3170.5  L 304.5 3181.5  L 293.5 3181.5  L 293.5 3170.5  Z " fill-rule="nonzero" fill="#ffffff" stroke="none" />
  <path d="M 293.5 3170.5  L 304.5 3170.5  L 304.5 3181.5  L 293.5 3181.5  L 293.5 3170.5  Z " stroke-width="1" stroke="#797979" fill="none" />
  <path d="M 295.571428571429 3176  L 298.142857142857 3178.57142857143  L 302.428571428571 3172.57142857143  " stroke-width="2.57142857142857" stroke="#797979" fill="none" />
</svg>