﻿<?xml version="1.0" encoding="utf-8"?>
<svg version="1.1" xmlns:xlink="http://www.w3.org/1999/xlink" width="12px" height="12px" viewBox="657 3027  12 12" xmlns="http://www.w3.org/2000/svg">
  <path d="M 663 3027  C 666.36 3027  669 3029.64  669 3033  C 669 3036.36  666.36 3039  663 3039  C 659.64 3039  657 3036.36  657 3033  C 657 3029.64  659.64 3027  663 3027  Z " fill-rule="nonzero" fill="#ffffff" stroke="none" />
  <path d="M 663 3027.5  C 666.08 3027.5  668.5 3029.92  668.5 3033  C 668.5 3036.08  666.08 3038.5  663 3038.5  C 659.92 3038.5  657.5 3036.08  657.5 3033  C 657.5 3029.92  659.92 3027.5  663 3027.5  Z " stroke-width="1" stroke="#797979" fill="none" />
</svg>