﻿<?xml version="1.0" encoding="utf-8"?>
<svg version="1.1" xmlns:xlink="http://www.w3.org/1999/xlink" width="12px" height="12px" viewBox="196 3479.5  12 12" xmlns="http://www.w3.org/2000/svg">
  <path d="M 196.5 3480  L 207.5 3480  L 207.5 3491  L 196.5 3491  L 196.5 3480  Z " fill-rule="nonzero" fill="#ffffff" stroke="none" />
  <path d="M 196.5 3480  L 207.5 3480  L 207.5 3491  L 196.5 3491  L 196.5 3480  Z " stroke-width="1" stroke="#797979" fill="none" />
</svg>