﻿<?xml version="1.0" encoding="utf-8"?>
<svg version="1.1" xmlns:xlink="http://www.w3.org/1999/xlink" width="12px" height="12px" viewBox="196 3880  12 12" xmlns="http://www.w3.org/2000/svg">
  <path d="M 196.5 3880.5  L 207.5 3880.5  L 207.5 3891.5  L 196.5 3891.5  L 196.5 3880.5  Z " fill-rule="nonzero" fill="#ffffff" stroke="none" />
  <path d="M 196.5 3880.5  L 207.5 3880.5  L 207.5 3891.5  L 196.5 3891.5  L 196.5 3880.5  Z " stroke-width="1" stroke="#797979" fill="none" />
  <path d="M 198.571428571429 3886  L 201.142857142857 3888.57142857143  L 205.428571428571 3882.57142857143  " stroke-width="2.57142857142857" stroke="#797979" fill="none" />
</svg>