﻿<?xml version="1.0" encoding="utf-8"?>
<svg version="1.1" xmlns:xlink="http://www.w3.org/1999/xlink" width="12px" height="12px" viewBox="657 3057  12 12" xmlns="http://www.w3.org/2000/svg">
  <path d="M 663 3057  C 666.36 3057  669 3059.64  669 3063  C 669 3066.36  666.36 3069  663 3069  C 659.64 3069  657 3066.36  657 3063  C 657 3059.64  659.64 3057  663 3057  Z " fill-rule="nonzero" fill="#ffffff" stroke="none" />
  <path d="M 663 3057.5  C 666.08 3057.5  668.5 3059.92  668.5 3063  C 668.5 3066.08  666.08 3068.5  663 3068.5  C 659.92 3068.5  657.5 3066.08  657.5 3063  C 657.5 3059.92  659.92 3057.5  663 3057.5  Z " stroke-width="1" stroke="#797979" fill="none" />
</svg>