﻿<?xml version="1.0" encoding="utf-8"?>
<svg version="1.1" xmlns:xlink="http://www.w3.org/1999/xlink" width="12px" height="12px" viewBox="664 2350  12 12" xmlns="http://www.w3.org/2000/svg">
  <path d="M 670 2350  C 673.36 2350  676 2352.64  676 2356  C 676 2359.36  673.36 2362  670 2362  C 666.64 2362  664 2359.36  664 2356  C 664 2352.64  666.64 2350  670 2350  Z " fill-rule="nonzero" fill="#f0f0f0" stroke="none" />
  <path d="M 670 2350.5  C 673.08 2350.5  675.5 2352.92  675.5 2356  C 675.5 2359.08  673.08 2361.5  670 2361.5  C 666.92 2361.5  664.5 2359.08  664.5 2356  C 664.5 2352.92  666.92 2350.5  670 2350.5  Z " stroke-width="1" stroke="#797979" fill="none" />
</svg>