﻿<?xml version="1.0" encoding="utf-8"?>
<svg version="1.1" xmlns:xlink="http://www.w3.org/1999/xlink" width="12px" height="12px" viewBox="657 1649  12 12" xmlns="http://www.w3.org/2000/svg">
  <path d="M 663 1649  C 666.36 1649  669 1651.64  669 1655  C 669 1658.36  666.36 1661  663 1661  C 659.64 1661  657 1658.36  657 1655  C 657 1651.64  659.64 1649  663 1649  Z " fill-rule="nonzero" fill="#f0f0f0" stroke="none" />
  <path d="M 663 1649.5  C 666.08 1649.5  668.5 1651.92  668.5 1655  C 668.5 1658.08  666.08 1660.5  663 1660.5  C 659.92 1660.5  657.5 1658.08  657.5 1655  C 657.5 1651.92  659.92 1649.5  663 1649.5  Z " stroke-width="1" stroke="#797979" fill="none" />
</svg>