﻿<?xml version="1.0" encoding="utf-8"?>
<svg version="1.1" xmlns:xlink="http://www.w3.org/1999/xlink" width="12px" height="12px" viewBox="190 3735  12 12" xmlns="http://www.w3.org/2000/svg">
  <path d="M 190.5 3735.5  L 201.5 3735.5  L 201.5 3746.5  L 190.5 3746.5  L 190.5 3735.5  Z " fill-rule="nonzero" fill="#ffffff" stroke="none" />
  <path d="M 190.5 3735.5  L 201.5 3735.5  L 201.5 3746.5  L 190.5 3746.5  L 190.5 3735.5  Z " stroke-width="1" stroke="#797979" fill="none" />
  <path d="M 192.571428571429 3741  L 195.142857142857 3743.57142857143  " stroke-width="2.57142857142857" stroke="#797979" fill="none" />
  <path d="M 195.142857142857 3743.57142857143  L 199.428571428571 3737.57142857143  " stroke-width="2.57142857142857" stroke="#797979" fill="none" />
</svg>