﻿<?xml version="1.0" encoding="utf-8"?>
<svg version="1.1" xmlns:xlink="http://www.w3.org/1999/xlink" width="12px" height="12px" viewBox="203 1047  12 12" xmlns="http://www.w3.org/2000/svg">
  <path d="M 203.5 1047.5  L 214.5 1047.5  L 214.5 1058.5  L 203.5 1058.5  L 203.5 1047.5  Z " fill-rule="nonzero" fill="#ffffff" stroke="none" />
  <path d="M 203.5 1047.5  L 214.5 1047.5  L 214.5 1058.5  L 203.5 1058.5  L 203.5 1047.5  Z " stroke-width="1" stroke="#797979" fill="none" />
  <path d="M 205.571428571429 1053  L 208.142857142857 1055.57142857143  L 212.428571428571 1049.57142857143  " stroke-width="2.57142857142857" stroke="#797979" fill="none" />
</svg>