﻿<?xml version="1.0" encoding="utf-8"?>
<svg version="1.1" xmlns:xlink="http://www.w3.org/1999/xlink" width="12px" height="12px" viewBox="191 3791  12 12" xmlns="http://www.w3.org/2000/svg">
  <path d="M 191.5 3791.5  L 202.5 3791.5  L 202.5 3802.5  L 191.5 3802.5  L 191.5 3791.5  Z " fill-rule="nonzero" fill="#ffffff" stroke="none" />
  <path d="M 191.5 3791.5  L 202.5 3791.5  L 202.5 3802.5  L 191.5 3802.5  L 191.5 3791.5  Z " stroke-width="1" stroke="#797979" fill="none" />
  <path d="M 193.571428571429 3797  L 196.142857142857 3799.57142857143  L 200.428571428571 3793.57142857143  " stroke-width="2.57142857142857" stroke="#797979" fill="none" />
</svg>