﻿<?xml version="1.0" encoding="utf-8"?>
<svg version="1.1" xmlns:xlink="http://www.w3.org/1999/xlink" width="12px" height="12px" viewBox="664 2320  12 12" xmlns="http://www.w3.org/2000/svg">
  <path d="M 670 2320  C 673.36 2320  676 2322.64  676 2326  C 676 2329.36  673.36 2332  670 2332  C 666.64 2332  664 2329.36  664 2326  C 664 2322.64  666.64 2320  670 2320  Z " fill-rule="nonzero" fill="#ffffff" stroke="none" />
  <path d="M 670 2320.5  C 673.08 2320.5  675.5 2322.92  675.5 2326  C 675.5 2329.08  673.08 2331.5  670 2331.5  C 666.92 2331.5  664.5 2329.08  664.5 2326  C 664.5 2322.92  666.92 2320.5  670 2320.5  Z " stroke-width="1" stroke="#797979" fill="none" />
  <path d="M 670 2329  C 668.32 2329  667 2327.68  667 2326  C 667 2324.32  668.32 2323  670 2323  C 671.68 2323  673 2324.32  673 2326  C 673 2327.68  671.68 2329  670 2329  " fill-rule="nonzero" fill="#797979" stroke="none" />
</svg>