﻿<?xml version="1.0" encoding="utf-8"?>
<svg version="1.1" xmlns:xlink="http://www.w3.org/1999/xlink" width="12px" height="12px" viewBox="673 3940  12 12" xmlns="http://www.w3.org/2000/svg">
  <path d="M 679 3940  C 682.36 3940  685 3942.64  685 3946  C 685 3949.36  682.36 3952  679 3952  C 675.64 3952  673 3949.36  673 3946  C 673 3942.64  675.64 3940  679 3940  Z " fill-rule="nonzero" fill="#ffffff" stroke="none" />
  <path d="M 679 3940.5  C 682.08 3940.5  684.5 3942.92  684.5 3946  C 684.5 3949.08  682.08 3951.5  679 3951.5  C 675.92 3951.5  673.5 3949.08  673.5 3946  C 673.5 3942.92  675.92 3940.5  679 3940.5  Z " stroke-width="1" stroke="#797979" fill="none" />
</svg>