﻿<?xml version="1.0" encoding="utf-8"?>
<svg version="1.1" xmlns:xlink="http://www.w3.org/1999/xlink" width="12px" height="12px" viewBox="242 2945  12 12" xmlns="http://www.w3.org/2000/svg">
  <path d="M 242.5 2945.5  L 253.5 2945.5  L 253.5 2956.5  L 242.5 2956.5  L 242.5 2945.5  Z " fill-rule="nonzero" fill="#ffffff" stroke="none" />
  <path d="M 242.5 2945.5  L 253.5 2945.5  L 253.5 2956.5  L 242.5 2956.5  L 242.5 2945.5  Z " stroke-width="1" stroke="#797979" fill="none" />
  <path d="M 244.571428571429 2951  L 247.142857142857 2953.57142857143  L 251.428571428571 2947.57142857143  " stroke-width="2.57142857142857" stroke="#797979" fill="none" />
</svg>