﻿<?xml version="1.0" encoding="utf-8"?>
<svg version="1.1" xmlns:xlink="http://www.w3.org/1999/xlink" width="131px" height="10px" preserveAspectRatio="xMinYMid meet" viewBox="724 313  131 8" xmlns="http://www.w3.org/2000/svg">
  <path d="M 724 317.5  L 845 317.5  A 5 5 0 0 0 850.5 312.5 L 850.5 233  A 5 5 0 0 1 855.5 228.5 L 863 228.5  " stroke-width="1" stroke="#797979" fill="none" />
  <path d="M 862 234.8  L 868 228.5  L 862 222.2  L 862 234.8  Z " fill-rule="nonzero" fill="#797979" stroke="none" />
</svg>