﻿<?xml version="1.0" encoding="utf-8"?>
<svg version="1.1" xmlns:xlink="http://www.w3.org/1999/xlink" width="49px" height="49px" xmlns="http://www.w3.org/2000/svg">
  <g transform="matrix(1 0 0 1 -693 -22 )">
    <path d="M 717.5 22  C 731.22 22  742 32.78  742 46.5  C 742 60.22  731.22 71  717.5 71  C 703.78 71  693 60.22  693 46.5  C 693 32.78  703.78 22  717.5 22  Z " fill-rule="nonzero" fill="#ffffff" stroke="none" />
    <path d="M 717.5 22.5  C 730.94 22.5  741.5 33.06  741.5 46.5  C 741.5 59.94  730.94 70.5  717.5 70.5  C 704.06 70.5  693.5 59.94  693.5 46.5  C 693.5 33.06  704.06 22.5  717.5 22.5  Z " stroke-width="1" stroke="#797979" fill="none" />
  </g>
</svg>