﻿<?xml version="1.0" encoding="utf-8"?>
<svg version="1.1" xmlns:xlink="http://www.w3.org/1999/xlink" width="30px" height="32px" xmlns="http://www.w3.org/2000/svg">
  <g transform="matrix(1 0 0 1 -703 -31 )">
    <path d="M 29.7391304347825 31.5919999999999  C 29.7 29.68  29.3126086956521 27.82  28.5847826086956 26.064  C 27.8452173913043 24.2719999999999  26.7808695652173 22.6640000000001  25.4308695652173 21.284  C 24.0808695652174 19.904  22.5078260869565 18.82  20.7547826086955 18.0599999999999  C 20.7391304347826 18.052  20.7234782608695 18.0480000000001  20.7078260869565 18.04  C 23.145652173913 16.2399999999999  24.7304347826086 13.308  24.7304347826086 10  C 24.7304347826086 4.51999999999998  20.3869565217391 0.0799999999999272  15.0260869565217 0.0799999999999272  C 9.66521739130431 0.0799999999999272  5.32173913043484 4.51999999999998  5.32173913043484 10  C 5.32173913043484 13.308  6.90652173913038 16.2399999999999  9.34434782608694 18.044  C 9.32869565217397 18.052  9.31304347826085 18.056  9.29739130434788 18.064  C 7.54434782608695 18.82  5.97130434782605 19.904  4.6213043478261 21.288  C 3.27130434782614 22.668  2.21086956521746 24.276  1.46739130434783 26.0680000000001  C 0.739565217391314 27.82  0.352173913043455 29.68  0.313043478260881 31.5919999999999  C 0.309130434782565 31.7719999999999  0.450000000000036 31.9200000000001  0.626086956521763 31.9200000000001  L 2.97391304347823 31.9200000000001  C 3.14608695652178 31.9200000000001  3.28304347826094 31.78  3.28695652173911 31.608  C 3.3652173913044 28.52  4.57826086956521 25.628  6.72260869565217 23.436  C 8.94130434782611 21.168  11.8878260869566 19.9200000000001  15.0260869565217 19.9200000000001  C 18.1643478260869 19.9200000000001  21.1108695652173 21.168  23.3295652173913 23.436  C 25.4739130434782 25.628  26.686956521739 28.52  26.7652173913043 31.608  C 26.7691304347825 31.784  26.9060869565216 31.9200000000001  27.0782608695652 31.9200000000001  L 29.4260869565217 31.9200000000001  C 29.6021739130434 31.9200000000001  29.7430434782609 31.7719999999999  29.7391304347825 31.5919999999999  Z M 19.784347826087 14.864  C 18.5126086956522 16.1640000000001  16.8221739130434 16.88  15.0260869565217 16.88  C 13.23 16.88  11.5395652173913 16.1640000000001  10.2678260869565 14.864  C 8.99608695652165 13.564  8.29565217391306 11.8359999999999  8.29565217391306 10  C 8.29565217391306 8.16400000000006  8.99608695652165 6.436  10.2678260869565 5.13599999999997  C 11.5395652173913 3.83599999999994  13.23 3.12000000000004  15.0260869565217 3.12000000000004  C 16.8221739130434 3.12000000000004  18.5126086956522 3.83599999999994  19.784347826087 5.13599999999997  C 21.0560869565218 6.436  21.7565217391304 8.16400000000006  21.7565217391304 10  C 21.7565217391304 11.8359999999999  21.0560869565218 13.564  19.784347826087 14.864  Z " fill-rule="nonzero" fill="#007ce4" stroke="none" transform="matrix(1 0 0 1 703 31 )" />
  </g>
</svg>