﻿<?xml version="1.0" encoding="utf-8"?>
<svg version="1.1" xmlns:xlink="http://www.w3.org/1999/xlink" width="10px" height="45px" preserveAspectRatio="xMidYMin meet" viewBox="761 1336  8 45" xmlns="http://www.w3.org/2000/svg">
  <path d="M 765.5 1336  L 765.5 1372  " stroke-width="1" stroke="#797979" fill="none" />
  <path d="M 759.2 1371  L 765.5 1377  L 771.8 1371  L 759.2 1371  Z " fill-rule="nonzero" fill="#797979" stroke="none" />
</svg>