﻿<?xml version="1.0" encoding="utf-8"?>
<svg version="1.1" xmlns:xlink="http://www.w3.org/1999/xlink" width="10px" height="41px" preserveAspectRatio="xMidYMin meet" viewBox="761 1248  8 41" xmlns="http://www.w3.org/2000/svg">
  <path d="M 765.5 1248  L 765.5 1280  " stroke-width="1" stroke="#797979" fill="none" />
  <path d="M 759.2 1279  L 765.5 1285  L 771.8 1279  L 759.2 1279  Z " fill-rule="nonzero" fill="#797979" stroke="none" />
</svg>