﻿<?xml version="1.0" encoding="utf-8"?>
<svg version="1.1" xmlns:xlink="http://www.w3.org/1999/xlink" width="19px" height="18px" preserveAspectRatio="xMinYMid meet" viewBox="250 1359  19 16" xmlns="http://www.w3.org/2000/svg">
  <path d="M 213 1367.5  L 258.5 1367.5  " stroke-width="1" stroke="#797979" fill="none" />
  <path d="M 257.5 1373.8  L 263.5 1367.5  L 257.5 1361.2  L 257.5 1373.8  Z " fill-rule="nonzero" fill="#797979" stroke="none" />
</svg>