﻿<?xml version="1.0" encoding="utf-8"?>
<svg version="1.1" xmlns:xlink="http://www.w3.org/1999/xlink" width="19px" height="18px" preserveAspectRatio="xMinYMid meet" viewBox="934 1107  19 16" xmlns="http://www.w3.org/2000/svg">
  <path d="M 408 1498.5  L 630 1498.5  A 3 3 0 0 1 633 1495.5 A 3 3 0 0 1 636 1498.5 L 670.5 1498.5  L 670.5 1547.5  L 901.5 1547.5  L 901.5 1115.5  L 942.5 1115.5  " stroke-width="1" stroke="#797979" fill="none" />
  <path d="M 941.5 1121.8  L 947.5 1115.5  L 941.5 1109.2  L 941.5 1121.8  Z " fill-rule="nonzero" fill="#797979" stroke="none" />
</svg>