﻿<?xml version="1.0" encoding="utf-8"?>
<svg version="1.1" xmlns:xlink="http://www.w3.org/1999/xlink" width="18px" height="19px" preserveAspectRatio="xMidYMin meet" viewBox="328 1699  16 19" xmlns="http://www.w3.org/2000/svg">
  <path d="M 336.5 1670  L 336.5 1708  " stroke-width="1" stroke="#797979" fill="none" />
  <path d="M 330.2 1707  L 336.5 1713  L 342.8 1707  L 330.2 1707  Z " fill-rule="nonzero" fill="#797979" stroke="none" />
</svg>