﻿<?xml version="1.0" encoding="utf-8"?>
<svg version="1.1" xmlns:xlink="http://www.w3.org/1999/xlink" width="10px" height="42px" preserveAspectRatio="xMidYMin meet" viewBox="138 1038  8 42" xmlns="http://www.w3.org/2000/svg">
  <path d="M 142.5 1038  L 142.5 1071  " stroke-width="1" stroke="#797979" fill="none" />
  <path d="M 136.2 1070  L 142.5 1076  L 148.8 1070  L 136.2 1070  Z " fill-rule="nonzero" fill="#797979" stroke="none" />
</svg>