﻿<?xml version="1.0" encoding="utf-8"?>
<svg version="1.1" xmlns:xlink="http://www.w3.org/1999/xlink" width="18px" height="19px" preserveAspectRatio="xMidYMin meet" viewBox="757 1094  16 19" xmlns="http://www.w3.org/2000/svg">
  <path d="M 765.5 1072  L 765.5 1103  " stroke-width="1" stroke="#797979" fill="none" />
  <path d="M 759.2 1102  L 765.5 1108  L 771.8 1102  L 759.2 1102  Z " fill-rule="nonzero" fill="#797979" stroke="none" />
</svg>