﻿<?xml version="1.0" encoding="utf-8"?>
<svg version="1.1" xmlns:xlink="http://www.w3.org/1999/xlink" width="18px" height="19px" preserveAspectRatio="xMidYMin meet" viewBox="757 1183  16 19" xmlns="http://www.w3.org/2000/svg">
  <path d="M 765.5 1159  L 765.5 1192  " stroke-width="1" stroke="#797979" fill="none" />
  <path d="M 759.2 1191  L 765.5 1197  L 771.8 1191  L 759.2 1191  Z " fill-rule="nonzero" fill="#797979" stroke="none" />
</svg>