﻿<?xml version="1.0" encoding="utf-8"?>
<svg version="1.1" xmlns:xlink="http://www.w3.org/1999/xlink" width="376px" height="10px" preserveAspectRatio="xMinYMid meet" viewBox="137 843  376 8" xmlns="http://www.w3.org/2000/svg">
  <path d="M 142.5 831  L 142.5 847.5  L 502.5 847.5  " stroke-width="1" stroke-dasharray="9,4" stroke="#797979" fill="none" />
  <path d="M 502.5 855  L 513.5 847.5  L 502.5 840  L 502.5 855  Z M 503.5 853.2  L 503.5 841.8  L 511.7 847.5  L 503.5 853.2  Z " fill-rule="nonzero" fill="#797979" stroke="none" />
</svg>