﻿<?xml version="1.0" encoding="utf-8"?>
<svg version="1.1" xmlns:xlink="http://www.w3.org/1999/xlink" width="55px" height="10px" preserveAspectRatio="xMinYMid meet" viewBox="408 1365  55 8" xmlns="http://www.w3.org/2000/svg">
  <path d="M 408 1369.5  L 453.5 1369.5  " stroke-width="1" stroke="#797979" fill="none" />
  <path d="M 452.5 1375.8  L 458.5 1369.5  L 452.5 1363.2  L 452.5 1375.8  Z " fill-rule="nonzero" fill="#797979" stroke="none" />
</svg>