﻿<?xml version="1.0" encoding="utf-8"?>
<svg version="1.1" xmlns:xlink="http://www.w3.org/1999/xlink" width="76px" height="10px" preserveAspectRatio="xMinYMid meet" viewBox="214 1114  76 8" xmlns="http://www.w3.org/2000/svg">
  <path d="M 214 1118.5  L 280.5 1118.5  " stroke-width="1" stroke="#797979" fill="none" />
  <path d="M 279.5 1124.8  L 285.5 1118.5  L 279.5 1112.2  L 279.5 1124.8  Z " fill-rule="nonzero" fill="#797979" stroke="none" />
</svg>