﻿<?xml version="1.0" encoding="utf-8"?>
<svg version="1.1" xmlns:xlink="http://www.w3.org/1999/xlink" width="10px" height="822px" preserveAspectRatio="xMidYMin meet" viewBox="629 1041  8 822" xmlns="http://www.w3.org/2000/svg">
  <path d="M 139.5 1670  L 139.5 1858.5  L 633.5 1858.5  L 633.5 1046.5  L 688.5 1046.5  " stroke-width="1" stroke="#797979" fill="none" />
  <path d="M 687.5 1052.8  L 693.5 1046.5  L 687.5 1040.2  L 687.5 1052.8  Z " fill-rule="nonzero" fill="#797979" stroke="none" />
</svg>