﻿<?xml version="1.0" encoding="utf-8"?>
<svg version="1.1" xmlns:xlink="http://www.w3.org/1999/xlink" width="19px" height="18px" preserveAspectRatio="xMinYMid meet" viewBox="247 1617  19 16" xmlns="http://www.w3.org/2000/svg">
  <path d="M 210 1625.5  L 255.5 1625.5  " stroke-width="1" stroke="#797979" fill="none" />
  <path d="M 254.5 1631.8  L 260.5 1625.5  L 254.5 1619.2  L 254.5 1631.8  Z " fill-rule="nonzero" fill="#797979" stroke="none" />
</svg>