﻿<?xml version="1.0" encoding="utf-8"?>
<svg version="1.1" xmlns:xlink="http://www.w3.org/1999/xlink" width="10px" height="7px" preserveAspectRatio="xMinYMid meet" viewBox="628 1555  10 5" xmlns="http://www.w3.org/2000/svg">
  <path d="M 336.5 1538  L 336.5 1559.5  L 633.5 1559.5  L 633.5 1562  " stroke-width="1" stroke="#797979" fill="none" />
</svg>