﻿<?xml version="1.0" encoding="utf-8"?>
<svg version="1.1" xmlns:xlink="http://www.w3.org/1999/xlink" width="19px" height="18px" preserveAspectRatio="xMinYMid meet" viewBox="445 1619  19 16" xmlns="http://www.w3.org/2000/svg">
  <path d="M 408 1627.5  L 453.5 1627.5  " stroke-width="1" stroke="#797979" fill="none" />
  <path d="M 452.5 1633.8  L 458.5 1627.5  L 452.5 1621.2  L 452.5 1633.8  Z " fill-rule="nonzero" fill="#797979" stroke="none" />
</svg>