﻿<?xml version="1.0" encoding="utf-8"?>
<svg version="1.1" xmlns:xlink="http://www.w3.org/1999/xlink" width="19px" height="18px" preserveAspectRatio="xMinYMid meet" viewBox="455 1236  19 16" xmlns="http://www.w3.org/2000/svg">
  <path d="M 406.5 1244  L 406.5 1245.5  L 463.5 1245.5  L 463.5 1244.5  L 463.5 1244.5  " stroke-width="1" stroke="#797979" fill="none" />
  <path d="M 462.5 1250.8  L 468.5 1244.5  L 462.5 1238.2  L 462.5 1250.8  Z " fill-rule="nonzero" fill="#797979" stroke="none" />
</svg>