﻿<?xml version="1.0" encoding="utf-8"?>
<svg version="1.1" xmlns:xlink="http://www.w3.org/1999/xlink" width="498px" height="10px" preserveAspectRatio="xMinYMid meet" viewBox="408 1754  498 8" xmlns="http://www.w3.org/2000/svg">
  <path d="M 408 1758.5  L 630 1758.5  A 3 3 0 0 1 633 1755.5 A 3 3 0 0 1 636 1758.5 L 901.5 1758.5  L 901.5 1546  " stroke-width="1" stroke="#797979" fill="none" />
</svg>