﻿<?xml version="1.0" encoding="utf-8"?>
<svg version="1.1" xmlns:xlink="http://www.w3.org/1999/xlink" width="10px" height="7px" preserveAspectRatio="xMinYMid meet" viewBox="896 1195  10 5" xmlns="http://www.w3.org/2000/svg">
  <path d="M 901.5 1194  L 901.5 1196.5  L 942.5 1196.5  " stroke-width="1" stroke="#797979" fill="none" />
  <path d="M 941.5 1202.8  L 947.5 1196.5  L 941.5 1190.2  L 941.5 1202.8  Z " fill-rule="nonzero" fill="#797979" stroke="none" />
</svg>