﻿<?xml version="1.0" encoding="utf-8"?>
<svg version="1.1" xmlns:xlink="http://www.w3.org/1999/xlink" width="18px" height="19px" preserveAspectRatio="xMidYMin meet" viewBox="134 1186  16 19" xmlns="http://www.w3.org/2000/svg">
  <path d="M 142.5 1162  L 142.5 1195  " stroke-width="1" stroke="#797979" fill="none" />
  <path d="M 136.2 1194  L 142.5 1200  L 148.8 1194  L 136.2 1194  Z " fill-rule="nonzero" fill="#797979" stroke="none" />
</svg>