﻿<?xml version="1.0" encoding="utf-8"?>
<svg version="1.1" xmlns:xlink="http://www.w3.org/1999/xlink" width="10px" height="48px" preserveAspectRatio="xMidYMin meet" viewBox="138 701  8 48" xmlns="http://www.w3.org/2000/svg">
  <path d="M 142.5 701  L 142.5 740  " stroke-width="1" stroke="#797979" fill="none" />
  <path d="M 136.2 739  L 142.5 745  L 148.8 739  L 136.2 739  Z " fill-rule="nonzero" fill="#797979" stroke="none" />
</svg>