﻿<?xml version="1.0" encoding="utf-8"?>
<svg version="1.1" xmlns:xlink="http://www.w3.org/1999/xlink" width="18px" height="19px" preserveAspectRatio="xMidYMin meet" viewBox="754 1455  16 19" xmlns="http://www.w3.org/2000/svg">
  <path d="M 762.5 1428  L 762.5 1464  " stroke-width="1" stroke="#797979" fill="none" />
  <path d="M 756.2 1463  L 762.5 1469  L 768.8 1463  L 756.2 1463  Z " fill-rule="nonzero" fill="#797979" stroke="none" />
</svg>