﻿<?xml version="1.0" encoding="utf-8"?>
<svg version="1.1" xmlns:xlink="http://www.w3.org/1999/xlink" width="55px" height="10px" preserveAspectRatio="xMinYMid meet" viewBox="214 1240  55 8" xmlns="http://www.w3.org/2000/svg">
  <path d="M 214 1244.5  L 259.5 1244.5  " stroke-width="1" stroke="#797979" fill="none" />
  <path d="M 258.5 1250.8  L 264.5 1244.5  L 258.5 1238.2  L 258.5 1250.8  Z " fill-rule="nonzero" fill="#797979" stroke="none" />
</svg>