﻿<?xml version="1.0" encoding="utf-8"?>
<svg version="1.1" xmlns:xlink="http://www.w3.org/1999/xlink" width="18px" height="19px" preserveAspectRatio="xMidYMin meet" viewBox="134 1570  16 19" xmlns="http://www.w3.org/2000/svg">
  <path d="M 142.5 1412  L 142.5 1579  " stroke-width="1" stroke="#797979" fill="none" />
  <path d="M 136.2 1578  L 142.5 1584  L 148.8 1578  L 136.2 1578  Z " fill-rule="nonzero" fill="#797979" stroke="none" />
</svg>