﻿<?xml version="1.0" encoding="utf-8"?>
<svg version="1.1" xmlns:xlink="http://www.w3.org/1999/xlink" width="40px" height="40px" xmlns="http://www.w3.org/2000/svg">
  <defs>
    <filter x="415px" y="322px" width="40px" height="40px" filterUnits="userSpaceOnUse" id="filter43">
      <feOffset dx="1" dy="1" in="SourceAlpha" result="shadowOffsetInner" />
      <feGaussianBlur stdDeviation="2.5" in="shadowOffsetInner" result="shadowGaussian" />
      <feComposite in2="shadowGaussian" operator="atop" in="SourceAlpha" result="shadowComposite" />
      <feColorMatrix type="matrix" values="0 0 0 0 0  0 0 0 0 0  0 0 0 0 0  0 0 0 0.698039215686274 0  " in="shadowComposite" />
    </filter>
    <g id="widget44">
      <path d="M 434 326  C 442.4 326  449 332.6  449 341  C 449 349.4  442.4 356  434 356  C 425.6 356  419 349.4  419 341  C 419 332.6  425.6 326  434 326  Z " fill-rule="nonzero" fill="#009dd9" stroke="none" />
      <path d="M 434 326.5  C 442.12 326.5  448.5 332.88  448.5 341  C 448.5 349.12  442.12 355.5  434 355.5  C 425.88 355.5  419.5 349.12  419.5 341  C 419.5 332.88  425.88 326.5  434 326.5  Z " stroke-width="1" stroke="#ffffff" fill="none" />
    </g>
  </defs>
  <g transform="matrix(1 0 0 1 -415 -322 )">
    <use xlink:href="#widget44" filter="url(#filter43)" />
    <use xlink:href="#widget44" />
  </g>
</svg>