﻿<?xml version="1.0" encoding="utf-8"?>
<svg version="1.1" xmlns:xlink="http://www.w3.org/1999/xlink" width="354px" height="50px" xmlns="http://www.w3.org/2000/svg">
  <g transform="matrix(1 0 0 1 -44 -677 )">
    <path d="M 45 682  A 4 4 0 0 1 49 678 L 393 678  A 4 4 0 0 1 397 682 L 397 722  A 4 4 0 0 1 393 726 L 49 726  A 4 4 0 0 1 45 722 L 45 682  Z " fill-rule="nonzero" fill="#333333" stroke="none" fill-opacity="0.815686274509804" />
  </g>
</svg>