﻿<?xml version="1.0" encoding="utf-8"?>
<svg version="1.1" xmlns:xlink="http://www.w3.org/1999/xlink" width="354px" height="50px" xmlns="http://www.w3.org/2000/svg">
  <g transform="matrix(1 0 0 1 -44 -736 )">
    <path d="M 45 741  A 4 4 0 0 1 49 737 L 393 737  A 4 4 0 0 1 397 741 L 397 781  A 4 4 0 0 1 393 785 L 49 785  A 4 4 0 0 1 45 781 L 45 741  Z " fill-rule="nonzero" fill="#333333" stroke="none" fill-opacity="0.949019607843137" />
  </g>
</svg>