﻿<?xml version="1.0" encoding="utf-8"?>
<svg version="1.1" xmlns:xlink="http://www.w3.org/1999/xlink" width="27px" height="27px" xmlns="http://www.w3.org/2000/svg">
  <g transform="matrix(1 0 0 1 -72 -689 )">
    <path d="M 26.9424715909091 20.9211647727273  C 26.9808238636364 21.0106534090909  27 21.1448863636364  27 21.3238636363636  C 27 21.6690340909091  26.9360795454545 22.1196732954545  26.8082386363636 22.67578125  C 26.6803977272727 23.2318892045455  26.5461647727273 23.6697443181818  26.4055397727273 23.9893465909091  C 26.1370738636364 24.6285511363636  25.3572443181818 25.3061079545455  24.0660511363636 26.0220170454545  C 22.8643465909091 26.6740056818182  21.6754261363636 27  20.4992897727273 27  C 20.1541193181818 27  19.8153409090909 26.9776278409091  19.4829545454545 26.9328835227273  C 19.1505681818182 26.8881392045455  18.7830255681818 26.8082386363636  18.3803267045455 26.6931818181818  C 17.9776278409091 26.578125  17.6772017045455 26.4854403409091  17.4790482954545 26.4151278409091  C 17.2808948863636 26.3448153409091  16.9261363636364 26.2137784090909  16.4147727272727 26.0220170454545  C 15.9034090909091 25.8302556818182  15.5901988636364 25.7151988636364  15.4751420454545 25.6768465909091  C 14.2223011363636 25.2294034090909  13.1036931818182 24.6988636363636  12.1193181818182 24.0852272727273  C 10.4957386363636 23.0752840909091  8.80823863636364 21.6946022727273  7.05681818181818 19.9431818181818  C 5.30539772727273 18.1917613636364  3.92471590909091 16.5042613636364  2.91477272727273 14.8806818181818  C 2.30113636363636 13.8963068181818  1.77059659090909 12.7776988636364  1.32315340909091 11.5248579545455  C 1.28480113636364 11.4098011363636  1.16974431818182 11.0965909090909  0.977982954545455 10.5852272727273  C 0.786221590909091 10.0738636363636  0.655184659090909 9.71910511363636  0.584872159090909 9.52095170454546  C 0.514559659090909 9.32279829545454  0.421875 9.02237215909091  0.306818181818182 8.61967329545454  C 0.191761363636364 8.21697443181818  0.111860795454545 7.84943181818182  0.0671164772727273 7.51704545454546  C 0.0223721590909091 7.18465909090909  0 6.84588068181818  0 6.50071022727273  C 0 5.32457386363636  0.325994318181818 4.13565340909091  0.977982954545455 2.93394886363636  C 1.69389204545455 1.64275568181818  2.37144886363636 0.862926136363637  3.01065340909091 0.594460227272726  C 3.33025568181818 0.453835227272725  3.76811079545455 0.31960227272727  4.32421875 0.191761363636363  C 4.88032670454546 0.0639204545454534  5.33096590909091 0  5.67613636363636 0  C 5.85511363636364 0  5.98934659090909 0.0191761363636369  6.07883522727273 0.0575284090909077  C 6.30894886363636 0.134232954545455  6.64772727272727 0.620028409090909  7.09517045454545 1.51491477272727  C 7.23579545454546 1.7578125  7.42755681818182 2.10298295454545  7.67045454545455 2.55042613636364  C 7.91335227272727 2.99786931818182  8.13707386363636 3.40376420454546  8.34161931818182 3.76811079545454  C 8.54616477272727 4.13245738636364  8.74431818181818 4.47443181818182  8.93607954545455 4.79403409090909  C 8.97443181818182 4.84517045454545  9.08629261363636 5.00497159090909  9.27166193181818 5.2734375  C 9.45703125 5.54190340909091  9.59446022727273 5.76882102272727  9.68394886363636 5.95419034090909  C 9.7734375 6.13955965909091  9.81818181818182 6.32173295454545  9.81818181818182 6.50071022727273  C 9.81818181818182 6.75639204545454  9.63600852272727 7.07599431818182  9.27166193181818 7.45951704545454  C 8.90731534090909 7.84303977272727  8.51100852272727 8.19460227272727  8.08274147727273 8.51420454545454  C 7.65447443181818 8.83380681818181  7.25816761363636 9.17258522727273  6.89382102272727 9.53053977272727  C 6.52947443181818 9.88849431818182  6.34730113636364 10.1825284090909  6.34730113636364 10.4126420454545  C 6.34730113636364 10.5276988636364  6.37926136363636 10.6715198863636  6.44318181818182 10.8441051136364  C 6.50710227272727 11.0166903409091  6.56143465909091 11.1477272727273  6.60617897727273 11.2372159090909  C 6.65092329545455 11.3267045454545  6.74041193181818 11.4801136363636  6.87464488636364 11.6974431818182  C 7.00887784090909 11.9147727272727  7.08238636363636 12.0362215909091  7.09517045454545 12.0617897727273  C 8.06676136363636 13.8132102272727  9.17897727272727 15.3153409090909  10.4318181818182 16.5681818181818  C 11.6846590909091 17.8210227272727  13.1867897727273 18.9332386363636  14.9382102272727 19.9048295454545  C 14.9637784090909 19.9176136363636  15.0852272727273 19.9911221590909  15.3025568181818 20.1253551136364  C 15.5198863636364 20.2595880681818  15.6732954545455 20.3490767045454  15.7627840909091 20.3938210227273  C 15.8522727272727 20.4385653409091  15.9833096590909 20.4928977272727  16.1558948863636 20.5568181818182  C 16.3284801136364 20.6207386363636  16.4723011363636 20.6526988636364  16.5873579545455 20.6526988636364  C 16.8174715909091 20.6526988636364  17.1115056818182 20.4705255681818  17.4694602272727 20.1061789772727  C 17.8274147727273 19.7418323863636  18.1661931818182 19.3455255681818  18.4857954545455 18.9172585227273  C 18.8053977272727 18.4889914772727  19.1569602272727 18.0926846590909  19.5404829545455 17.7283380681818  C 19.9240056818182 17.3639914772727  20.2436079545455 17.1818181818182  20.4992897727273 17.1818181818182  C 20.6782670454546 17.1818181818182  20.8604403409091 17.2265625  21.0458096590909 17.3160511363636  C 21.2311789772727 17.4055397727273  21.4580965909091 17.54296875  21.7265625 17.7283380681818  C 21.9950284090909 17.9137073863636  22.1548295454546 18.0255681818182  22.2059659090909 18.0639204545455  C 22.5255681818182 18.2556818181818  22.8675426136364 18.4538352272727  23.2318892045455 18.6583806818182  C 23.5962357954545 18.8629261363636  24.0021306818182 19.0866477272727  24.4495738636364 19.3295454545455  C 24.8970170454546 19.5724431818182  25.2421875 19.7642045454545  25.4850852272727 19.9048295454545  C 26.3799715909091 20.3522727272727  26.8657670454545 20.6910511363636  26.9424715909091 20.9211647727273  Z " fill-rule="nonzero" fill="#7f7f7f" stroke="none" transform="matrix(1 0 0 1 72 689 )" />
  </g>
</svg>