﻿<?xml version="1.0" encoding="utf-8"?>
<svg version="1.1" xmlns:xlink="http://www.w3.org/1999/xlink" width="375px" height="667px" xmlns="http://www.w3.org/2000/svg">
  <g transform="matrix(1 0 0 1 -34 -129 )">
    <path d="M 35 130  L 408 130  L 408 795  L 35 795  L 35 130  Z " fill-rule="nonzero" fill="#7f7f7f" stroke="none" fill-opacity="0.643137254901961" />
  </g>
</svg>