﻿<?xml version="1.0" encoding="utf-8"?>
<svg version="1.1" xmlns:xlink="http://www.w3.org/1999/xlink" width="12px" height="12px" viewBox="546 275  12 12" xmlns="http://www.w3.org/2000/svg">
  <path d="M 552 275  C 555.36 275  558 277.64  558 281  C 558 284.36  555.36 287  552 287  C 548.64 287  546 284.36  546 281  C 546 277.64  548.64 275  552 275  Z " fill-rule="nonzero" fill="#ffffff" stroke="none" />
  <path d="M 552 275.5  C 555.08 275.5  557.5 277.92  557.5 281  C 557.5 284.08  555.08 286.5  552 286.5  C 548.92 286.5  546.5 284.08  546.5 281  C 546.5 277.92  548.92 275.5  552 275.5  Z " stroke-width="1" stroke="#797979" fill="none" />
  <path d="M 552 284  C 550.32 284  549 282.68  549 281  C 549 279.32  550.32 278  552 278  C 553.68 278  555 279.32  555 281  C 555 282.68  553.68 284  552 284  " fill-rule="nonzero" fill="#797979" stroke="none" />
</svg>