﻿<?xml version="1.0" encoding="utf-8"?>
<svg version="1.1" xmlns:xlink="http://www.w3.org/1999/xlink" width="12px" height="12px" viewBox="596 275  12 12" xmlns="http://www.w3.org/2000/svg">
  <path d="M 602 275  C 605.36 275  608 277.64  608 281  C 608 284.36  605.36 287  602 287  C 598.64 287  596 284.36  596 281  C 596 277.64  598.64 275  602 275  Z " fill-rule="nonzero" fill="#ffffff" stroke="none" />
  <path d="M 602 275.5  C 605.08 275.5  607.5 277.92  607.5 281  C 607.5 284.08  605.08 286.5  602 286.5  C 598.92 286.5  596.5 284.08  596.5 281  C 596.5 277.92  598.92 275.5  602 275.5  Z " stroke-width="1" stroke="#797979" fill="none" />
</svg>