﻿<?xml version="1.0" encoding="utf-8"?>
<svg version="1.1" xmlns:xlink="http://www.w3.org/1999/xlink" width="12px" height="12px" viewBox="444 666  12 12" xmlns="http://www.w3.org/2000/svg">
  <path d="M 444.5 666.5  L 455.5 666.5  L 455.5 677.5  L 444.5 677.5  L 444.5 666.5  Z " fill-rule="nonzero" fill="#ffffff" stroke="none" />
  <path d="M 444.5 666.5  L 455.5 666.5  L 455.5 677.5  L 444.5 677.5  L 444.5 666.5  Z " stroke-width="1" stroke="#797979" fill="none" />
  <path d="M 446.571428571429 672  L 449.142857142857 674.571428571429  L 453.428571428571 668.571428571429  " stroke-width="2.57142857142857" stroke="#797979" fill="none" />
</svg>