﻿<?xml version="1.0" encoding="utf-8"?>
<svg version="1.1" xmlns:xlink="http://www.w3.org/1999/xlink" width="12px" height="12px" viewBox="205 332  12 12" xmlns="http://www.w3.org/2000/svg">
  <path d="M 205.5 332.5  L 216.5 332.5  L 216.5 343.5  L 205.5 343.5  L 205.5 332.5  Z " fill-rule="nonzero" fill="#ffffff" stroke="none" />
  <path d="M 205.5 332.5  L 216.5 332.5  L 216.5 343.5  L 205.5 343.5  L 205.5 332.5  Z " stroke-width="1" stroke="#797979" fill="none" />
  <path d="M 207.571428571429 338  L 210.142857142857 340.571428571429  L 214.428571428571 334.571428571429  " stroke-width="2.57142857142857" stroke="#797979" fill="none" />
</svg>