﻿<?xml version="1.0" encoding="utf-8"?>
<svg version="1.1" xmlns:xlink="http://www.w3.org/1999/xlink" width="72px" height="56px" xmlns="http://www.w3.org/2000/svg">
  <g transform="matrix(1 0 0 1 -82 -246 )">
    <path d="M 33.5784753363229 42  L 35.8385650224215 42  L 40.5201793721973 37.3863636363636  L 34.3856502242152 31.3409090909091  L 29.7040358744395 35.9545454545455  L 29.7040358744395 38.1818181818182  L 33.5784753363229 38.1818181818182  L 33.5784753363229 42  Z M 53.5560538116592 14.6761363636364  C 54.0134529147982 14.2253787878788  54.0269058295964 13.7878787878788  53.5964125560538 13.3636363636364  C 53.1659192825112 12.9393939393939  52.7219730941704 12.9526515151515  52.2645739910314 13.4034090909091  L 38.1390134529148 27.3238636363636  C 37.6816143497758 27.7746212121212  37.6681614349776 28.2121212121212  38.0986547085202 28.6363636363636  C 38.5291479820628 29.0606060606061  38.9730941704036 29.0473484848485  39.4304932735426 28.5965909090909  L 53.5560538116592 14.6761363636364  Z M 56.0179372197309 35.8352272727273  C 56.5560538116592 36.0473484848485  56.8251121076233 36.4318181818182  56.8251121076233 36.9886363636364  L 56.8251121076233 44.5454545454545  C 56.8251121076233 47.7007575757576  55.6883408071749 50.3986742424242  53.414798206278 52.6392045454545  C 51.1412556053812 54.8797348484848  48.4035874439462 56  45.2017937219731 56  L 11.6233183856502 56  C 8.42152466367713 56  5.68385650224215 54.8797348484848  3.41031390134529 52.6392045454545  C 1.13677130044843 50.3986742424242  0 47.7007575757576  0 44.5454545454545  L 0 11.4545454545455  C 0 8.29924242424242  1.13677130044843 5.60132575757576  3.41031390134529 3.36079545454546  C 5.68385650224215 1.12026515151515  8.42152466367713 0  11.6233183856502 0  L 45.2017937219731 0  C 46.8968609865471 0  48.4708520179372 0.331439393939391  49.9237668161435 0.994318181818179  C 50.3273542600897 1.17992424242424  50.5695067264574 1.48484848484848  50.6502242152466 1.90909090909091  C 50.7309417040359 2.35984848484848  50.609865470852 2.74431818181818  50.2869955156951 3.0625  L 48.3094170403587 5.01136363636364  C 47.932735426009 5.38257575757576  47.5022421524664 5.48863636363636  47.0179372197309 5.32954545454546  C 46.3991031390135 5.17045454545454  45.7937219730942 5.09090909090909  45.2017937219731 5  L 11.6233183856502 5  C 9.847533632287 5.09090909090909  8.32735426008969 5.71401515151515  7.0627802690583 6.96022727272727  C 5.79820627802691 8.20643939393939  5.16591928251121 9.70454545454546  6 11.4545454545455  L 6 44.5454545454545  C 5.16591928251121 46.2954545454545  5.79820627802691 47.7935606060606  7.0627802690583 49.0397727272727  C 8.32735426008969 50.2859848484848  9.847533632287 50.9090909090909  11.6233183856502 51  L 45.2017937219731 51  C 46.9775784753363 50.9090909090909  48.4977578475336 50.2859848484848  49.762331838565 49.0397727272727  C 51.0269058295964 47.7935606060606  51.6591928251121 46.2954545454545  51.6591928251121 44.5454545454545  L 51.6591928251121 39.5340909090909  C 51.6591928251121 39.1893939393939  51.780269058296 38.8977272727273  52.0224215246637 38.6590909090909  L 54.6053811659193 36.1136363636364  C 55.0089686098655 35.7159090909091  55.4798206278027 35.6231060606061  56.0179372197309 35.8352272727273  Z M 26 34.3636363636364  L 52.9506726457399 7.63636363636364  L 64.5739910313901 19.0909090909091  L 37.4529147982063 45  L 26 45  L 26 34.3636363636364  Z M 72 10.1818181818182  C 72 11.2424242424242  71.6233183856502 12.1439393939394  70.8699551569507 12.8863636363636  L 67.1569506726457 16.5454545454545  L 55.5336322869955 5.09090909090909  L 59.2466367713005 1.43181818181818  C 60 0.689393939393934  60.914798206278 0.318181818181821  61.9910313901345 0.318181818181821  C 63.067264573991 0.318181818181821  63.9820627802691 0.689393939393934  64.7354260089686 1.43181818181818  L 70.8699551569507 7.47727272727273  C 71.6233183856502 8.21969696969696  72 9.12121212121212  72 10.1818181818182  Z " fill-rule="nonzero" fill="#333333" stroke="none" transform="matrix(1 0 0 1 82 246 )" />
  </g>
</svg>