﻿<?xml version="1.0" encoding="utf-8"?>
<svg version="1.1" xmlns:xlink="http://www.w3.org/1999/xlink" width="70px" height="50px" xmlns="http://www.w3.org/2000/svg">
  <g transform="matrix(1 0 0 1 -465 -251 )">
    <path d="M 69 2.22256521068066  C 68.9736070381232 0.993208828522924  67.8728005865103 0  66.5102639296187 0  L 2.4633431085044 0  C 1.10080645161291 0  0 0.993208828522924  0 2.22256521068066  L 0 46.6738694242939  C 0 47.9032258064516  1.10080645161291 48.8964346349745  2.4633431085044 48  L 66.5102639296187 48  C 67.8728005865103 48.8964346349745  68.9736070381232 47.9032258064516  69 46.6738694242939  L 69 2.22256521068066  Z M 63 5  L 63 43  L 6 43  L 6 5  L 63 5  Z M 41.8768328445748 21.3921901528014  C 41.8768328445748 21.6977928692699  41.9538123167155 21.9478314554715  42.0538856304985 21.9478314554715  L 51.5531524926686 21.9478314554715  C 51.6532258064516 21.9478314554715  51.7302052785924 21.6977928692699  51.7302052785924 21.3921901528014  L 51.7302052785924 18.0583423367804  C 51.7302052785924 17.7527396203118  51.6532258064516 17.5027010341102  51.5531524926686 17.5027010341102  L 42.0538856304985 17.5027010341102  C 41.9538123167155 17.5027010341102  41.8768328445748 17.7527396203118  41.8768328445748 18.0583423367804  L 41.8768328445748 21.3921901528014  Z M 41.8768328445748 31.3937336008643  C 41.8768328445748 31.6993363173329  42.1231671554252 31.9493749035345  42.4233870967742 32  L 56.7184750733138 32  C 57.0186950146628 31.9493749035345  57.2650293255132 31.6993363173329  57.2650293255132 31.3937336008643  L 57.2650293255132 28.0598857848433  C 57.2650293255132 27.7542830683748  57.0186950146628 27.5042444821732  56.7184750733138 27  L 42.4233870967742 27  C 42.1231671554252 27.5042444821732  41.8768328445748 27.7542830683748  41.8768328445748 28.0598857848433  L 41.8768328445748 31.3937336008643  Z M 11.7162756598241 35.0470751659207  C 11.6854838709677 35.366568914956  11.9626099706745 35.6304985337243  12.316715542522 35.6304985337243  L 15.6961143695015 35.6304985337243  C 16.0194281524927 35.6304985337243  16.2811583577713 35.4012964963729  16.3042521994135 35.1095848124711  C 16.5967741935484 31.6020990893656  19.8453079178886 28.8238925760148  23.7866568914956 28.8238925760148  C 27.7280058651026 28.8238925760148  30.9765395894428 31.6020990893656  31.2690615835777 35.1095848124711  C 31.2921554252199 35.4012964963729  31.5538856304985 35.6304985337243  31.8771994134897 35.6304985337243  L 35.2565982404692 35.6304985337243  C 35.6107038123167 35.6304985337243  35.8878299120235 35.366568914956  35.8724340175953 35.0470751659207  C 35.6568914956012 31.3451149868807  33.4090909090909 28.1223954313937  30.1297653958944 26.2887791325822  C 31.5230938416422 24.9066213921901  32.3698680351906 23.0660595770952  32.3698680351906 21.0449143386325  C 32.3698680351906 16.7456397592221  28.5285923753666 13.2659361012502  23.7943548387097 13.2659361012502  C 19.0601173020528 13.2659361012502  15.2188416422287 16.7456397592221  15.2188416422287 21.0449143386325  C 15.2188416422287 23.0660595770952  16.0656158357771 24.8996758759068  17.4589442815249 26.2887791325822  C 14.1719208211144 28.1293409476771  11.9318181818182 31.3451149868807  11.7162756598241 35.0470751659207  Z M 19.8068181818182 21.0449143386325  C 19.8068181818182 19.0515511653033  21.5927419354839 17.4332458712764  23.7866568914956 17.4332458712764  C 25.9805718475073 17.4332458712764  27.766495601173 19.0515511653033  27.766495601173 21.0449143386325  C 27.766495601173 23.0382775119617  25.9805718475073 24.6565828059886  23.7866568914956 24.6565828059886  C 21.5927419354839 24.6565828059886  19.8068181818182 23.0382775119617  19.8068181818182 21.0449143386325  Z " fill-rule="nonzero" fill="#333333" stroke="none" transform="matrix(1 0 0 1 465 251 )" />
  </g>
</svg>