﻿<?xml version="1.0" encoding="utf-8"?>
<svg version="1.1" xmlns:xlink="http://www.w3.org/1999/xlink" width="44px" height="45px" xmlns="http://www.w3.org/2000/svg">
  <g transform="matrix(1 0 0 1 -731 -9 )">
    <path d="M 753 9  C 765.32 9  775 18.9  775 31.5  C 775 44.1  765.32 54  753 54  C 740.68 54  731 44.1  731 31.5  C 731 18.9  740.68 9  753 9  Z " fill-rule="nonzero" fill="#aaaaaa" stroke="none" fill-opacity="0.423529411764706" />
    <path d="M 753 9.5  C 765.04 9.5  774.5 19.18  774.5 31.5  C 774.5 43.82  765.04 53.5  753 53.5  C 740.96 53.5  731.5 43.82  731.5 31.5  C 731.5 19.18  740.96 9.5  753 9.5  Z " stroke-width="1" stroke="#797979" fill="none" />
  </g>
</svg>