﻿<?xml version="1.0" encoding="utf-8"?>
<svg version="1.1" xmlns:xlink="http://www.w3.org/1999/xlink" width="51px" height="50px" xmlns="http://www.w3.org/2000/svg">
  <g transform="matrix(1 0 0 1 -422 -249 )">
    <path d="M 50 13.8002232142857  C 50.6165413533835 13.3258928571429  50.3720864661654 12.8683035714286  49.9406954887218 12.5334821428571  L 34.4681390977444 0.524553571428569  C 34.0367481203008 0.189732142857143  33.4543703007519 0  32.8432330827068 0  L 2.30075187969925 0  C 1.0281484962406 0  0 0.797991071428572  0 1.78571428571429  L 0 48.2142857142857  C 0 49.2020089285714  1.0281484962406 50  2.30075187969925 50  L 48.3157894736842 50  C 49.5883928571429 50  50.6165413533835 49.2020089285714  50 48.2142857142857  L 50 13.8002232142857  Z M 31 4.11830357142857  L 45.3104323308271 15  L 31 15  L 31 4.11830357142857  Z M 45 19  L 45 46  L 6 46  L 6 4  L 26 4  L 26 16.0714285714286  C 26.890037593985 17.3660714285714  28.2417293233083 18.4151785714286  29.9097744360902 19  L 45 19  Z M 25.3082706766917 31.3616071428571  C 25.3082706766917 31.1160714285714  25.0494360902256 30.9151785714286  24.7330827067669 31  L 11.5037593984962 31  C 11.1874060150376 30.9151785714286  10.9285714285714 31.1160714285714  10.9285714285714 31.3616071428571  L 10.9285714285714 34.0401785714286  C 10.9285714285714 34.2857142857143  11.1874060150376 34.4866071428571  11.5037593984962 34  L 24.7330827067669 34  C 25.0494360902256 34.4866071428571  25.3082706766917 34.2857142857143  25.3082706766917 34.0401785714286  L 25.3082706766917 31.3616071428571  Z M 11.5037593984962 24  C 11.1874060150376 23.3258928571429  10.9285714285714 23.5267857142857  10.9285714285714 23.7723214285714  L 10.9285714285714 26.4508928571429  C 10.9285714285714 26.6964285714286  11.1874060150376 26.8973214285714  11.5037593984962 26  L 39.1127819548872 26  C 39.4291353383459 26.8973214285714  39.6879699248121 26.6964285714286  39.6879699248121 26.4508928571429  L 39.6879699248121 23.7723214285714  C 39.6879699248121 23.5267857142857  39.4291353383459 23.3258928571429  39.1127819548872 24  L 11.5037593984962 24  Z " fill-rule="nonzero" fill="#333333" stroke="none" transform="matrix(1 0 0 1 422 249 )" />
  </g>
</svg>