﻿<?xml version="1.0" encoding="utf-8"?>
<svg version="1.1" xmlns:xlink="http://www.w3.org/1999/xlink" width="50px" height="50px" xmlns="http://www.w3.org/2000/svg">
  <g transform="matrix(1 0 0 1 -160 -249 )">
    <path d="M 49 13.8002232142857  C 49.6240601503759 13.3258928571429  49.3843984962406 12.8738839285714  48.9614661654135 12.5390625  L 33.7922932330827 0.524553571428569  C 33.3693609022557 0.189732142857143  32.7913533834587 0  32.1921992481203 0  L 2.25563909774436 0  C 1.00798872180451 0  0 0.797991071428572  0 1.78571428571429  L 0 48.2142857142857  C 0 49.2020089285714  1.00798872180451 50  2.25563909774436 50  L 47.3684210526316 50  C 48.6160714285715 50  49.6240601503759 49.2020089285714  49 48.2142857142857  L 49 13.8002232142857  Z M 31 4.11830357142857  L 44.421992481203 15  L 31 15  L 31 4.11830357142857  Z M 44 19  L 44 46  L 5 46  L 5 4  L 26 4  L 26 16.0714285714286  C 26.3627819548872 17.3660714285714  27.687969924812 18.4151785714286  29.3233082706767 19  L 44 19  Z M 24.9177631578947 21.3169642857143  C 20.5897556390977 21.2779017857143  17.0582706766917 23.8616071428571  17.0582706766917 27.0647321428571  C 17.0582706766917 27.3660714285714  17.3684210526316 27.5948660714286  17.7490601503759 27.5948660714286  L 20.0328947368421 27.5948660714286  C 20.4135338345865 27.5948660714286  20.7236842105263 27.3604910714286  20.7236842105263 27.0703125  C 20.7236842105263 25.4966517857143  22.5422932330827 24.1908482142857  24.812030075188 24.1908482142857  C 27.0817669172932 24.1908482142857  28.9003759398496 25.4966517857143  28.9003759398496 27.0647321428571  C 28.9003759398496 28.4765625  27.4201127819549 29.6986607142857  25.4252819548872 29.9051339285714  C 24.0648496240602 30.0613839285714  22.9934210526316 31.0379464285714  22.9793233082707 32.1428571428571  L 22.9793233082707 33.9285714285714  C 22.9793233082707 34.2354910714286  23.296522556391 34.4866071428571  23.6842105263158 34.4866071428571  L 25.9398496240602 34.4866071428571  C 26.327537593985 34.4866071428571  26.6447368421053 34.2354910714286  26.6447368421053 33.9285714285714  L 26.6447368421053 33.2477678571429  C 26.6447368421053 32.9129464285714  26.9266917293233 32.6060267857143  27.328477443609 32.5055803571429  C 30.4722744360902 31.7020089285714  32.6151315789474 29.4921875  32.5657894736842 26.9866071428571  C 32.5093984962406 23.8895089285714  29.0977443609023 21.3616071428571  24.9177631578947 21.3169642857143  Z M 22.5563909774436 37.9464285714286  C 22.5563909774436 38.9326513389836  23.5662750003817 39.7321428571429  24.812030075188 39.7321428571429  C 26.0577851499943 39.7321428571429  27.0676691729323 38.9326513389836  27.0676691729323 37.9464285714286  C 27.0676691729323 36.9602058038736  26.0577851499943 36.1607142857143  24.812030075188 36.1607142857143  C 23.5662750003817 36.1607142857143  22.5563909774436 36.9602058038736  22.5563909774436 37.9464285714286  Z " fill-rule="nonzero" fill="#333333" stroke="none" transform="matrix(1 0 0 1 160 249 )" />
  </g>
</svg>