﻿<?xml version="1.0" encoding="utf-8"?>
<svg version="1.1" xmlns:xlink="http://www.w3.org/1999/xlink" width="70px" height="50px" xmlns="http://www.w3.org/2000/svg">
  <g transform="matrix(1 0 0 1 -40 -249 )">
    <path d="M 69.391304347826 49.3624999999999  C 69.2999999999999 46.375  68.3960869565216 43.46875  66.6978260869564 40.725  C 64.9721739130433 37.9249999999999  62.4886956521737 35.4125000000001  59.3386956521738 33.2562499999999  C 56.1886956521739 31.1  52.5182608695651 29.40625  48.4278260869563 28.2187499999999  C 48.391304347826 28.20625  48.3547826086954 28.2000000000001  48.3182608695651 28.1874999999999  C 54.0065217391304 25.3749999999999  57.7043478260867 20.79375  57.7043478260867 15.625  C 57.7043478260867 7.06249999999997  47.5695652173913 0.124999999999886  35.0608695652173 0.124999999999886  C 22.5521739130434 0.124999999999886  12.417391304348 7.06249999999997  12.417391304348 15.625  C 12.417391304348 20.79375  16.1152173913042 25.3749999999999  21.8034782608695 28.19375  C 21.7669565217393 28.20625  21.7304347826087 28.2125000000001  21.6939130434784 28.225  C 17.6034782608695 29.40625  13.9330434782608 31.1  10.7830434782609 33.2625  C 7.63304347826099 35.4187499999999  5.15869565217406 37.93125  3.42391304347826 40.7312500000001  C 1.72565217391307 43.46875  0.821739130434727 46.375  0.730434782608723 49.3624999999999  C 0.721304347825985 49.6437499999999  1.05000000000008 49.8750000000001  1.46086956521745 49.8750000000001  L 6.93913043478253 49.8750000000001  C 7.3408695652175 49.8750000000001  7.66043478260886 49.6562500000001  7.66956521739125 49.3875  C 7.8521739130436 44.5625  10.6826086956521 40.04375  15.6860869565217 36.61875  C 20.8630434782609 33.0749999999999  27.7382608695653 31.1250000000001  35.0608695652173 31.1250000000001  C 42.3834782608694 31.1250000000001  49.2586956521737 33.0749999999999  54.4356521739129 36.61875  C 59.4391304347825 40.04375  62.2695652173911 44.5625  62.4521739130434 49.3875  C 62.4613043478258 49.6624999999999  62.7808695652172 49.8750000000001  63.1826086956521 49.8750000000001  L 68.6608695652172 49.8750000000001  C 69.0717391304346 49.8750000000001  69.4004347826087 49.6437499999999  69.391304347826 49.3624999999999  Z M 46.1634782608696 23.2250000000001  C 43.1960869565217 25.2562500000001  39.2517391304346 26.3749999999999  35.0608695652173 26.3749999999999  C 30.8700000000001 26.3749999999999  26.925652173913 25.2562500000001  23.9582608695651 23.2250000000001  C 20.9908695652172 21.19375  19.3565217391305 18.4937499999999  19.3565217391305 15.625  C 19.3565217391305 12.7562500000001  20.9908695652172 10.05625  23.9582608695651 8.02499999999995  C 26.925652173913 5.9937499999999  30.8700000000001 4.87500000000007  35.0608695652173 4.87500000000007  C 39.2517391304346 4.87500000000007  43.1960869565217 5.9937499999999  46.1634782608696 8.02499999999995  C 49.1308695652175 10.05625  50.7652173913042 12.7562500000001  50.7652173913042 15.625  C 50.7652173913042 18.4937499999999  49.1308695652175 21.19375  46.1634782608696 23.2250000000001  Z " fill-rule="nonzero" fill="#333333" stroke="none" transform="matrix(1 0 0 1 40 249 )" />
  </g>
</svg>