﻿<?xml version="1.0" encoding="utf-8"?>
<svg version="1.1" xmlns:xlink="http://www.w3.org/1999/xlink" width="22px" height="17px" xmlns="http://www.w3.org/2000/svg">
  <g transform="matrix(1 0 0 1 -322 -415 )">
    <path d="M 21.5097084367246 0.490838675213677  C 21.6169561621175 0.357685630341882  21.5201716294458 0.156650641025644  21.3449131513648 0.156650641025641  L 19.5164702233251 0.156650641025641  C 19.2601220016543 0.156650641025641  19.016852770885 0.274138621794874  18.8599048800662 0.475173611111109  L 8.07496898263027 14.1116119123932  L 2.90353598014888 7.57144764957265  C 2.74397229114971 7.37041266025641  2.50331885856079 7.25292467948718  2.24697063688999 7.25292467948718  L 0.418527708850288 7.25292467948718  C 0.243269230769228 7.25292467948718  0.146484698097603 7.45395966880342  0.253732423490487 7.58972355769231  L 7.41840363937138 16.6493522970085  C 7.75322580645161 17.0723090277778  8.39671215880893 17.0723090277778  8.73415012406948 16.6493522970085  L 21.5097084367246 0.490838675213677  Z " fill-rule="nonzero" fill="#007ce4" stroke="none" transform="matrix(1 0 0 1 322 415 )" />
  </g>
</svg>