﻿<?xml version="1.0" encoding="utf-8"?>
<svg version="1.1" xmlns:xlink="http://www.w3.org/1999/xlink" width="447px" height="10px" preserveAspectRatio="xMinYMid meet" viewBox="423 229  447 8" xmlns="http://www.w3.org/2000/svg">
  <path d="M 423 233.5  L 860 233.5  A 5 5 0 0 1 865.5 238.5 L 865.5 379  A 5 5 0 0 1 860.5 384.5 L 778 384.5  " stroke-width="1" stroke="#797979" fill="none" />
  <path d="M 779 378.2  L 773 384.5  L 779 390.8  L 779 378.2  Z " fill-rule="nonzero" fill="#797979" stroke="none" />
</svg>