﻿<?xml version="1.0" encoding="utf-8"?>
<svg version="1.1" xmlns:xlink="http://www.w3.org/1999/xlink" width="10px" height="10px" xmlns="http://www.w3.org/2000/svg">
  <g transform="matrix(1 0 0 1 -207 -314 )">
    <path d="M 6.61783854166667 1.16536458333333  C 6.103515625 0.944010416666666  5.56423611111111 0.833333333333334  5 0.833333333333334  C 4.43576388888889 0.833333333333334  3.896484375 0.944010416666666  3.38216145833333 1.16536458333333  C 2.86783854166667 1.38671875  2.42513020833333 1.68294270833333  2.05403645833333 2.05403645833333  C 1.68294270833333 2.42513020833333  1.38671875 2.86783854166667  1.16536458333333 3.38216145833333  C 0.944010416666667 3.896484375  0.833333333333333 4.43576388888889  0.833333333333333 5  C 0.833333333333333 5.56423611111111  0.944010416666667 6.103515625  1.16536458333333 6.61783854166667  C 1.38671875 7.13216145833333  1.68294270833333 7.57486979166667  2.05403645833333 7.94596354166667  C 2.42513020833333 8.31705729166667  2.86783854166667 8.61328125  3.38216145833333 8.83463541666667  C 3.896484375 9.05598958333333  4.43576388888889 9.16666666666667  5 9.16666666666667  C 5.56423611111111 9.16666666666667  6.103515625 9.05598958333333  6.61783854166667 8.83463541666667  C 7.13216145833333 8.61328125  7.57486979166667 8.31705729166667  7.94596354166667 7.94596354166667  C 8.31705729166667 7.57486979166667  8.61328125 7.13216145833333  8.83463541666667 6.61783854166667  C 9.05598958333333 6.103515625  9.16666666666667 5.56423611111111  9.16666666666667 5  C 9.16666666666667 4.43576388888889  9.05598958333333 3.896484375  8.83463541666667 3.38216145833333  C 8.61328125 2.86783854166667  8.31705729166667 2.42513020833333  7.94596354166667 2.05403645833333  C 7.57486979166667 1.68294270833333  7.13216145833333 1.38671875  6.61783854166667 1.16536458333333  Z M 9.32942708333333 2.490234375  C 9.77647569444444 3.25629340277778  10 4.09288194444444  10 5  C 10 5.90711805555556  9.77647569444444 6.74370659722222  9.32942708333333 7.509765625  C 8.88237847222222 8.27582465277778  8.27582465277778 8.88237847222222  7.509765625 9.32942708333333  C 6.74370659722222 9.77647569444444  5.90711805555556 10  5 10  C 4.09288194444444 10  3.25629340277778 9.77647569444444  2.490234375 9.32942708333333  C 1.72417534722222 8.88237847222222  1.11762152777778 8.27582465277778  0.670572916666667 7.509765625  C 0.223524305555556 6.74370659722222  0 5.90711805555556  0 5  C 0 4.09288194444444  0.223524305555556 3.25629340277778  0.670572916666667 2.490234375  C 1.11762152777778 1.72417534722222  1.72417534722222 1.11762152777778  2.490234375 0.670572916666666  C 3.25629340277778 0.223524305555555  4.09288194444444 0  5 0  C 5.90711805555556 0  6.74370659722222 0.223524305555555  7.509765625 0.670572916666666  C 8.27582465277778 1.11762152777778  8.88237847222222 1.72417534722222  9.32942708333333 2.490234375  Z " fill-rule="nonzero" fill="#000000" stroke="none" transform="matrix(1 0 0 1 207 314 )" />
  </g>
</svg>