﻿<?xml version="1.0" encoding="utf-8"?>
<svg version="1.1" xmlns:xlink="http://www.w3.org/1999/xlink" width="98px" height="136px" xmlns="http://www.w3.org/2000/svg">
  <g transform="matrix(1 0 0 1 -343 -159 )">
    <path d="M 77.7109375 86.5178571428571  C 78.1703125 89.25  78.4 92.235119047619  78.4 95.4732142857143  C 78.4 98.7113095238095  77.4557291666667 101.418154761905  75.5671875 103.59375  C 73.6786458333333 105.769345238095  71.35625 106.857142857143  68.6 106  L 29.4 106  C 26.64375 106.857142857143  24.3213541666667 105.769345238095  22.4328125 103.59375  C 20.5442708333333 101.418154761905  19.6 98.7113095238095  19.6 95.4732142857143  C 19.6 92.235119047619  19.8296875 89.25  20.2890625 86.5178571428571  C 20.7484375 83.7857142857143  21.5013020833333 81.1547619047619  22.54765625 78.625  C 23.5940104166667 76.0952380952381  25.15078125 74.109375  27.21796875 72.6674107142857  C 29.28515625 71.2254464285714  31.7479166666667 70.5044642857143  34.60625 70.5044642857143  C 38.6895833333333 74.2991071428571  43.4875 76.1964285714286  49 76.1964285714286  C 54.5125 76.1964285714286  59.3104166666667 74.2991071428571  63.39375 70.5044642857143  C 66.2520833333333 70.5044642857143  68.71484375 71.2254464285714  70.78203125 72.6674107142857  C 72.84921875 74.109375  74.4059895833333 76.0952380952381  75.45234375 78.625  C 76.4986979166667 81.1547619047619  77.2515625 83.7857142857143  77.7109375 86.5178571428571  Z M 61.44140625 43.9040178571429  C 64.88671875 47.2686011904762  66.609375 51.3288690476191  66.609375 56.0848214285714  C 66.609375 60.8407738095238  64.88671875 64.9010416666667  61.44140625 68.265625  C 57.99609375 71.6302083333333  53.8489583333333 73.3125  49 73.3125  C 44.1510416666667 73.3125  40.00390625 71.6302083333333  36.55859375 68.265625  C 33.11328125 64.9010416666667  31.390625 60.8407738095238  31.390625 56.0848214285714  C 31.390625 51.3288690476191  33.11328125 47.2686011904762  36.55859375 43.9040178571429  C 40.00390625 40.5394345238095  44.1510416666667 38.8571428571429  49 38.8571428571429  C 53.8489583333333 38.8571428571429  57.99609375 40.5394345238095  61.44140625 43.9040178571429  Z M 87.47265625 125.564732142857  C 87.9575520833334 125.084077380952  88.2 124.514880952381  88 123.857142857143  L 88 20  L 10 20  L 10 123.857142857143  C 9.8 124.514880952381  10.0424479166667 125.084077380952  10.52734375 125.564732142857  C 11.0122395833333 126.045386904762  11.5864583333333 126.285714285714  12.25 126  L 85.75 126  C 86.4135416666667 126.285714285714  86.9877604166667 126.045386904762  87.47265625 125.564732142857  Z M 94.4015625 3.56696428571429  C 96.8005208333334 5.94494047619047  98 8.80357142857143  98 12.1428571428571  L 98 123.857142857143  C 98 127.196428571429  96.8005208333334 130.05505952381  94.4015625 132.433035714286  C 92.0026041666667 134.811011904762  89.11875 136  85.75 136  L 12.25 136  C 8.88125 136  5.99739583333333 134.811011904762  3.5984375 132.433035714286  C 1.19947916666667 130.05505952381  0 127.196428571429  0 123.857142857143  L 0 12.1428571428571  C 0 8.80357142857143  1.19947916666667 5.94494047619047  3.5984375 3.56696428571429  C 5.99739583333333 1.1889880952381  8.88125 0  12.25 0  L 39.2 0  L 39.2 7.28571428571429  C 39.2 7.99404761904761  39.4296875 8.57589285714285  39.8890625 9.03125  C 40.3484375 9.48660714285715  40.9354166666667 9.71428571428571  41.65 10  L 56.35 10  C 57.0645833333333 9.71428571428571  57.6515625 9.48660714285715  58.1109375 9.03125  C 58.5703125 8.57589285714285  58.8 7.99404761904761  58.8 7.28571428571429  L 58.8 0  L 85.75 0  C 89.11875 0  92.0026041666667 1.1889880952381  94.4015625 3.56696428571429  Z " fill-rule="nonzero" fill="#868383" stroke="none" transform="matrix(1 0 0 1 343 159 )" />
  </g>
</svg>