﻿<?xml version="1.0" encoding="utf-8"?>
<svg version="1.1" xmlns:xlink="http://www.w3.org/1999/xlink" width="42px" height="42px" xmlns="http://www.w3.org/2000/svg">
  <g transform="matrix(1 0 0 1 -323 -271 )">
    <path d="M 40.5008365867262 0  C 40.8131622978249 0  41.0942554378137 0.0859375000000038  41.3441160066927 0.257812500000002  C 41.8594534300056 0.632812500000001  42.0702732849972 1.1328125  41.9765755716676 1.7578125  L 35.9799219185722 37.7578125  C 35.9018404907975 38.2109375  35.6519799219186 38.5625  35.2303402119353 38.8125  C 35.0117122141662 38.9375  34.7696597880647 39  34.5041829336308 39  C 34.3324037925265 39  34.1450083658673 38.9609375  33.9419966536531 38.8828125  L 23.3307306190742 34.546875  L 17.6620189626325 41.4609375  C 17.3809258226436 41.8203125  16.9983268265477 42  16.5142219743447 42  C 16.3112102621305 42  16.1394311210262 41.96875  15.9988845510318 41.90625  C 15.702175125488 41.796875  15.4640267707752 41.61328125  15.2844394868935 41.35546875  C 15.1048522030117 41.09765625  15.0150585610708 40.8125  15.0150585610708 40.5  L 15.0150585610708 32.3203125  L 35.2537646402677 7.5  L 10.2130507529281 29.1796875  L 0.960401561628556 25.3828125  C 0.382598996095929 25.1640625  0.0702732849972114 24.734375  0.0234244283324038 24.09375  C -0.00780814277746793 23.46875  0.242052426101506 23.0078125  0.773006134969325 22.7109375  L 39.7512548800892 0.210937499999999  C 39.9854991634133 0.070312499999998  40.2353597322923 0  40.5008365867262 0  Z " fill-rule="nonzero" fill="#7f7b7b" stroke="none" transform="matrix(1 0 0 1 323 271 )" />
  </g>
</svg>