﻿<?xml version="1.0" encoding="utf-8"?>
<svg version="1.1" xmlns:xlink="http://www.w3.org/1999/xlink" width="92px" height="19px" xmlns="http://www.w3.org/2000/svg">
  <defs>
    <mask fill="white" id="clip10">
      <path d="M 0 19  L 0 0  L 60.375 0  L 92 0  L 92 19  L 55.9427083333334 19  L 37.9739583333334 19  L 0 19  Z " fill-rule="evenodd" />
    </mask>
  </defs>
  <g transform="matrix(1 0 0 1 -428 -1905 )">
    <path d="M 0 19  L 0 0  L 60.375 0  L 92 0  L 92 19  L 55.9427083333334 19  L 37.9739583333334 19  L 0 19  Z " fill-rule="nonzero" fill="#f7f7f7" stroke="none" transform="matrix(1 0 0 1 428 1905 )" />
    <path d="M 0 19  L 0 0  L 60.375 0  L 92 0  L 92 19  L 55.9427083333334 19  L 37.9739583333334 19  L 0 19  Z " stroke-width="2" stroke="#7f7f7f" fill="none" transform="matrix(1 0 0 1 428 1905 )" mask="url(#clip10)" />
  </g>
</svg>