﻿<?xml version="1.0" encoding="utf-8"?>
<svg version="1.1" xmlns:xlink="http://www.w3.org/1999/xlink" width="12px" height="12px" viewBox="657 992  12 12" xmlns="http://www.w3.org/2000/svg">
  <path d="M 663 992  C 666.36 992  669 994.64  669 998  C 669 1001.36  666.36 1004  663 1004  C 659.64 1004  657 1001.36  657 998  C 657 994.64  659.64 992  663 992  Z " fill-rule="nonzero" fill="#f0f0f0" stroke="none" />
  <path d="M 663 992.5  C 666.08 992.5  668.5 994.92  668.5 998  C 668.5 1001.08  666.08 1003.5  663 1003.5  C 659.92 1003.5  657.5 1001.08  657.5 998  C 657.5 994.92  659.92 992.5  663 992.5  Z " stroke-width="1" stroke="#797979" fill="none" />
</svg>