﻿<?xml version="1.0" encoding="utf-8"?>
<svg version="1.1" xmlns:xlink="http://www.w3.org/1999/xlink" width="12px" height="12px" viewBox="657 2296  12 12" xmlns="http://www.w3.org/2000/svg">
  <path d="M 663 2296  C 666.36 2296  669 2298.64  669 2302  C 669 2305.36  666.36 2308  663 2308  C 659.64 2308  657 2305.36  657 2302  C 657 2298.64  659.64 2296  663 2296  Z " fill-rule="nonzero" fill="#ffffff" stroke="none" />
  <path d="M 663 2296.5  C 666.08 2296.5  668.5 2298.92  668.5 2302  C 668.5 2305.08  666.08 2307.5  663 2307.5  C 659.92 2307.5  657.5 2305.08  657.5 2302  C 657.5 2298.92  659.92 2296.5  663 2296.5  Z " stroke-width="1" stroke="#797979" fill="none" />
</svg>