﻿<?xml version="1.0" encoding="utf-8"?>
<svg version="1.1" xmlns:xlink="http://www.w3.org/1999/xlink" width="12px" height="12px" viewBox="657 2266  12 12" xmlns="http://www.w3.org/2000/svg">
  <path d="M 663 2266  C 666.36 2266  669 2268.64  669 2272  C 669 2275.36  666.36 2278  663 2278  C 659.64 2278  657 2275.36  657 2272  C 657 2268.64  659.64 2266  663 2266  Z " fill-rule="nonzero" fill="#ffffff" stroke="none" />
  <path d="M 663 2266.5  C 666.08 2266.5  668.5 2268.92  668.5 2272  C 668.5 2275.08  666.08 2277.5  663 2277.5  C 659.92 2277.5  657.5 2275.08  657.5 2272  C 657.5 2268.92  659.92 2266.5  663 2266.5  Z " stroke-width="1" stroke="#797979" fill="none" />
</svg>