﻿<?xml version="1.0" encoding="utf-8"?>
<svg version="1.1" xmlns:xlink="http://www.w3.org/1999/xlink" width="12px" height="12px" viewBox="657 1766  12 12" xmlns="http://www.w3.org/2000/svg">
  <path d="M 663 1766  C 666.36 1766  669 1768.64  669 1772  C 669 1775.36  666.36 1778  663 1778  C 659.64 1778  657 1775.36  657 1772  C 657 1768.64  659.64 1766  663 1766  Z " fill-rule="nonzero" fill="#ffffff" stroke="none" />
  <path d="M 663 1766.5  C 666.08 1766.5  668.5 1768.92  668.5 1772  C 668.5 1775.08  666.08 1777.5  663 1777.5  C 659.92 1777.5  657.5 1775.08  657.5 1772  C 657.5 1768.92  659.92 1766.5  663 1766.5  Z " stroke-width="1" stroke="#797979" fill="none" />
</svg>