﻿<?xml version="1.0" encoding="utf-8"?>
<svg version="1.1" xmlns:xlink="http://www.w3.org/1999/xlink" width="12px" height="12px" viewBox="657 1541  12 12" xmlns="http://www.w3.org/2000/svg">
  <path d="M 663 1541  C 666.36 1541  669 1543.64  669 1547  C 669 1550.36  666.36 1553  663 1553  C 659.64 1553  657 1550.36  657 1547  C 657 1543.64  659.64 1541  663 1541  Z " fill-rule="nonzero" fill="#ffffff" stroke="none" />
  <path d="M 663 1541.5  C 666.08 1541.5  668.5 1543.92  668.5 1547  C 668.5 1550.08  666.08 1552.5  663 1552.5  C 659.92 1552.5  657.5 1550.08  657.5 1547  C 657.5 1543.92  659.92 1541.5  663 1541.5  Z " stroke-width="1" stroke="#797979" fill="none" />
  <path d="M 663 1550  C 661.32 1550  660 1548.68  660 1547  C 660 1545.32  661.32 1544  663 1544  C 664.68 1544  666 1545.32  666 1547  C 666 1548.68  664.68 1550  663 1550  " fill-rule="nonzero" fill="#797979" stroke="none" />
</svg>