﻿<?xml version="1.0" encoding="utf-8"?>
<svg version="1.1" xmlns:xlink="http://www.w3.org/1999/xlink" width="12px" height="12px" viewBox="664 2252  12 12" xmlns="http://www.w3.org/2000/svg">
  <path d="M 670 2252  C 673.36 2252  676 2254.64  676 2258  C 676 2261.36  673.36 2264  670 2264  C 666.64 2264  664 2261.36  664 2258  C 664 2254.64  666.64 2252  670 2252  Z " fill-rule="nonzero" fill="#f0f0f0" stroke="none" />
  <path d="M 670 2252.5  C 673.08 2252.5  675.5 2254.92  675.5 2258  C 675.5 2261.08  673.08 2263.5  670 2263.5  C 666.92 2263.5  664.5 2261.08  664.5 2258  C 664.5 2254.92  666.92 2252.5  670 2252.5  Z " stroke-width="1" stroke="#797979" fill="none" />
</svg>