﻿<?xml version="1.0" encoding="utf-8"?>
<svg version="1.1" xmlns:xlink="http://www.w3.org/1999/xlink" width="12px" height="12px" viewBox="657 1511  12 12" xmlns="http://www.w3.org/2000/svg">
  <path d="M 663 1511  C 666.36 1511  669 1513.64  669 1517  C 669 1520.36  666.36 1523  663 1523  C 659.64 1523  657 1520.36  657 1517  C 657 1513.64  659.64 1511  663 1511  Z " fill-rule="nonzero" fill="#f0f0f0" stroke="none" />
  <path d="M 663 1511.5  C 666.08 1511.5  668.5 1513.92  668.5 1517  C 668.5 1520.08  666.08 1522.5  663 1522.5  C 659.92 1522.5  657.5 1520.08  657.5 1517  C 657.5 1513.92  659.92 1511.5  663 1511.5  Z " stroke-width="1" stroke="#797979" fill="none" />
</svg>