﻿<?xml version="1.0" encoding="utf-8"?>
<svg version="1.1" xmlns:xlink="http://www.w3.org/1999/xlink" width="12px" height="12px" viewBox="657 2951  12 12" xmlns="http://www.w3.org/2000/svg">
  <path d="M 663 2951  C 666.36 2951  669 2953.64  669 2957  C 669 2960.36  666.36 2963  663 2963  C 659.64 2963  657 2960.36  657 2957  C 657 2953.64  659.64 2951  663 2951  Z " fill-rule="nonzero" fill="#ffffff" stroke="none" />
  <path d="M 663 2951.5  C 666.08 2951.5  668.5 2953.92  668.5 2957  C 668.5 2960.08  666.08 2962.5  663 2962.5  C 659.92 2962.5  657.5 2960.08  657.5 2957  C 657.5 2953.92  659.92 2951.5  663 2951.5  Z " stroke-width="1" stroke="#797979" fill="none" />
</svg>