﻿<?xml version="1.0" encoding="utf-8"?>
<svg version="1.1" xmlns:xlink="http://www.w3.org/1999/xlink" width="12px" height="12px" viewBox="657 2607  12 12" xmlns="http://www.w3.org/2000/svg">
  <path d="M 663 2607  C 666.36 2607  669 2609.64  669 2613  C 669 2616.36  666.36 2619  663 2619  C 659.64 2619  657 2616.36  657 2613  C 657 2609.64  659.64 2607  663 2607  Z " fill-rule="nonzero" fill="#f0f0f0" stroke="none" />
  <path d="M 663 2607.5  C 666.08 2607.5  668.5 2609.92  668.5 2613  C 668.5 2616.08  666.08 2618.5  663 2618.5  C 659.92 2618.5  657.5 2616.08  657.5 2613  C 657.5 2609.92  659.92 2607.5  663 2607.5  Z " stroke-width="1" stroke="#797979" fill="none" />
</svg>