﻿<?xml version="1.0" encoding="utf-8"?>
<svg version="1.1" xmlns:xlink="http://www.w3.org/1999/xlink" width="12px" height="12px" viewBox="657 2921  12 12" xmlns="http://www.w3.org/2000/svg">
  <path d="M 663 2921  C 666.36 2921  669 2923.64  669 2927  C 669 2930.36  666.36 2933  663 2933  C 659.64 2933  657 2930.36  657 2927  C 657 2923.64  659.64 2921  663 2921  Z " fill-rule="nonzero" fill="#ffffff" stroke="none" />
  <path d="M 663 2921.5  C 666.08 2921.5  668.5 2923.92  668.5 2927  C 668.5 2930.08  666.08 2932.5  663 2932.5  C 659.92 2932.5  657.5 2930.08  657.5 2927  C 657.5 2923.92  659.92 2921.5  663 2921.5  Z " stroke-width="1" stroke="#797979" fill="none" />
  <path d="M 663 2930  C 661.32 2930  660 2928.68  660 2927  C 660 2925.32  661.32 2924  663 2924  C 664.68 2924  666 2925.32  666 2927  C 666 2928.68  664.68 2930  663 2930  " fill-rule="nonzero" fill="#797979" stroke="none" />
</svg>