﻿<?xml version="1.0" encoding="utf-8"?>
<svg version="1.1" xmlns:xlink="http://www.w3.org/1999/xlink" width="12px" height="12px" viewBox="664 2222  12 12" xmlns="http://www.w3.org/2000/svg">
  <path d="M 670 2222  C 673.36 2222  676 2224.64  676 2228  C 676 2231.36  673.36 2234  670 2234  C 666.64 2234  664 2231.36  664 2228  C 664 2224.64  666.64 2222  670 2222  Z " fill-rule="nonzero" fill="#f0f0f0" stroke="none" />
  <path d="M 670 2222.5  C 673.08 2222.5  675.5 2224.92  675.5 2228  C 675.5 2231.08  673.08 2233.5  670 2233.5  C 666.92 2233.5  664.5 2231.08  664.5 2228  C 664.5 2224.92  666.92 2222.5  670 2222.5  Z " stroke-width="1" stroke="#797979" fill="none" />
</svg>