﻿<?xml version="1.0" encoding="utf-8"?>
<svg version="1.1" xmlns:xlink="http://www.w3.org/1999/xlink" width="12px" height="12px" viewBox="657 731  12 12" xmlns="http://www.w3.org/2000/svg">
  <path d="M 663 731  C 666.36 731  669 733.64  669 737  C 669 740.36  666.36 743  663 743  C 659.64 743  657 740.36  657 737  C 657 733.64  659.64 731  663 731  Z " fill-rule="nonzero" fill="#ffffff" stroke="none" />
  <path d="M 663 731.5  C 666.08 731.5  668.5 733.92  668.5 737  C 668.5 740.08  666.08 742.5  663 742.5  C 659.92 742.5  657.5 740.08  657.5 737  C 657.5 733.92  659.92 731.5  663 731.5  Z " stroke-width="1" stroke="#797979" fill="none" />
  <path d="M 663 740  C 661.32 740  660 738.68  660 737  C 660 735.32  661.32 734  663 734  C 664.68 734  666 735.32  666 737  C 666 738.68  664.68 740  663 740  " fill-rule="nonzero" fill="#797979" stroke="none" />
</svg>