﻿<?xml version="1.0" encoding="utf-8"?>
<svg version="1.1" xmlns:xlink="http://www.w3.org/1999/xlink" width="12px" height="12px" viewBox="657 701  12 12" xmlns="http://www.w3.org/2000/svg">
  <path d="M 663 701  C 666.36 701  669 703.64  669 707  C 669 710.36  666.36 713  663 713  C 659.64 713  657 710.36  657 707  C 657 703.64  659.64 701  663 701  Z " fill-rule="nonzero" fill="#f0f0f0" stroke="none" />
  <path d="M 663 701.5  C 666.08 701.5  668.5 703.92  668.5 707  C 668.5 710.08  666.08 712.5  663 712.5  C 659.92 712.5  657.5 710.08  657.5 707  C 657.5 703.92  659.92 701.5  663 701.5  Z " stroke-width="1" stroke="#797979" fill="none" />
</svg>