﻿<?xml version="1.0" encoding="utf-8"?>
<svg version="1.1" xmlns:xlink="http://www.w3.org/1999/xlink" width="12px" height="12px" viewBox="657 2577  12 12" xmlns="http://www.w3.org/2000/svg">
  <path d="M 663 2577  C 666.36 2577  669 2579.64  669 2583  C 669 2586.36  666.36 2589  663 2589  C 659.64 2589  657 2586.36  657 2583  C 657 2579.64  659.64 2577  663 2577  Z " fill-rule="nonzero" fill="#f0f0f0" stroke="none" />
  <path d="M 663 2577.5  C 666.08 2577.5  668.5 2579.92  668.5 2583  C 668.5 2586.08  666.08 2588.5  663 2588.5  C 659.92 2588.5  657.5 2586.08  657.5 2583  C 657.5 2579.92  659.92 2577.5  663 2577.5  Z " stroke-width="1" stroke="#797979" fill="none" />
</svg>