﻿<?xml version="1.0" encoding="utf-8"?>
<svg version="1.1" xmlns:xlink="http://www.w3.org/1999/xlink" width="12px" height="12px" viewBox="189 243  12 12" xmlns="http://www.w3.org/2000/svg">
  <path d="M 195 243  C 198.36 243  201 245.64  201 249  C 201 252.36  198.36 255  195 255  C 191.64 255  189 252.36  189 249  C 189 245.64  191.64 243  195 243  Z " fill-rule="nonzero" fill="#ffffff" stroke="none" />
  <path d="M 195 243.5  C 198.08 243.5  200.5 245.92  200.5 249  C 200.5 252.08  198.08 254.5  195 254.5  C 191.92 254.5  189.5 252.08  189.5 249  C 189.5 245.92  191.92 243.5  195 243.5  Z " stroke-width="1" stroke="#797979" fill="none" />
</svg>