﻿<?xml version="1.0" encoding="utf-8"?>
<svg version="1.1" xmlns:xlink="http://www.w3.org/1999/xlink" width="12px" height="12px" viewBox="189 176  12 12" xmlns="http://www.w3.org/2000/svg">
  <path d="M 195 176  C 198.36 176  201 178.64  201 182  C 201 185.36  198.36 188  195 188  C 191.64 188  189 185.36  189 182  C 189 178.64  191.64 176  195 176  Z " fill-rule="nonzero" fill="#ffffff" stroke="none" />
  <path d="M 195 176.5  C 198.08 176.5  200.5 178.92  200.5 182  C 200.5 185.08  198.08 187.5  195 187.5  C 191.92 187.5  189.5 185.08  189.5 182  C 189.5 178.92  191.92 176.5  195 176.5  Z " stroke-width="1" stroke="#797979" fill="none" />
  <path d="M 195 185  C 193.32 185  192 183.68  192 182  C 192 180.32  193.32 179  195 179  C 196.68 179  198 180.32  198 182  C 198 183.68  196.68 185  195 185  " fill-rule="nonzero" fill="#797979" stroke="none" />
</svg>