﻿<?xml version="1.0" encoding="utf-8"?>
<svg version="1.1" xmlns:xlink="http://www.w3.org/1999/xlink" width="12px" height="12px" viewBox="185 344  12 12" xmlns="http://www.w3.org/2000/svg">
  <path d="M 191 344  C 194.36 344  197 346.64  197 350  C 197 353.36  194.36 356  191 356  C 187.64 356  185 353.36  185 350  C 185 346.64  187.64 344  191 344  Z " fill-rule="nonzero" fill="#ffffff" stroke="none" />
  <path d="M 191 344.5  C 194.08 344.5  196.5 346.92  196.5 350  C 196.5 353.08  194.08 355.5  191 355.5  C 187.92 355.5  185.5 353.08  185.5 350  C 185.5 346.92  187.92 344.5  191 344.5  Z " stroke-width="1" stroke="#797979" fill="none" />
</svg>