﻿<?xml version="1.0" encoding="utf-8"?>
<svg version="1.1" xmlns:xlink="http://www.w3.org/1999/xlink" width="12px" height="12px" viewBox="185 519  12 12" xmlns="http://www.w3.org/2000/svg">
  <path d="M 191 519  C 194.36 519  197 521.64  197 525  C 197 528.36  194.36 531  191 531  C 187.64 531  185 528.36  185 525  C 185 521.64  187.64 519  191 519  Z " fill-rule="nonzero" fill="#f0f0f0" stroke="none" />
  <path d="M 191 519.5  C 194.08 519.5  196.5 521.92  196.5 525  C 196.5 528.08  194.08 530.5  191 530.5  C 187.92 530.5  185.5 528.08  185.5 525  C 185.5 521.92  187.92 519.5  191 519.5  Z " stroke-width="1" stroke="#797979" fill="none" />
</svg>