﻿<?xml version="1.0" encoding="utf-8"?>
<svg version="1.1" xmlns:xlink="http://www.w3.org/1999/xlink" width="12px" height="12px" viewBox="185 372  12 12" xmlns="http://www.w3.org/2000/svg">
  <path d="M 191 372  C 194.36 372  197 374.64  197 378  C 197 381.36  194.36 384  191 384  C 187.64 384  185 381.36  185 378  C 185 374.64  187.64 372  191 372  Z " fill-rule="nonzero" fill="#ffffff" stroke="none" />
  <path d="M 191 372.5  C 194.08 372.5  196.5 374.92  196.5 378  C 196.5 381.08  194.08 383.5  191 383.5  C 187.92 383.5  185.5 381.08  185.5 378  C 185.5 374.92  187.92 372.5  191 372.5  Z " stroke-width="1" stroke="#797979" fill="none" />
</svg>