﻿<?xml version="1.0" encoding="utf-8"?>
<svg version="1.1" xmlns:xlink="http://www.w3.org/1999/xlink" width="12px" height="12px" viewBox="185 857  12 12" xmlns="http://www.w3.org/2000/svg">
  <path d="M 191 857  C 194.36 857  197 859.64  197 863  C 197 866.36  194.36 869  191 869  C 187.64 869  185 866.36  185 863  C 185 859.64  187.64 857  191 857  Z " fill-rule="nonzero" fill="#ffffff" stroke="none" />
  <path d="M 191 857.5  C 194.08 857.5  196.5 859.92  196.5 863  C 196.5 866.08  194.08 868.5  191 868.5  C 187.92 868.5  185.5 866.08  185.5 863  C 185.5 859.92  187.92 857.5  191 857.5  Z " stroke-width="1" stroke="#797979" fill="none" />
  <path d="M 191 866  C 189.32 866  188 864.68  188 863  C 188 861.32  189.32 860  191 860  C 192.68 860  194 861.32  194 863  C 194 864.68  192.68 866  191 866  " fill-rule="nonzero" fill="#797979" stroke="none" />
</svg>