﻿<?xml version="1.0" encoding="utf-8"?>
<svg version="1.1" xmlns:xlink="http://www.w3.org/1999/xlink" width="12px" height="12px" viewBox="185 728  12 12" xmlns="http://www.w3.org/2000/svg">
  <path d="M 191 728  C 194.36 728  197 730.64  197 734  C 197 737.36  194.36 740  191 740  C 187.64 740  185 737.36  185 734  C 185 730.64  187.64 728  191 728  Z " fill-rule="nonzero" fill="#f0f0f0" stroke="none" />
  <path d="M 191 728.5  C 194.08 728.5  196.5 730.92  196.5 734  C 196.5 737.08  194.08 739.5  191 739.5  C 187.92 739.5  185.5 737.08  185.5 734  C 185.5 730.92  187.92 728.5  191 728.5  Z " stroke-width="1" stroke="#797979" fill="none" />
</svg>