﻿<?xml version="1.0" encoding="utf-8"?>
<svg version="1.1" xmlns:xlink="http://www.w3.org/1999/xlink" width="12px" height="12px" viewBox="185 1167  12 12" xmlns="http://www.w3.org/2000/svg">
  <path d="M 191 1167  C 194.36 1167  197 1169.64  197 1173  C 197 1176.36  194.36 1179  191 1179  C 187.64 1179  185 1176.36  185 1173  C 185 1169.64  187.64 1167  191 1167  Z " fill-rule="nonzero" fill="#ffffff" stroke="none" />
  <path d="M 191 1167.5  C 194.08 1167.5  196.5 1169.92  196.5 1173  C 196.5 1176.08  194.08 1178.5  191 1178.5  C 187.92 1178.5  185.5 1176.08  185.5 1173  C 185.5 1169.92  187.92 1167.5  191 1167.5  Z " stroke-width="1" stroke="#797979" fill="none" />
  <path d="M 191 1176  C 189.32 1176  188 1174.68  188 1173  C 188 1171.32  189.32 1170  191 1170  C 192.68 1170  194 1171.32  194 1173  C 194 1174.68  192.68 1176  191 1176  " fill-rule="nonzero" fill="#797979" stroke="none" />
</svg>