﻿<?xml version="1.0" encoding="utf-8"?>
<svg version="1.1" xmlns:xlink="http://www.w3.org/1999/xlink" width="12px" height="12px" viewBox="185 1675  12 12" xmlns="http://www.w3.org/2000/svg">
  <path d="M 191 1675  C 194.36 1675  197 1677.64  197 1681  C 197 1684.36  194.36 1687  191 1687  C 187.64 1687  185 1684.36  185 1681  C 185 1677.64  187.64 1675  191 1675  Z " fill-rule="nonzero" fill="#ffffff" stroke="none" />
  <path d="M 191 1675.5  C 194.08 1675.5  196.5 1677.92  196.5 1681  C 196.5 1684.08  194.08 1686.5  191 1686.5  C 187.92 1686.5  185.5 1684.08  185.5 1681  C 185.5 1677.92  187.92 1675.5  191 1675.5  Z " stroke-width="1" stroke="#797979" fill="none" />
  <path d="M 191 1684  C 189.32 1684  188 1682.68  188 1681  C 188 1679.32  189.32 1678  191 1678  C 192.68 1678  194 1679.32  194 1681  C 194 1682.68  192.68 1684  191 1684  " fill-rule="nonzero" fill="#797979" stroke="none" />
</svg>