﻿<?xml version="1.0" encoding="utf-8"?>
<svg version="1.1" xmlns:xlink="http://www.w3.org/1999/xlink" width="12px" height="12px" viewBox="185 1090  12 12" xmlns="http://www.w3.org/2000/svg">
  <path d="M 191 1090  C 194.36 1090  197 1092.64  197 1096  C 197 1099.36  194.36 1102  191 1102  C 187.64 1102  185 1099.36  185 1096  C 185 1092.64  187.64 1090  191 1090  Z " fill-rule="nonzero" fill="#f0f0f0" stroke="none" />
  <path d="M 191 1090.5  C 194.08 1090.5  196.5 1092.92  196.5 1096  C 196.5 1099.08  194.08 1101.5  191 1101.5  C 187.92 1101.5  185.5 1099.08  185.5 1096  C 185.5 1092.92  187.92 1090.5  191 1090.5  Z " stroke-width="1" stroke="#797979" fill="none" />
</svg>