﻿<?xml version="1.0" encoding="utf-8"?>
<svg version="1.1" xmlns:xlink="http://www.w3.org/1999/xlink" width="12px" height="12px" viewBox="185 2049  12 12" xmlns="http://www.w3.org/2000/svg">
  <path d="M 191 2049  C 194.36 2049  197 2051.64  197 2055  C 197 2058.36  194.36 2061  191 2061  C 187.64 2061  185 2058.36  185 2055  C 185 2051.64  187.64 2049  191 2049  Z " fill-rule="nonzero" fill="#ffffff" stroke="none" />
  <path d="M 191 2049.5  C 194.08 2049.5  196.5 2051.92  196.5 2055  C 196.5 2058.08  194.08 2060.5  191 2060.5  C 187.92 2060.5  185.5 2058.08  185.5 2055  C 185.5 2051.92  187.92 2049.5  191 2049.5  Z " stroke-width="1" stroke="#797979" fill="none" />
  <path d="M 191 2058  C 189.32 2058  188 2056.68  188 2055  C 188 2053.32  189.32 2052  191 2052  C 192.68 2052  194 2053.32  194 2055  C 194 2056.68  192.68 2058  191 2058  " fill-rule="nonzero" fill="#797979" stroke="none" />
</svg>