﻿<?xml version="1.0" encoding="utf-8"?>
<svg version="1.1" xmlns:xlink="http://www.w3.org/1999/xlink" width="12px" height="12px" viewBox="185 2077  12 12" xmlns="http://www.w3.org/2000/svg">
  <path d="M 191 2077  C 194.36 2077  197 2079.64  197 2083  C 197 2086.36  194.36 2089  191 2089  C 187.64 2089  185 2086.36  185 2083  C 185 2079.64  187.64 2077  191 2077  Z " fill-rule="nonzero" fill="#ffffff" stroke="none" />
  <path d="M 191 2077.5  C 194.08 2077.5  196.5 2079.92  196.5 2083  C 196.5 2086.08  194.08 2088.5  191 2088.5  C 187.92 2088.5  185.5 2086.08  185.5 2083  C 185.5 2079.92  187.92 2077.5  191 2077.5  Z " stroke-width="1" stroke="#797979" fill="none" />
  <path d="M 191 2086  C 189.32 2086  188 2084.68  188 2083  C 188 2081.32  189.32 2080  191 2080  C 192.68 2080  194 2081.32  194 2083  C 194 2084.68  192.68 2086  191 2086  " fill-rule="nonzero" fill="#797979" stroke="none" />
</svg>