﻿<?xml version="1.0" encoding="utf-8"?>
<svg version="1.1" xmlns:xlink="http://www.w3.org/1999/xlink" width="12px" height="12px" viewBox="185 2525  12 12" xmlns="http://www.w3.org/2000/svg">
  <path d="M 191 2525  C 194.36 2525  197 2527.64  197 2531  C 197 2534.36  194.36 2537  191 2537  C 187.64 2537  185 2534.36  185 2531  C 185 2527.64  187.64 2525  191 2525  Z " fill-rule="nonzero" fill="#ffffff" stroke="none" />
  <path d="M 191 2525.5  C 194.08 2525.5  196.5 2527.92  196.5 2531  C 196.5 2534.08  194.08 2536.5  191 2536.5  C 187.92 2536.5  185.5 2534.08  185.5 2531  C 185.5 2527.92  187.92 2525.5  191 2525.5  Z " stroke-width="1" stroke="#797979" fill="none" />
</svg>