﻿<?xml version="1.0" encoding="utf-8"?>
<svg version="1.1" xmlns:xlink="http://www.w3.org/1999/xlink" width="12px" height="12px" viewBox="237 1035  12 12" xmlns="http://www.w3.org/2000/svg">
  <path d="M 237.5 1035.5  L 248.5 1035.5  L 248.5 1046.5  L 237.5 1046.5  L 237.5 1035.5  Z " fill-rule="nonzero" fill="#ffffff" stroke="none" />
  <path d="M 237.5 1035.5  L 248.5 1035.5  L 248.5 1046.5  L 237.5 1046.5  L 237.5 1035.5  Z " stroke-width="1" stroke="#797979" fill="none" />
  <path d="M 239.571428571429 1041  L 242.142857142857 1043.57142857143  L 246.428571428571 1037.57142857143  " stroke-width="2.57142857142857" stroke="#797979" fill="none" />
</svg>