﻿<?xml version="1.0" encoding="utf-8"?>
<svg version="1.1" xmlns:xlink="http://www.w3.org/1999/xlink" width="12px" height="12px" viewBox="185 2188  12 12" xmlns="http://www.w3.org/2000/svg">
  <path d="M 191 2188  C 194.36 2188  197 2190.64  197 2194  C 197 2197.36  194.36 2200  191 2200  C 187.64 2200  185 2197.36  185 2194  C 185 2190.64  187.64 2188  191 2188  Z " fill-rule="nonzero" fill="#f0f0f0" stroke="none" />
  <path d="M 191 2188.5  C 194.08 2188.5  196.5 2190.92  196.5 2194  C 196.5 2197.08  194.08 2199.5  191 2199.5  C 187.92 2199.5  185.5 2197.08  185.5 2194  C 185.5 2190.92  187.92 2188.5  191 2188.5  Z " stroke-width="1" stroke="#797979" fill="none" />
</svg>