﻿<?xml version="1.0" encoding="utf-8"?>
<svg version="1.1" xmlns:xlink="http://www.w3.org/1999/xlink" width="12px" height="12px" viewBox="185 756  12 12" xmlns="http://www.w3.org/2000/svg">
  <path d="M 191 756  C 194.36 756  197 758.64  197 762  C 197 765.36  194.36 768  191 768  C 187.64 768  185 765.36  185 762  C 185 758.64  187.64 756  191 756  Z " fill-rule="nonzero" fill="#ffffff" stroke="none" />
  <path d="M 191 756.5  C 194.08 756.5  196.5 758.92  196.5 762  C 196.5 765.08  194.08 767.5  191 767.5  C 187.92 767.5  185.5 765.08  185.5 762  C 185.5 758.92  187.92 756.5  191 756.5  Z " stroke-width="1" stroke="#797979" fill="none" />
  <path d="M 191 765  C 189.32 765  188 763.68  188 762  C 188 760.32  189.32 759  191 759  C 192.68 759  194 760.32  194 762  C 194 763.68  192.68 765  191 765  " fill-rule="nonzero" fill="#797979" stroke="none" />
</svg>