﻿<?xml version="1.0" encoding="utf-8"?>
<svg version="1.1" xmlns:xlink="http://www.w3.org/1999/xlink" width="12px" height="12px" viewBox="189 271  12 12" xmlns="http://www.w3.org/2000/svg">
  <path d="M 195 271  C 198.36 271  201 273.64  201 277  C 201 280.36  198.36 283  195 283  C 191.64 283  189 280.36  189 277  C 189 273.64  191.64 271  195 271  Z " fill-rule="nonzero" fill="#ffffff" stroke="none" />
  <path d="M 195 271.5  C 198.08 271.5  200.5 273.92  200.5 277  C 200.5 280.08  198.08 282.5  195 282.5  C 191.92 282.5  189.5 280.08  189.5 277  C 189.5 273.92  191.92 271.5  195 271.5  Z " stroke-width="1" stroke="#797979" fill="none" />
</svg>