﻿<?xml version="1.0" encoding="utf-8"?>
<svg version="1.1" xmlns:xlink="http://www.w3.org/1999/xlink" width="12px" height="12px" viewBox="185 2160  12 12" xmlns="http://www.w3.org/2000/svg">
  <path d="M 191 2160  C 194.36 2160  197 2162.64  197 2166  C 197 2169.36  194.36 2172  191 2172  C 187.64 2172  185 2169.36  185 2166  C 185 2162.64  187.64 2160  191 2160  Z " fill-rule="nonzero" fill="#ffffff" stroke="none" />
  <path d="M 191 2160.5  C 194.08 2160.5  196.5 2162.92  196.5 2166  C 196.5 2169.08  194.08 2171.5  191 2171.5  C 187.92 2171.5  185.5 2169.08  185.5 2166  C 185.5 2162.92  187.92 2160.5  191 2160.5  Z " stroke-width="1" stroke="#797979" fill="none" />
</svg>