﻿<?xml version="1.0" encoding="utf-8"?>
<svg version="1.1" xmlns:xlink="http://www.w3.org/1999/xlink" width="12px" height="12px" viewBox="185 931  12 12" xmlns="http://www.w3.org/2000/svg">
  <path d="M 191 931  C 194.36 931  197 933.64  197 937  C 197 940.36  194.36 943  191 943  C 187.64 943  185 940.36  185 937  C 185 933.64  187.64 931  191 931  Z " fill-rule="nonzero" fill="#ffffff" stroke="none" />
  <path d="M 191 931.5  C 194.08 931.5  196.5 933.92  196.5 937  C 196.5 940.08  194.08 942.5  191 942.5  C 187.92 942.5  185.5 940.08  185.5 937  C 185.5 933.92  187.92 931.5  191 931.5  Z " stroke-width="1" stroke="#797979" fill="none" />
</svg>