﻿<?xml version="1.0" encoding="utf-8"?>
<svg version="1.1" xmlns:xlink="http://www.w3.org/1999/xlink" width="12px" height="12px" viewBox="185 1292  12 12" xmlns="http://www.w3.org/2000/svg">
  <path d="M 191 1292  C 194.36 1292  197 1294.64  197 1298  C 197 1301.36  194.36 1304  191 1304  C 187.64 1304  185 1301.36  185 1298  C 185 1294.64  187.64 1292  191 1292  Z " fill-rule="nonzero" fill="#ffffff" stroke="none" />
  <path d="M 191 1292.5  C 194.08 1292.5  196.5 1294.92  196.5 1298  C 196.5 1301.08  194.08 1303.5  191 1303.5  C 187.92 1303.5  185.5 1301.08  185.5 1298  C 185.5 1294.92  187.92 1292.5  191 1292.5  Z " stroke-width="1" stroke="#797979" fill="none" />
</svg>