﻿<?xml version="1.0" encoding="utf-8"?>
<svg version="1.1" xmlns:xlink="http://www.w3.org/1999/xlink" width="12px" height="12px" viewBox="185 1407  12 12" xmlns="http://www.w3.org/2000/svg">
  <path d="M 191 1407  C 194.36 1407  197 1409.64  197 1413  C 197 1416.36  194.36 1419  191 1419  C 187.64 1419  185 1416.36  185 1413  C 185 1409.64  187.64 1407  191 1407  Z " fill-rule="nonzero" fill="#ffffff" stroke="none" />
  <path d="M 191 1407.5  C 194.08 1407.5  196.5 1409.92  196.5 1413  C 196.5 1416.08  194.08 1418.5  191 1418.5  C 187.92 1418.5  185.5 1416.08  185.5 1413  C 185.5 1409.92  187.92 1407.5  191 1407.5  Z " stroke-width="1" stroke="#797979" fill="none" />
</svg>