﻿<?xml version="1.0" encoding="utf-8"?>
<svg version="1.1" xmlns:xlink="http://www.w3.org/1999/xlink" width="12px" height="12px" viewBox="185 2301  12 12" xmlns="http://www.w3.org/2000/svg">
  <path d="M 191 2301  C 194.36 2301  197 2303.64  197 2307  C 197 2310.36  194.36 2313  191 2313  C 187.64 2313  185 2310.36  185 2307  C 185 2303.64  187.64 2301  191 2301  Z " fill-rule="nonzero" fill="#ffffff" stroke="none" />
  <path d="M 191 2301.5  C 194.08 2301.5  196.5 2303.92  196.5 2307  C 196.5 2310.08  194.08 2312.5  191 2312.5  C 187.92 2312.5  185.5 2310.08  185.5 2307  C 185.5 2303.92  187.92 2301.5  191 2301.5  Z " stroke-width="1" stroke="#797979" fill="none" />
</svg>