﻿<?xml version="1.0" encoding="utf-8"?>
<svg version="1.1" xmlns:xlink="http://www.w3.org/1999/xlink" width="12px" height="12px" viewBox="185 1815  12 12" xmlns="http://www.w3.org/2000/svg">
  <path d="M 191 1815  C 194.36 1815  197 1817.64  197 1821  C 197 1824.36  194.36 1827  191 1827  C 187.64 1827  185 1824.36  185 1821  C 185 1817.64  187.64 1815  191 1815  Z " fill-rule="nonzero" fill="#f0f0f0" stroke="none" />
  <path d="M 191 1815.5  C 194.08 1815.5  196.5 1817.92  196.5 1821  C 196.5 1824.08  194.08 1826.5  191 1826.5  C 187.92 1826.5  185.5 1824.08  185.5 1821  C 185.5 1817.92  187.92 1815.5  191 1815.5  Z " stroke-width="1" stroke="#797979" fill="none" />
</svg>