﻿<?xml version="1.0" encoding="utf-8"?>
<svg version="1.1" xmlns:xlink="http://www.w3.org/1999/xlink" width="12px" height="12px" viewBox="185 1787  12 12" xmlns="http://www.w3.org/2000/svg">
  <path d="M 191 1787  C 194.36 1787  197 1789.64  197 1793  C 197 1796.36  194.36 1799  191 1799  C 187.64 1799  185 1796.36  185 1793  C 185 1789.64  187.64 1787  191 1787  Z " fill-rule="nonzero" fill="#f0f0f0" stroke="none" />
  <path d="M 191 1787.5  C 194.08 1787.5  196.5 1789.92  196.5 1793  C 196.5 1796.08  194.08 1798.5  191 1798.5  C 187.92 1798.5  185.5 1796.08  185.5 1793  C 185.5 1789.92  187.92 1787.5  191 1787.5  Z " stroke-width="1" stroke="#797979" fill="none" />
</svg>