﻿<?xml version="1.0" encoding="utf-8"?>
<svg version="1.1" xmlns:xlink="http://www.w3.org/1999/xlink" width="12px" height="12px" viewBox="185 1964  12 12" xmlns="http://www.w3.org/2000/svg">
  <path d="M 191 1964  C 194.36 1964  197 1966.64  197 1970  C 197 1973.36  194.36 1976  191 1976  C 187.64 1976  185 1973.36  185 1970  C 185 1966.64  187.64 1964  191 1964  Z " fill-rule="nonzero" fill="#f0f0f0" stroke="none" />
  <path d="M 191 1964.5  C 194.08 1964.5  196.5 1966.92  196.5 1970  C 196.5 1973.08  194.08 1975.5  191 1975.5  C 187.92 1975.5  185.5 1973.08  185.5 1970  C 185.5 1966.92  187.92 1964.5  191 1964.5  Z " stroke-width="1" stroke="#797979" fill="none" />
</svg>