﻿<?xml version="1.0" encoding="utf-8"?>
<svg version="1.1" xmlns:xlink="http://www.w3.org/1999/xlink" width="12px" height="12px" viewBox="185 2273  12 12" xmlns="http://www.w3.org/2000/svg">
  <path d="M 191 2273  C 194.36 2273  197 2275.64  197 2279  C 197 2282.36  194.36 2285  191 2285  C 187.64 2285  185 2282.36  185 2279  C 185 2275.64  187.64 2273  191 2273  Z " fill-rule="nonzero" fill="#ffffff" stroke="none" />
  <path d="M 191 2273.5  C 194.08 2273.5  196.5 2275.92  196.5 2279  C 196.5 2282.08  194.08 2284.5  191 2284.5  C 187.92 2284.5  185.5 2282.08  185.5 2279  C 185.5 2275.92  187.92 2273.5  191 2273.5  Z " stroke-width="1" stroke="#797979" fill="none" />
</svg>