﻿<?xml version="1.0" encoding="utf-8"?>
<svg version="1.1" xmlns:xlink="http://www.w3.org/1999/xlink" width="12px" height="12px" viewBox="185 2438  12 12" xmlns="http://www.w3.org/2000/svg">
  <path d="M 191 2438  C 194.36 2438  197 2440.64  197 2444  C 197 2447.36  194.36 2450  191 2450  C 187.64 2450  185 2447.36  185 2444  C 185 2440.64  187.64 2438  191 2438  Z " fill-rule="nonzero" fill="#f0f0f0" stroke="none" />
  <path d="M 191 2438.5  C 194.08 2438.5  196.5 2440.92  196.5 2444  C 196.5 2447.08  194.08 2449.5  191 2449.5  C 187.92 2449.5  185.5 2447.08  185.5 2444  C 185.5 2440.92  187.92 2438.5  191 2438.5  Z " stroke-width="1" stroke="#797979" fill="none" />
</svg>