﻿<?xml version="1.0" encoding="utf-8"?>
<svg version="1.1" xmlns:xlink="http://www.w3.org/1999/xlink" width="12px" height="12px" viewBox="185 2553  12 12" xmlns="http://www.w3.org/2000/svg">
  <path d="M 191 2553  C 194.36 2553  197 2555.64  197 2559  C 197 2562.36  194.36 2565  191 2565  C 187.64 2565  185 2562.36  185 2559  C 185 2555.64  187.64 2553  191 2553  Z " fill-rule="nonzero" fill="#f0f0f0" stroke="none" />
  <path d="M 191 2553.5  C 194.08 2553.5  196.5 2555.92  196.5 2559  C 196.5 2562.08  194.08 2564.5  191 2564.5  C 187.92 2564.5  185.5 2562.08  185.5 2559  C 185.5 2555.92  187.92 2553.5  191 2553.5  Z " stroke-width="1" stroke="#797979" fill="none" />
</svg>