﻿<?xml version="1.0" encoding="utf-8"?>
<svg version="1.1" xmlns:xlink="http://www.w3.org/1999/xlink" width="12px" height="12px" viewBox="185 2910  12 12" xmlns="http://www.w3.org/2000/svg">
  <path d="M 191 2910  C 194.36 2910  197 2912.64  197 2916  C 197 2919.36  194.36 2922  191 2922  C 187.64 2922  185 2919.36  185 2916  C 185 2912.64  187.64 2910  191 2910  Z " fill-rule="nonzero" fill="#f0f0f0" stroke="none" />
  <path d="M 191 2910.5  C 194.08 2910.5  196.5 2912.92  196.5 2916  C 196.5 2919.08  194.08 2921.5  191 2921.5  C 187.92 2921.5  185.5 2919.08  185.5 2916  C 185.5 2912.92  187.92 2910.5  191 2910.5  Z " stroke-width="1" stroke="#797979" fill="none" />
</svg>