﻿<?xml version="1.0" encoding="utf-8"?>
<svg version="1.1" xmlns:xlink="http://www.w3.org/1999/xlink" width="12px" height="12px" viewBox="185 547  12 12" xmlns="http://www.w3.org/2000/svg">
  <path d="M 191 547  C 194.36 547  197 549.64  197 553  C 197 556.36  194.36 559  191 559  C 187.64 559  185 556.36  185 553  C 185 549.64  187.64 547  191 547  Z " fill-rule="nonzero" fill="#ffffff" stroke="none" />
  <path d="M 191 547.5  C 194.08 547.5  196.5 549.92  196.5 553  C 196.5 556.08  194.08 558.5  191 558.5  C 187.92 558.5  185.5 556.08  185.5 553  C 185.5 549.92  187.92 547.5  191 547.5  Z " stroke-width="1" stroke="#797979" fill="none" />
</svg>