﻿<?xml version="1.0" encoding="utf-8"?>
<svg version="1.1" xmlns:xlink="http://www.w3.org/1999/xlink" width="12px" height="12px" viewBox="185 1062  12 12" xmlns="http://www.w3.org/2000/svg">
  <path d="M 191 1062  C 194.36 1062  197 1064.64  197 1068  C 197 1071.36  194.36 1074  191 1074  C 187.64 1074  185 1071.36  185 1068  C 185 1064.64  187.64 1062  191 1062  Z " fill-rule="nonzero" fill="#ffffff" stroke="none" />
  <path d="M 191 1062.5  C 194.08 1062.5  196.5 1064.92  196.5 1068  C 196.5 1071.08  194.08 1073.5  191 1073.5  C 187.92 1073.5  185.5 1071.08  185.5 1068  C 185.5 1064.92  187.92 1062.5  191 1062.5  Z " stroke-width="1" stroke="#797979" fill="none" />
  <path d="M 191 1071  C 189.32 1071  188 1069.68  188 1068  C 188 1066.32  189.32 1065  191 1065  C 192.68 1065  194 1066.32  194 1068  C 194 1069.68  192.68 1071  191 1071  " fill-rule="nonzero" fill="#797979" stroke="none" />
</svg>