﻿<?xml version="1.0" encoding="utf-8"?>
<svg version="1.1" xmlns:xlink="http://www.w3.org/1999/xlink" width="12px" height="12px" viewBox="189 148  12 12" xmlns="http://www.w3.org/2000/svg">
  <path d="M 195 148  C 198.36 148  201 150.64  201 154  C 201 157.36  198.36 160  195 160  C 191.64 160  189 157.36  189 154  C 189 150.64  191.64 148  195 148  Z " fill-rule="nonzero" fill="#f0f0f0" stroke="none" />
  <path d="M 195 148.5  C 198.08 148.5  200.5 150.92  200.5 154  C 200.5 157.08  198.08 159.5  195 159.5  C 191.92 159.5  189.5 157.08  189.5 154  C 189.5 150.92  191.92 148.5  195 148.5  Z " stroke-width="1" stroke="#797979" fill="none" />
</svg>