﻿<?xml version="1.0" encoding="utf-8"?>
<svg version="1.1" xmlns:xlink="http://www.w3.org/1999/xlink" width="12px" height="12px" viewBox="185 651  12 12" xmlns="http://www.w3.org/2000/svg">
  <path d="M 191 651  C 194.36 651  197 653.64  197 657  C 197 660.36  194.36 663  191 663  C 187.64 663  185 660.36  185 657  C 185 653.64  187.64 651  191 651  Z " fill-rule="nonzero" fill="#ffffff" stroke="none" />
  <path d="M 191 651.5  C 194.08 651.5  196.5 653.92  196.5 657  C 196.5 660.08  194.08 662.5  191 662.5  C 187.92 662.5  185.5 660.08  185.5 657  C 185.5 653.92  187.92 651.5  191 651.5  Z " stroke-width="1" stroke="#797979" fill="none" />
  <path d="M 191 660  C 189.32 660  188 658.68  188 657  C 188 655.32  189.32 654  191 654  C 192.68 654  194 655.32  194 657  C 194 658.68  192.68 660  191 660  " fill-rule="nonzero" fill="#797979" stroke="none" />
</svg>