﻿<?xml version="1.0" encoding="utf-8"?>
<svg version="1.1" xmlns:xlink="http://www.w3.org/1999/xlink" width="12px" height="12px" viewBox="185 829  12 12" xmlns="http://www.w3.org/2000/svg">
  <path d="M 191 829  C 194.36 829  197 831.64  197 835  C 197 838.36  194.36 841  191 841  C 187.64 841  185 838.36  185 835  C 185 831.64  187.64 829  191 829  Z " fill-rule="nonzero" fill="#ffffff" stroke="none" />
  <path d="M 191 829.5  C 194.08 829.5  196.5 831.92  196.5 835  C 196.5 838.08  194.08 840.5  191 840.5  C 187.92 840.5  185.5 838.08  185.5 835  C 185.5 831.92  187.92 829.5  191 829.5  Z " stroke-width="1" stroke="#797979" fill="none" />
</svg>