﻿<?xml version="1.0" encoding="utf-8"?>
<svg version="1.1" xmlns:xlink="http://www.w3.org/1999/xlink" width="12px" height="12px" viewBox="185 959  12 12" xmlns="http://www.w3.org/2000/svg">
  <path d="M 191 959  C 194.36 959  197 961.64  197 965  C 197 968.36  194.36 971  191 971  C 187.64 971  185 968.36  185 965  C 185 961.64  187.64 959  191 959  Z " fill-rule="nonzero" fill="#ffffff" stroke="none" />
  <path d="M 191 959.5  C 194.08 959.5  196.5 961.92  196.5 965  C 196.5 968.08  194.08 970.5  191 970.5  C 187.92 970.5  185.5 968.08  185.5 965  C 185.5 961.92  187.92 959.5  191 959.5  Z " stroke-width="1" stroke="#797979" fill="none" />
  <path d="M 191 968  C 189.32 968  188 966.68  188 965  C 188 963.32  189.32 962  191 962  C 192.68 962  194 963.32  194 965  C 194 966.68  192.68 968  191 968  " fill-rule="nonzero" fill="#797979" stroke="none" />
</svg>