﻿<?xml version="1.0" encoding="utf-8"?>
<svg version="1.1" xmlns:xlink="http://www.w3.org/1999/xlink" width="12px" height="12px" viewBox="185 1195  12 12" xmlns="http://www.w3.org/2000/svg">
  <path d="M 191 1195  C 194.36 1195  197 1197.64  197 1201  C 197 1204.36  194.36 1207  191 1207  C 187.64 1207  185 1204.36  185 1201  C 185 1197.64  187.64 1195  191 1195  Z " fill-rule="nonzero" fill="#f0f0f0" stroke="none" />
  <path d="M 191 1195.5  C 194.08 1195.5  196.5 1197.92  196.5 1201  C 196.5 1204.08  194.08 1206.5  191 1206.5  C 187.92 1206.5  185.5 1204.08  185.5 1201  C 185.5 1197.92  187.92 1195.5  191 1195.5  Z " stroke-width="1" stroke="#797979" fill="none" />
</svg>