﻿<?xml version="1.0" encoding="utf-8"?>
<svg version="1.1" xmlns:xlink="http://www.w3.org/1999/xlink" width="12px" height="12px" viewBox="185 2797  12 12" xmlns="http://www.w3.org/2000/svg">
  <path d="M 191 2797  C 194.36 2797  197 2799.64  197 2803  C 197 2806.36  194.36 2809  191 2809  C 187.64 2809  185 2806.36  185 2803  C 185 2799.64  187.64 2797  191 2797  Z " fill-rule="nonzero" fill="#f0f0f0" stroke="none" />
  <path d="M 191 2797.5  C 194.08 2797.5  196.5 2799.92  196.5 2803  C 196.5 2806.08  194.08 2808.5  191 2808.5  C 187.92 2808.5  185.5 2806.08  185.5 2803  C 185.5 2799.92  187.92 2797.5  191 2797.5  Z " stroke-width="1" stroke="#797979" fill="none" />
</svg>