﻿<?xml version="1.0" encoding="utf-8"?>
<svg version="1.1" xmlns:xlink="http://www.w3.org/1999/xlink" width="12px" height="12px" viewBox="185 2710  12 12" xmlns="http://www.w3.org/2000/svg">
  <path d="M 191 2710  C 194.36 2710  197 2712.64  197 2716  C 197 2719.36  194.36 2722  191 2722  C 187.64 2722  185 2719.36  185 2716  C 185 2712.64  187.64 2710  191 2710  Z " fill-rule="nonzero" fill="#f0f0f0" stroke="none" />
  <path d="M 191 2710.5  C 194.08 2710.5  196.5 2712.92  196.5 2716  C 196.5 2719.08  194.08 2721.5  191 2721.5  C 187.92 2721.5  185.5 2719.08  185.5 2716  C 185.5 2712.92  187.92 2710.5  191 2710.5  Z " stroke-width="1" stroke="#797979" fill="none" />
</svg>