﻿<?xml version="1.0" encoding="utf-8"?>
<svg version="1.1" xmlns:xlink="http://www.w3.org/1999/xlink" width="12px" height="12px" viewBox="185 2825  12 12" xmlns="http://www.w3.org/2000/svg">
  <path d="M 191 2825  C 194.36 2825  197 2827.64  197 2831  C 197 2834.36  194.36 2837  191 2837  C 187.64 2837  185 2834.36  185 2831  C 185 2827.64  187.64 2825  191 2825  Z " fill-rule="nonzero" fill="#f0f0f0" stroke="none" />
  <path d="M 191 2825.5  C 194.08 2825.5  196.5 2827.92  196.5 2831  C 196.5 2834.08  194.08 2836.5  191 2836.5  C 187.92 2836.5  185.5 2834.08  185.5 2831  C 185.5 2827.92  187.92 2825.5  191 2825.5  Z " stroke-width="1" stroke="#797979" fill="none" />
</svg>