﻿<?xml version="1.0" encoding="utf-8"?>
<svg version="1.1" xmlns:xlink="http://www.w3.org/1999/xlink" width="12px" height="12px" viewBox="185 1320  12 12" xmlns="http://www.w3.org/2000/svg">
  <path d="M 191 1320  C 194.36 1320  197 1322.64  197 1326  C 197 1329.36  194.36 1332  191 1332  C 187.64 1332  185 1329.36  185 1326  C 185 1322.64  187.64 1320  191 1320  Z " fill-rule="nonzero" fill="#f0f0f0" stroke="none" />
  <path d="M 191 1320.5  C 194.08 1320.5  196.5 1322.92  196.5 1326  C 196.5 1329.08  194.08 1331.5  191 1331.5  C 187.92 1331.5  185.5 1329.08  185.5 1326  C 185.5 1322.92  187.92 1320.5  191 1320.5  Z " stroke-width="1" stroke="#797979" fill="none" />
</svg>