﻿<?xml version="1.0" encoding="utf-8"?>
<svg version="1.1" xmlns:xlink="http://www.w3.org/1999/xlink" width="12px" height="12px" viewBox="185 1435  12 12" xmlns="http://www.w3.org/2000/svg">
  <path d="M 191 1435  C 194.36 1435  197 1437.64  197 1441  C 197 1444.36  194.36 1447  191 1447  C 187.64 1447  185 1444.36  185 1441  C 185 1437.64  187.64 1435  191 1435  Z " fill-rule="nonzero" fill="#ffffff" stroke="none" />
  <path d="M 191 1435.5  C 194.08 1435.5  196.5 1437.92  196.5 1441  C 196.5 1444.08  194.08 1446.5  191 1446.5  C 187.92 1446.5  185.5 1444.08  185.5 1441  C 185.5 1437.92  187.92 1435.5  191 1435.5  Z " stroke-width="1" stroke="#797979" fill="none" />
  <path d="M 191 1444  C 189.32 1444  188 1442.68  188 1441  C 188 1439.32  189.32 1438  191 1438  C 192.68 1438  194 1439.32  194 1441  C 194 1442.68  192.68 1444  191 1444  " fill-rule="nonzero" fill="#797979" stroke="none" />
</svg>