﻿<?xml version="1.0" encoding="utf-8"?>
<svg version="1.1" xmlns:xlink="http://www.w3.org/1999/xlink" width="12px" height="12px" viewBox="185 1586  12 12" xmlns="http://www.w3.org/2000/svg">
  <path d="M 191 1586  C 194.36 1586  197 1588.64  197 1592  C 197 1595.36  194.36 1598  191 1598  C 187.64 1598  185 1595.36  185 1592  C 185 1588.64  187.64 1586  191 1586  Z " fill-rule="nonzero" fill="#f0f0f0" stroke="none" />
  <path d="M 191 1586.5  C 194.08 1586.5  196.5 1588.92  196.5 1592  C 196.5 1595.08  194.08 1597.5  191 1597.5  C 187.92 1597.5  185.5 1595.08  185.5 1592  C 185.5 1588.92  187.92 1586.5  191 1586.5  Z " stroke-width="1" stroke="#797979" fill="none" />
</svg>