﻿<?xml version="1.0" encoding="utf-8"?>
<svg version="1.1" xmlns:xlink="http://www.w3.org/1999/xlink" width="12px" height="12px" viewBox="185 1703  12 12" xmlns="http://www.w3.org/2000/svg">
  <path d="M 191 1703  C 194.36 1703  197 1705.64  197 1709  C 197 1712.36  194.36 1715  191 1715  C 187.64 1715  185 1712.36  185 1709  C 185 1705.64  187.64 1703  191 1703  Z " fill-rule="nonzero" fill="#ffffff" stroke="none" />
  <path d="M 191 1703.5  C 194.08 1703.5  196.5 1705.92  196.5 1709  C 196.5 1712.08  194.08 1714.5  191 1714.5  C 187.92 1714.5  185.5 1712.08  185.5 1709  C 185.5 1705.92  187.92 1703.5  191 1703.5  Z " stroke-width="1" stroke="#797979" fill="none" />
</svg>