﻿<?xml version="1.0" encoding="utf-8"?>
<svg version="1.1" xmlns:xlink="http://www.w3.org/1999/xlink" width="12px" height="12px" viewBox="185 2682  12 12" xmlns="http://www.w3.org/2000/svg">
  <path d="M 191 2682  C 194.36 2682  197 2684.64  197 2688  C 197 2691.36  194.36 2694  191 2694  C 187.64 2694  185 2691.36  185 2688  C 185 2684.64  187.64 2682  191 2682  Z " fill-rule="nonzero" fill="#ffffff" stroke="none" />
  <path d="M 191 2682.5  C 194.08 2682.5  196.5 2684.92  196.5 2688  C 196.5 2691.08  194.08 2693.5  191 2693.5  C 187.92 2693.5  185.5 2691.08  185.5 2688  C 185.5 2684.92  187.92 2682.5  191 2682.5  Z " stroke-width="1" stroke="#797979" fill="none" />
</svg>