﻿<?xml version="1.0" encoding="utf-8"?>
<svg version="1.1" xmlns:xlink="http://www.w3.org/1999/xlink" width="12px" height="12px" viewBox="185 2938  12 12" xmlns="http://www.w3.org/2000/svg">
  <path d="M 191 2938  C 194.36 2938  197 2940.64  197 2944  C 197 2947.36  194.36 2950  191 2950  C 187.64 2950  185 2947.36  185 2944  C 185 2940.64  187.64 2938  191 2938  Z " fill-rule="nonzero" fill="#f0f0f0" stroke="none" />
  <path d="M 191 2938.5  C 194.08 2938.5  196.5 2940.92  196.5 2944  C 196.5 2947.08  194.08 2949.5  191 2949.5  C 187.92 2949.5  185.5 2947.08  185.5 2944  C 185.5 2940.92  187.92 2938.5  191 2938.5  Z " stroke-width="1" stroke="#797979" fill="none" />
</svg>