﻿<?xml version="1.0" encoding="utf-8"?>
<svg version="1.1" xmlns:xlink="http://www.w3.org/1999/xlink" width="12px" height="12px" viewBox="185 1558  12 12" xmlns="http://www.w3.org/2000/svg">
  <path d="M 191 1558  C 194.36 1558  197 1560.64  197 1564  C 197 1567.36  194.36 1570  191 1570  C 187.64 1570  185 1567.36  185 1564  C 185 1560.64  187.64 1558  191 1558  Z " fill-rule="nonzero" fill="#ffffff" stroke="none" />
  <path d="M 191 1558.5  C 194.08 1558.5  196.5 1560.92  196.5 1564  C 196.5 1567.08  194.08 1569.5  191 1569.5  C 187.92 1569.5  185.5 1567.08  185.5 1564  C 185.5 1560.92  187.92 1558.5  191 1558.5  Z " stroke-width="1" stroke="#797979" fill="none" />
</svg>