﻿<?xml version="1.0" encoding="utf-8"?>
<svg version="1.1" xmlns:xlink="http://www.w3.org/1999/xlink" width="12px" height="12px" viewBox="185 1936  12 12" xmlns="http://www.w3.org/2000/svg">
  <path d="M 191 1936  C 194.36 1936  197 1938.64  197 1942  C 197 1945.36  194.36 1948  191 1948  C 187.64 1948  185 1945.36  185 1942  C 185 1938.64  187.64 1936  191 1936  Z " fill-rule="nonzero" fill="#ffffff" stroke="none" />
  <path d="M 191 1936.5  C 194.08 1936.5  196.5 1938.92  196.5 1942  C 196.5 1945.08  194.08 1947.5  191 1947.5  C 187.92 1947.5  185.5 1945.08  185.5 1942  C 185.5 1938.92  187.92 1936.5  191 1936.5  Z " stroke-width="1" stroke="#797979" fill="none" />
  <path d="M 191 1945  C 189.32 1945  188 1943.68  188 1942  C 188 1940.32  189.32 1939  191 1939  C 192.68 1939  194 1940.32  194 1942  C 194 1943.68  192.68 1945  191 1945  " fill-rule="nonzero" fill="#797979" stroke="none" />
</svg>