﻿<?xml version="1.0" encoding="utf-8"?>
<svg version="1.1" xmlns:xlink="http://www.w3.org/1999/xlink" width="154px" height="98px" xmlns="http://www.w3.org/2000/svg">
  <g transform="matrix(1 0 0 1 -72 -276 )">
    <path d="M 74 278  L 224 278  L 224 372  L 74 372  L 74 278  Z " fill-rule="nonzero" fill="#ffffff" stroke="none" fill-opacity="0" />
    <path d="M 73 277  L 225 277  L 225 373  L 73 373  L 73 277  Z " stroke-width="2" stroke-dasharray="6,2" stroke="#cccccc" fill="none" />
  </g>
</svg>