﻿<?xml version="1.0" encoding="utf-8"?>
<svg version="1.1" xmlns:xlink="http://www.w3.org/1999/xlink" width="145px" height="98px" xmlns="http://www.w3.org/2000/svg">
  <g transform="matrix(1 0 0 1 -235 -276 )">
    <path d="M 237 278  L 378 278  L 378 372  L 237 372  L 237 278  Z " fill-rule="nonzero" fill="#ffffff" stroke="none" fill-opacity="0" />
    <path d="M 236 277  L 379 277  L 379 373  L 236 373  L 236 277  Z " stroke-width="2" stroke-dasharray="6,2" stroke="#cccccc" fill="none" />
  </g>
</svg>