﻿<?xml version="1.0" encoding="utf-8"?>
<svg version="1.1" xmlns:xlink="http://www.w3.org/1999/xlink" width="41px" height="32px" xmlns="http://www.w3.org/2000/svg">
  <g transform="matrix(1 0 0 1 -128 -295 )">
    <path d="M 16.1544270833333 14.5480769230769  C 17.3573784722222 13.4647435897436  18.8059027777778 12.9230769230769  20.5 12.9230769230769  C 22.1940972222222 12.9230769230769  23.6426215277778 13.4647435897436  24.8455729166667 14.5480769230769  C 26.0485243055556 15.6314102564103  26.65 16.9358974358975  26.65 18.4615384615385  C 26.65 19.9871794871795  26.0485243055556 21.2916666666667  24.8455729166667 22.375  C 23.6426215277778 23.4583333333333  22.1940972222222 24  20.5 24  C 18.8059027777778 24  17.3573784722222 23.4583333333333  16.1544270833333 22.375  C 14.9514756944445 21.2916666666667  14.35 19.9871794871795  14.35 18.4615384615385  C 14.35 16.9358974358975  14.9514756944445 15.6314102564103  16.1544270833333 14.5480769230769  Z M 30.75 4.92307692307691  L 35.5333333333333 4.92307692307691  C 37.0423611111111 4.92307692307691  38.3307291666667 5.40384615384613  39.3984375 6.36538461538464  C 40.4661458333334 7.32692307692309  41 8.4871794871795  41 9.84615384615387  L 41 27.0769230769231  C 41 28.4358974358975  40.4661458333334 29.5961538461539  39.3984375 30.5576923076923  C 38.3307291666667 31.5192307692308  37.0423611111111 32  35.5333333333333 32  L 5.46666666666667 32  C 3.95763888888888 32  2.66927083333334 31.5192307692308  1.6015625 30.5576923076923  C 0.533854166666661 29.5961538461539  0 28.4358974358975  0 27.0769230769231  L 0 9.84615384615387  C 0 8.4871794871795  0.533854166666661 7.32692307692309  1.6015625 6.36538461538464  C 2.66927083333334 5.40384615384613  3.95763888888888 4.92307692307691  5.46666666666667 4.92307692307691  L 10.25 4.92307692307691  L 11.3390625 2.30769230769232  C 11.6095486111111 1.67948717948718  12.1042534722222 1.1378205128205  12.8231770833333 0.682692307692321  C 13.5421006944444 0.227564102564088  14.2788194444444 0  15.0333333333333 0  L 25.9666666666667 0  C 26.7211805555556 0  27.4578993055556 0.227564102564088  28.1768229166667 0.682692307692321  C 28.8957465277778 1.1378205128205  29.3904513888889 1.67948717948718  29.6609375 2.30769230769232  L 30.75 4.92307692307691  Z M 13.74140625 24.5480769230769  C 15.6134548611111 26.2339743589744  17.8663194444444 27.0769230769231  20.5 27.0769230769231  C 23.1336805555556 27.0769230769231  25.3865451388889 26.2339743589744  27.25859375 24.5480769230769  C 29.1306423611111 22.8621794871795  30.0666666666667 20.8333333333333  30.0666666666667 18.4615384615385  C 30.0666666666667 16.0897435897436  29.1306423611111 14.0608974358975  27.25859375 12.375  C 25.3865451388889 10.6891025641025  23.1336805555556 9.84615384615387  20.5 9.84615384615387  C 17.8663194444444 9.84615384615387  15.6134548611111 10.6891025641025  13.74140625 12.375  C 11.8693576388889 14.0608974358975  10.9333333333333 16.0897435897436  10.9333333333333 18.4615384615385  C 10.9333333333333 20.8333333333333  11.8693576388889 22.8621794871795  13.74140625 24.5480769230769  Z " fill-rule="nonzero" fill="#c9c9c9" stroke="none" transform="matrix(1 0 0 1 128 295 )" />
  </g>
</svg>