﻿<?xml version="1.0" encoding="utf-8"?>
<svg version="1.1" xmlns:xlink="http://www.w3.org/1999/xlink" width="307px" height="98px" xmlns="http://www.w3.org/2000/svg">
  <g transform="matrix(1 0 0 1 -72 -390 )">
    <path d="M 74 392  L 377 392  L 377 486  L 74 486  L 74 392  Z " fill-rule="nonzero" fill="#ffffff" stroke="none" fill-opacity="0" />
    <path d="M 73 391  L 378 391  L 378 487  L 73 487  L 73 391  Z " stroke-width="2" stroke-dasharray="6,2" stroke="#cccccc" fill="none" />
  </g>
</svg>