﻿<?xml version="1.0" encoding="utf-8"?>
<svg version="1.1" xmlns:xlink="http://www.w3.org/1999/xlink" width="173px" height="40px" xmlns="http://www.w3.org/2000/svg">
  <g transform="matrix(1 0 0 1 -602 -570 )">
    <path d="M 0 34.3333282470703  L 0 5.66667175292969  C 0 2.49333557128904  2.49333557128909 0  5.66667175292969 0  L 116.615384615385 0  L 167.33332824707 0  C 170.506664428711 0  173 2.49333557128904  173 5.66667175292969  L 173 34.3333282470703  C 173 37.506664428711  170.506664428711 40  167.33332824707 40  L 5.66667175292969 40  C 2.49333557128909 40  0 37.506664428711  0 34.3333282470703  Z " fill-rule="nonzero" fill="#0099ff" stroke="none" transform="matrix(1 0 0 1 602 570 )" />
  </g>
</svg>